                  SHIS LTD (01647)
      时间	    开盘	    最高	    最低	    收盘	         成交量	   MA.MA1   	   MA.MA2   	   MA.MA3   	   MA.MA4   	 MACD.DIF   	 MACD.DEA   	 MACD.MACD  	
 2017/03/30	   0.630	   1.010	   0.600	   0.970	        4991000	           	           	           	           	      0.000	      0.000	      0.000	
 2017/03/31	   0.980	   0.980	   0.820	   0.900	         893350	           	           	           	           	     -0.006	     -0.001	     -0.009	
 2017/04/03	   0.880	   0.890	   0.800	   0.840	         196600	           	           	           	           	     -0.015	     -0.004	     -0.022	
 2017/04/05	   0.830	   1.170	   0.820	   0.960	        1377450	           	           	           	           	     -0.012	     -0.005	     -0.013	
 2017/04/06	   0.960	   1.040	   0.880	   0.880	         360800	      0.910	           	           	           	     -0.016	     -0.008	     -0.017	
 2017/04/07	   0.870	   0.930	   0.840	   0.880	         253700	      0.892	           	           	           	     -0.019	     -0.010	     -0.019	
 2017/04/10	   0.900	   0.910	   0.860	   0.880	          78250	      0.888	           	           	           	     -0.022	     -0.012	     -0.019	
 2017/04/11	   0.890	   0.890	   0.740	   0.800	         235650	      0.880	           	           	           	     -0.029	     -0.016	     -0.027	
 2017/04/12	   0.780	   0.820	   0.770	   0.800	          73900	      0.848	           	           	           	     -0.035	     -0.020	     -0.031	
 2017/04/13	   0.800	   0.840	   0.770	   0.790	          48150	      0.830	           	           	           	     -0.040	     -0.024	     -0.033	
 2017/04/18	   0.790	   0.790	   0.760	   0.780	          44500	      0.810	           	           	           	     -0.044	     -0.028	     -0.033	
 2017/04/19	   0.770	   0.820	   0.740	   0.780	          89050	      0.790	           	           	           	     -0.047	     -0.032	     -0.031	
 2017/04/20	   0.800	   0.800	   0.770	   0.780	          13050	      0.786	           	           	           	     -0.049	     -0.035	     -0.027	
 2017/04/21	   0.790	   0.910	   0.780	   0.850	         266500	      0.796	           	           	           	     -0.044	     -0.037	     -0.014	
 2017/04/24	   0.850	   0.910	   0.800	   0.810	          89700	      0.800	           	           	           	     -0.043	     -0.038	     -0.010	
 2017/04/25	   0.810	   0.820	   0.780	   0.790	          49050	      0.802	           	           	           	     -0.043	     -0.039	     -0.008	
 2017/04/26	   0.790	   0.810	   0.750	   0.760	         197300	      0.798	           	           	           	     -0.045	     -0.040	     -0.010	
 2017/04/27	   0.760	   0.780	   0.740	   0.760	          34450	      0.794	           	           	           	     -0.046	     -0.042	     -0.010	
 2017/04/28	   0.760	   0.770	   0.750	   0.750	         108250	      0.774	           	           	           	     -0.048	     -0.043	     -0.010	
 2017/05/02	   0.750	   0.780	   0.710	   0.730	          24550	      0.758	           	           	           	     -0.050	     -0.044	     -0.011	
 2017/05/04	   0.730	   0.780	   0.730	   0.750	         187150	      0.750	           	           	           	     -0.049	     -0.045	     -0.008	
 2017/05/05	   0.750	   0.760	   0.720	   0.740	           9600	      0.746	           	           	           	     -0.049	     -0.046	     -0.006	
 2017/05/08	   0.720	   0.730	   0.720	   0.720	           6100	      0.738	           	           	           	     -0.049	     -0.047	     -0.006	
 2017/05/09	   0.710	   0.730	   0.690	   0.710	          20200	      0.730	           	           	           	     -0.050	     -0.047	     -0.006	
 2017/05/10	   0.710	   0.710	   0.700	   0.710	           6250	      0.726	           	           	           	     -0.051	     -0.048	     -0.005	
 2017/05/11	   0.690	   0.700	   0.650	   0.690	          27050	      0.714	           	           	           	     -0.052	     -0.049	     -0.006	
 2017/05/12	   0.690	   0.690	   0.660	   0.670	           7800	      0.700	           	           	           	     -0.054	     -0.050	     -0.008	
 2017/05/15	   0.670	   0.670	   0.640	   0.640	          10250	      0.684	           	           	           	     -0.057	     -0.051	     -0.011	
 2017/05/16	   0.640	   0.680	   0.630	   0.670	         133650	      0.676	           	           	           	     -0.056	     -0.052	     -0.008	
 2017/05/17	   0.670	   0.670	   0.630	   0.630	          11750	      0.660	           	           	           	     -0.058	     -0.053	     -0.010	
 2017/05/18	   0.630	   0.690	   0.630	   0.640	          80900	      0.650	           	           	           	     -0.059	     -0.054	     -0.008	
 2017/05/19	   0.660	   0.670	   0.630	   0.660	         115400	      0.648	      0.773	           	           	     -0.057	     -0.055	     -0.003	
 2017/05/22	   0.640	   0.650	   0.630	   0.640	         117150	      0.648	      0.762	           	           	     -0.056	     -0.055	     -0.002	
 2017/05/23	   0.630	   0.640	   0.620	   0.630	          12150	      0.640	      0.754	           	           	     -0.056	     -0.055	     -0.001	
 2017/05/24	   0.620	   0.630	   0.600	   0.600	          17000	      0.634	      0.746	           	           	     -0.057	     -0.056	     -0.003	
 2017/05/25	   0.600	   0.620	   0.600	   0.600	           6350	      0.626	      0.735	           	           	     -0.058	     -0.056	     -0.003	
 2017/05/26	   0.600	   0.610	   0.590	   0.600	           2700	      0.614	      0.726	           	           	     -0.057	     -0.056	     -0.002	
 2017/05/29	   0.600	   0.600	   0.560	   0.570	           3850	      0.600	      0.717	           	           	     -0.059	     -0.057	     -0.004	
 2017/05/31	   0.560	   0.600	   0.530	   0.540	          26650	      0.582	      0.706	           	           	     -0.062	     -0.058	     -0.008	
 2017/06/01	   0.520	   0.550	   0.480	   0.510	          13400	      0.564	      0.697	           	           	     -0.066	     -0.059	     -0.013	
 2017/06/02	   0.510	   0.530	   0.510	   0.530	           8000	      0.550	      0.688	           	           	     -0.066	     -0.061	     -0.011	
 2017/06/05	   0.520	   0.530	   0.510	   0.530	           9050	      0.536	      0.680	           	           	     -0.066	     -0.062	     -0.009	
 2017/06/06	   0.520	   0.540	   0.510	   0.530	           1600	      0.528	      0.673	           	           	     -0.065	     -0.063	     -0.006	
 2017/06/07	   0.530	   0.540	   0.530	   0.530	           2750	      0.526	      0.665	           	           	     -0.064	     -0.063	     -0.002	
 2017/06/08	   0.530	   0.620	   0.530	   0.590	          18500	      0.542	      0.659	           	           	     -0.057	     -0.062	      0.009	
 2017/06/09	   0.590	   0.650	   0.590	   0.600	           6950	      0.556	      0.651	           	           	     -0.051	     -0.060	      0.018	
 2017/06/12	   0.550	   0.580	   0.540	   0.560	           1950	      0.562	      0.643	           	           	     -0.048	     -0.057	      0.018	
 2017/06/13	   0.560	   0.580	   0.560	   0.560	           1450	      0.568	      0.636	           	           	     -0.046	     -0.055	      0.019	
 2017/06/14	   0.550	   0.550	   0.530	   0.530	           2500	      0.568	      0.629	           	           	     -0.045	     -0.053	      0.015	
 2017/06/15	   0.540	   0.540	   0.530	   0.540	           1900	      0.558	      0.622	           	           	     -0.044	     -0.051	      0.014	
 2017/06/16	   0.540	   0.550	   0.530	   0.550	           1600	      0.548	      0.616	           	           	     -0.042	     -0.049	      0.015	
 2017/06/19	   0.540	   0.580	   0.540	   0.580	          93100	      0.552	      0.611	           	           	     -0.037	     -0.047	      0.020	
 2017/06/20	   0.560	   0.580	   0.550	   0.580	           1700	      0.556	      0.606	           	           	     -0.033	     -0.044	      0.023	
 2017/06/21	   0.580	   0.590	   0.580	   0.590	           1650	      0.568	      0.601	           	           	     -0.028	     -0.041	      0.025	
 2017/06/22	   0.590	   0.610	   0.560	   0.610	           4500	      0.582	      0.598	           	           	     -0.023	     -0.037	      0.029	
 2017/06/23	   0.610	   0.630	   0.570	   0.590	          27750	      0.590	      0.594	           	           	     -0.020	     -0.034	      0.028	
 2017/06/26	   0.600	   0.640	   0.570	   0.580	           4450	      0.590	      0.590	           	           	     -0.018	     -0.031	      0.025	
 2017/06/27	   0.570	   0.570	   0.200	   0.345	         488750	      0.543	      0.579	           	           	     -0.035	     -0.032	     -0.008	
 2017/06/28	   0.370	   0.370	   0.270	   0.290	         438050	      0.483	      0.567	           	           	     -0.053	     -0.036	     -0.034	
 2017/06/29	   0.295	   0.320	   0.290	   0.310	         121000	      0.423	      0.557	      0.666	           	     -0.064	     -0.042	     -0.046	
 2017/06/30	   0.305	   0.315	   0.290	   0.295	         109400	      0.364	      0.545	      0.654	           	     -0.074	     -0.048	     -0.052	
 2017/07/03	   0.290	   0.300	   0.270	   0.275	          96700	      0.303	      0.534	      0.644	           	     -0.082	     -0.055	     -0.054	
 2017/07/04	   0.275	   0.275	   0.260	   0.275	          45900	      0.289	      0.523	      0.635	           	     -0.088	     -0.061	     -0.052	
 2017/07/05	   0.265	   0.285	   0.265	   0.280	          28150	      0.287	      0.511	      0.623	           	     -0.090	     -0.067	     -0.046	
 2017/07/06	   0.270	   0.285	   0.270	   0.280	          21250	      0.281	      0.499	      0.613	           	     -0.092	     -0.072	     -0.039	
 2017/07/07	   0.285	   0.285	   0.270	   0.270	           5750	      0.276	      0.488	      0.603	           	     -0.092	     -0.076	     -0.032	
 2017/07/10	   0.270	   0.300	   0.270	   0.300	          46400	      0.281	      0.479	      0.593	           	     -0.089	     -0.079	     -0.021	
 2017/07/11	   0.300	   0.320	   0.295	   0.310	          37850	      0.288	      0.470	      0.585	           	     -0.085	     -0.080	     -0.011	
 2017/07/12	   0.310	   0.310	   0.295	   0.300	          21500	      0.292	      0.460	      0.577	           	     -0.082	     -0.081	     -0.003	
 2017/07/13	   0.295	   0.295	   0.260	   0.260	          75000	      0.288	      0.451	      0.568	           	     -0.082	     -0.081	     -0.002	
 2017/07/14	   0.260	   0.265	   0.255	   0.260	          31700	      0.286	      0.442	      0.559	           	     -0.080	     -0.081	      0.001	
 2017/07/17	   0.260	   0.270	   0.260	   0.260	          17100	      0.278	      0.434	      0.551	           	     -0.079	     -0.080	      0.003	
 2017/07/18	   0.255	   0.255	   0.244	   0.248	          62250	      0.266	      0.425	      0.542	           	     -0.077	     -0.080	      0.005	
 2017/07/19	   0.250	   0.250	   0.242	   0.249	          12150	      0.255	      0.416	      0.532	           	     -0.075	     -0.079	      0.007	
 2017/07/20	   0.250	   0.255	   0.247	   0.255	          17300	      0.254	      0.408	      0.523	           	     -0.072	     -0.077	      0.011	
 2017/07/21	   0.260	   0.270	   0.255	   0.270	          20200	      0.256	      0.400	      0.514	           	     -0.068	     -0.075	      0.015	
 2017/07/24	   0.260	   0.270	   0.250	   0.265	          56100	      0.257	      0.390	      0.506	           	     -0.064	     -0.073	      0.018	
 2017/07/25	   0.255	   0.270	   0.249	   0.260	          40750	      0.260	      0.379	      0.497	           	     -0.061	     -0.071	      0.020	
 2017/07/26	   0.255	   0.270	   0.250	   0.265	          21950	      0.263	      0.370	      0.489	           	     -0.057	     -0.068	      0.022	
 2017/07/27	   0.260	   0.260	   0.255	   0.260	           6400	      0.264	      0.360	      0.481	           	     -0.054	     -0.065	      0.022	
 2017/07/28	   0.260	   0.260	   0.250	   0.255	           8600	      0.261	      0.352	      0.473	           	     -0.051	     -0.062	      0.022	
 2017/07/31	   0.260	   0.260	   0.242	   0.250	          16750	      0.258	      0.343	      0.465	           	     -0.049	     -0.060	      0.021	
 2017/08/01	   0.250	   0.250	   0.249	   0.250	           6150	      0.256	      0.333	      0.457	           	     -0.047	     -0.057	      0.021	
 2017/08/02	   0.250	   0.250	   0.250	   0.250	           3800	      0.253	      0.323	      0.449	           	     -0.044	     -0.055	      0.020	
 2017/08/03	   0.246	   0.249	   0.242	   0.249	          13350	      0.251	      0.313	      0.442	           	     -0.042	     -0.052	      0.020	
 2017/08/04	   0.245	   0.249	   0.244	   0.245	          10000	      0.249	      0.302	      0.434	           	     -0.040	     -0.050	      0.019	
 2017/08/07	   0.241	   0.245	   0.240	   0.241	          10850	      0.247	      0.290	      0.427	           	     -0.038	     -0.047	      0.018	
 2017/08/08	   0.240	   0.248	   0.240	   0.244	           7950	      0.246	      0.280	      0.421	           	     -0.036	     -0.045	      0.018	
 2017/08/09	   0.240	   0.242	   0.235	   0.235	           6000	      0.243	      0.269	      0.413	           	     -0.035	     -0.043	      0.016	
 2017/08/10	   0.239	   0.240	   0.230	   0.240	           3950	      0.241	      0.266	      0.407	           	     -0.033	     -0.041	      0.016	
 2017/08/11	   0.234	   0.239	   0.219	   0.235	          15100	      0.239	      0.264	      0.400	           	     -0.032	     -0.039	      0.015	
 2017/08/14	   0.235	   0.235	   0.225	   0.235	            950	      0.238	      0.261	      0.393	           	     -0.031	     -0.038	      0.014	
 2017/08/15	   0.234	   0.239	   0.234	   0.239	           8300	      0.237	      0.260	      0.386	           	     -0.029	     -0.036	      0.014	
 2017/08/16	   0.229	   0.239	   0.229	   0.239	           1450	      0.238	      0.259	      0.380	           	     -0.027	     -0.034	      0.014	
 2017/08/17	   0.235	   0.235	   0.225	   0.230	          11650	      0.236	      0.257	      0.374	           	     -0.026	     -0.033	      0.013	
 2017/08/18	   0.240	   0.240	   0.220	   0.237	           2750	      0.236	      0.256	      0.368	           	     -0.025	     -0.031	      0.013	
 2017/08/21	   0.238	   0.245	   0.237	   0.245	          13100	      0.238	      0.255	      0.362	           	     -0.022	     -0.029	      0.014	
 2017/08/22	   0.245	   0.248	   0.245	   0.248	           3900	      0.240	      0.254	      0.356	           	     -0.020	     -0.027	      0.014	
 2017/08/24	   0.241	   0.265	   0.241	   0.265	          37950	      0.245	      0.253	      0.352	           	     -0.017	     -0.025	      0.017	
 2017/08/25	   0.265	   0.345	   0.265	   0.315	         577500	      0.262	      0.253	      0.348	           	     -0.010	     -0.022	      0.024	
 2017/08/28	   0.325	   0.335	   0.290	   0.295	          93950	      0.274	      0.253	      0.345	           	     -0.006	     -0.019	      0.026	
 2017/08/29	   0.295	   0.405	   0.285	   0.315	        1038550	      0.288	      0.255	      0.341	           	     -0.002	     -0.016	      0.028	
 2017/08/30	   0.320	   0.360	   0.315	   0.340	         221700	      0.306	      0.257	      0.338	           	      0.004	     -0.012	      0.031	
 2017/08/31	   0.340	   0.350	   0.325	   0.345	          81850	      0.322	      0.260	      0.335	           	      0.009	     -0.008	      0.033	
 2017/09/01	   0.355	   0.355	   0.315	   0.325	          59000	      0.324	      0.262	      0.330	           	      0.011	     -0.004	      0.030	
 2017/09/04	   0.315	   0.330	   0.305	   0.315	          44150	      0.328	      0.264	      0.326	           	      0.012	     -0.001	      0.025	
 2017/09/05	   0.305	   0.340	   0.305	   0.330	          47800	      0.331	      0.267	      0.322	           	      0.013	      0.002	      0.022	
 2017/09/06	   0.335	   0.350	   0.325	   0.330	          41150	      0.329	      0.269	      0.318	           	      0.014	      0.005	      0.020	
 2017/09/07	   0.335	   0.345	   0.315	   0.325	          33250	      0.325	      0.270	      0.314	           	      0.015	      0.007	      0.016	
 2017/09/08	   0.325	   0.325	   0.310	   0.320	          25800	      0.324	      0.272	      0.311	           	      0.014	      0.008	      0.012	
 2017/09/11	   0.320	   0.320	   0.285	   0.315	          35400	      0.324	      0.274	      0.307	           	      0.013	      0.009	      0.009	
 2017/09/12	   0.315	   0.325	   0.310	   0.310	          18350	      0.320	      0.275	      0.302	           	      0.012	      0.010	      0.005	
 2017/09/13	   0.310	   0.310	   0.285	   0.290	          86350	      0.312	      0.276	      0.298	           	      0.010	      0.010	     -0.000	
 2017/09/14	   0.285	   0.330	   0.280	   0.305	         103400	      0.308	      0.278	      0.293	           	      0.009	      0.010	     -0.002	
 2017/09/15	   0.300	   0.300	   0.280	   0.295	          63400	      0.303	      0.280	      0.288	           	      0.007	      0.009	     -0.004	
 2017/09/18	   0.295	   0.295	   0.280	   0.285	          33200	      0.297	      0.281	      0.282	           	      0.005	      0.008	     -0.007	
 2017/09/19	   0.280	   0.285	   0.275	   0.285	           6900	      0.292	      0.282	      0.278	           	      0.003	      0.007	     -0.008	
 2017/09/20	   0.275	   0.280	   0.275	   0.275	          11800	      0.289	      0.283	      0.276	           	      0.001	      0.006	     -0.010	
 2017/09/21	   0.270	   0.295	   0.270	   0.280	          13650	      0.284	      0.284	      0.276	           	     -0.001	      0.005	     -0.010	
 2017/09/22	   0.280	   0.285	   0.280	   0.285	           2300	      0.282	      0.285	      0.276	      0.471	     -0.001	      0.003	     -0.009	
 2017/09/25	   0.280	   0.280	   0.270	   0.275	          13400	      0.280	      0.287	      0.275	      0.465	     -0.003	      0.002	     -0.010	
 2017/09/26	   0.275	   0.285	   0.275	   0.285	           7250	      0.280	      0.288	      0.276	      0.460	     -0.003	      0.001	     -0.008	
 2017/09/27	   0.280	   0.280	   0.275	   0.280	           8600	      0.281	      0.289	      0.276	      0.455	     -0.003	      0.000	     -0.007	
 2017/09/28	   0.275	   0.280	   0.275	   0.275	           6850	      0.280	      0.291	      0.276	      0.449	     -0.004	     -0.001	     -0.007	
 2017/09/29	   0.280	   0.290	   0.280	   0.290	           8800	      0.281	      0.292	      0.276	      0.444	     -0.003	     -0.001	     -0.005	
 2017/10/03	   0.280	   0.280	   0.280	   0.280	           3300	      0.282	      0.293	      0.276	      0.439	     -0.004	     -0.002	     -0.004	
 2017/10/04	   0.275	   0.295	   0.275	   0.290	           4450	      0.283	      0.295	      0.276	      0.435	     -0.003	     -0.002	     -0.002	
 2017/10/06	   0.290	   0.295	   0.285	   0.295	          13650	      0.286	      0.297	      0.276	      0.430	     -0.002	     -0.002	     -0.000	
 2017/10/09	   0.295	   0.330	   0.295	   0.310	          83000	      0.293	      0.299	      0.276	      0.426	     -0.000	     -0.002	      0.003	
 2017/10/10	   0.310	   0.320	   0.300	   0.305	          39350	      0.296	      0.301	      0.276	      0.422	      0.001	     -0.001	      0.004	
 2017/10/11	   0.305	   0.310	   0.290	   0.295	          24200	      0.299	      0.302	      0.277	      0.418	      0.001	     -0.001	      0.003	
 2017/10/12	   0.290	   0.295	   0.290	   0.295	           8900	      0.300	      0.301	      0.278	      0.414	      0.001	     -0.000	      0.003	
 2017/10/13	   0.295	   0.305	   0.285	   0.295	          10600	      0.300	      0.301	      0.278	      0.410	      0.001	      0.000	      0.002	
 2017/10/16	   0.300	   0.305	   0.295	   0.300	          16050	      0.298	      0.301	      0.279	      0.406	      0.002	      0.000	      0.002	
 2017/10/17	   0.300	   0.300	   0.290	   0.300	           9250	      0.297	      0.300	      0.280	      0.401	      0.002	      0.001	      0.002	
 2017/10/18	   0.290	   0.340	   0.290	   0.330	          70100	      0.304	      0.299	      0.281	      0.397	      0.004	      0.001	      0.006	
 2017/10/19	   0.335	   0.370	   0.320	   0.325	         190900	      0.310	      0.299	      0.282	      0.394	      0.006	      0.002	      0.007	
 2017/10/20	   0.330	   0.380	   0.330	   0.360	         225050	      0.323	      0.300	      0.284	      0.390	      0.010	      0.004	      0.012	
 2017/10/23	   0.360	   0.455	   0.360	   0.415	         684500	      0.346	      0.303	      0.286	      0.388	      0.017	      0.007	      0.022	
 2017/10/24	   0.415	   0.445	   0.375	   0.380	         264450	      0.362	      0.305	      0.288	      0.385	      0.020	      0.009	      0.022	
 2017/10/25	   0.380	   0.405	   0.360	   0.385	         128100	      0.373	      0.307	      0.290	      0.382	      0.023	      0.012	      0.021	
 2017/10/26	   0.390	   0.390	   0.370	   0.375	          14950	      0.383	      0.308	      0.292	      0.379	      0.023	      0.014	      0.018	
 2017/10/27	   0.375	   0.405	   0.375	   0.390	          63350	      0.389	      0.311	      0.295	      0.376	      0.025	      0.016	      0.017	
 2017/10/30	   0.390	   0.405	   0.380	   0.385	          34550	      0.383	      0.313	      0.297	      0.373	      0.025	      0.018	      0.015	
 2017/10/31	   0.380	   0.380	   0.360	   0.365	          65250	      0.380	      0.315	      0.299	      0.370	      0.024	      0.019	      0.009	
 2017/11/01	   0.365	   0.365	   0.350	   0.355	          28900	      0.374	      0.317	      0.301	      0.368	      0.022	      0.020	      0.004	
 2017/11/02	   0.350	   0.410	   0.345	   0.400	         122800	      0.379	      0.320	      0.303	      0.365	      0.023	      0.021	      0.006	
 2017/11/03	   0.405	   0.405	   0.385	   0.390	          15950	      0.379	      0.323	      0.306	      0.363	      0.024	      0.021	      0.005	
 2017/11/06	   0.385	   0.385	   0.370	   0.375	          33800	      0.377	      0.326	      0.308	      0.361	      0.022	      0.021	      0.002	
 2017/11/07	   0.375	   0.395	   0.375	   0.380	          49250	      0.380	      0.330	      0.311	      0.359	      0.021	      0.021	     -0.000	
 2017/11/08	   0.375	   0.385	   0.365	   0.365	         100300	      0.382	      0.332	      0.313	      0.356	      0.019	      0.021	     -0.003	
 2017/11/09	   0.365	   0.380	   0.365	   0.365	          15850	      0.375	      0.335	      0.315	      0.354	      0.017	      0.020	     -0.006	
 2017/11/10	   0.365	   0.375	   0.365	   0.365	           5800	      0.370	      0.338	      0.317	      0.352	      0.016	      0.019	     -0.007	
 2017/11/13	   0.370	   0.375	   0.365	   0.375	          16250	      0.370	      0.340	      0.319	      0.350	      0.015	      0.018	     -0.007	
 2017/11/14	   0.380	   0.380	   0.365	   0.375	          13900	      0.369	      0.343	      0.322	      0.348	      0.014	      0.018	     -0.007	
 2017/11/15	   0.365	   0.375	   0.365	   0.365	          26500	      0.369	      0.346	      0.324	      0.346	      0.013	      0.017	     -0.008	
 2017/11/16	   0.360	   0.360	   0.345	   0.350	          42600	      0.366	      0.348	      0.326	      0.344	      0.010	      0.015	     -0.010	
 2017/11/17	   0.350	   0.370	   0.350	   0.360	           6800	      0.365	      0.350	      0.327	      0.342	      0.009	      0.014	     -0.010	
 2017/11/20	   0.355	   0.360	   0.355	   0.355	           9800	      0.361	      0.353	      0.329	      0.340	      0.007	      0.013	     -0.011	
 2017/11/21	   0.355	   0.375	   0.345	   0.375	          42200	      0.361	      0.355	      0.330	      0.339	      0.008	      0.012	     -0.008	
 2017/11/22	   0.365	   0.370	   0.365	   0.370	          10500	      0.362	      0.357	      0.331	      0.338	      0.007	      0.011	     -0.007	
 2017/11/23	   0.370	   0.390	   0.365	   0.385	          20550	      0.369	      0.359	      0.332	      0.337	      0.008	      0.010	     -0.004	
 2017/11/24	   0.390	   0.405	   0.390	   0.405	          30700	      0.378	      0.363	      0.333	      0.336	      0.011	      0.010	      0.000	
 2017/11/27	   0.405	   0.425	   0.385	   0.405	          63850	      0.388	      0.366	      0.334	      0.335	      0.012	      0.011	      0.003	
 2017/11/28	   0.385	   0.405	   0.360	   0.385	          76200	      0.390	      0.369	      0.335	      0.333	      0.012	      0.011	      0.002	
 2017/11/29	   0.400	   0.400	   0.390	   0.400	          11550	      0.396	      0.372	      0.337	      0.331	      0.012	      0.011	      0.002	
 2017/11/30	   0.405	   0.415	   0.390	   0.395	          15550	      0.398	      0.375	      0.338	      0.330	      0.012	      0.012	      0.002	
 2017/12/01	   0.390	   0.410	   0.390	   0.400	          17102	      0.397	      0.377	      0.339	      0.328	      0.013	      0.012	      0.002	
 2017/12/04	   0.395	   0.465	   0.395	   0.455	         224700	      0.407	      0.381	      0.341	      0.328	      0.017	      0.013	      0.009	
 2017/12/05	   0.455	   0.490	   0.420	   0.425	         135648	      0.415	      0.383	      0.343	      0.327	      0.018	      0.014	      0.008	
 2017/12/06	   0.420	   0.430	   0.385	   0.390	          45300	      0.413	      0.383	      0.344	      0.326	      0.016	      0.014	      0.003	
 2017/12/07	   0.390	   0.405	   0.365	   0.400	          37050	      0.414	      0.383	      0.346	      0.324	      0.015	      0.014	      0.001	
 2017/12/08	   0.415	   0.465	   0.415	   0.435	         664650	      0.421	      0.385	      0.348	      0.323	      0.016	      0.015	      0.003	
 2017/12/11	   0.425	   0.445	   0.425	   0.445	          14400	      0.419	      0.387	      0.351	      0.322	      0.018	      0.015	      0.006	
 2017/12/12	   0.430	   0.445	   0.415	   0.440	          18000	      0.422	      0.389	      0.353	      0.320	      0.019	      0.016	      0.006	
 2017/12/13	   0.425	   0.520	   0.420	   0.510	         354650	      0.446	      0.393	      0.357	      0.320	      0.025	      0.018	      0.015	
 2017/12/14	   0.510	   0.570	   0.485	   0.520	         433750	      0.470	      0.397	      0.361	      0.319	      0.031	      0.020	      0.020	
 2017/12/15	   0.510	   0.520	   0.495	   0.500	          34350	      0.483	      0.402	      0.364	      0.320	      0.033	      0.023	      0.020	
 2017/12/18	   0.500	   0.520	   0.480	   0.520	          16900	      0.498	      0.406	      0.368	      0.322	      0.036	      0.025	      0.020	
 2017/12/19	   0.510	   0.510	   0.495	   0.510	           8250	      0.512	      0.409	      0.372	      0.324	      0.037	      0.028	      0.018	
 2017/12/20	   0.500	   0.560	   0.490	   0.520	          34300	      0.514	      0.414	      0.376	      0.326	      0.038	      0.030	      0.016	
 2017/12/21	   0.520	   0.540	   0.500	   0.530	          13000	      0.516	      0.419	      0.380	      0.328	      0.039	      0.032	      0.015	
 2017/12/22	   0.510	   0.530	   0.490	   0.495	          20950	      0.515	      0.423	      0.384	      0.330	      0.037	      0.033	      0.009	
 2017/12/27	   0.485	   0.485	   0.465	   0.475	          28200	      0.506	      0.426	      0.387	      0.331	      0.033	      0.033	      0.001	
 2017/12/28	   0.450	   0.475	   0.445	   0.465	          15450	      0.497	      0.429	      0.390	      0.333	      0.029	      0.032	     -0.006	
 2017/12/29	   0.460	   0.465	   0.450	   0.455	          14450	      0.484	      0.432	      0.393	      0.334	      0.025	      0.031	     -0.012	
 2018/01/02	   0.460	   0.500	   0.460	   0.500	          29900	      0.478	      0.436	      0.397	      0.336	      0.025	      0.030	     -0.009	
 2018/01/03	   0.485	   0.500	   0.480	   0.485	         172050	      0.476	      0.439	      0.400	      0.338	      0.023	      0.028	     -0.010	
 2018/01/04	   0.490	   0.495	   0.475	   0.480	           5750	      0.477	      0.443	      0.403	      0.339	      0.021	      0.027	     -0.011	
 2018/01/05	   0.480	   0.520	   0.470	   0.510	          22200	      0.486	      0.448	      0.406	      0.341	      0.022	      0.026	     -0.008	
 2018/01/08	   0.520	   0.520	   0.465	   0.485	          28050	      0.492	      0.452	      0.409	      0.343	      0.020	      0.025	     -0.009	
 2018/01/09	   0.480	   0.480	   0.470	   0.470	           4750	      0.486	      0.455	      0.412	      0.345	      0.018	      0.023	     -0.012	
 2018/01/10	   0.470	   0.490	   0.470	   0.470	           2550	      0.483	      0.458	      0.415	      0.347	      0.015	      0.022	     -0.013	
 2018/01/11	   0.465	   0.465	   0.450	   0.455	          10100	      0.478	      0.460	      0.418	      0.348	      0.012	      0.020	     -0.016	
 2018/01/12	   0.455	   0.465	   0.450	   0.465	           5250	      0.469	      0.462	      0.420	      0.350	      0.010	      0.018	     -0.016	
 2018/01/15	   0.460	   0.480	   0.455	   0.470	           7750	      0.466	      0.464	      0.423	      0.352	      0.009	      0.016	     -0.014	
 2018/01/16	   0.460	   0.470	   0.460	   0.470	           2050	      0.466	      0.467	      0.425	      0.354	      0.008	      0.014	     -0.013	
 2018/01/17	   0.460	   0.460	   0.425	   0.440	          37500	      0.460	      0.468	      0.426	      0.355	      0.005	      0.012	     -0.016	
 2018/01/18	   0.435	   0.435	   0.415	   0.420	          27800	      0.453	      0.469	      0.426	      0.356	      0.000	      0.010	     -0.019	
 2018/01/19	   0.420	   0.430	   0.400	   0.420	          17700	      0.444	      0.470	      0.427	      0.358	     -0.003	      0.007	     -0.021	
 2018/01/22	   0.410	   0.415	   0.385	   0.400	          24150	      0.430	      0.468	      0.427	      0.359	     -0.007	      0.005	     -0.023	
 2018/01/23	   0.405	   0.405	   0.390	   0.395	           5800	      0.415	      0.467	      0.428	      0.360	     -0.011	      0.001	     -0.024	
 2018/01/24	   0.390	   0.405	   0.390	   0.405	           4150	      0.408	      0.468	      0.428	      0.361	     -0.013	     -0.001	     -0.022	
 2018/01/25	   0.390	   0.400	   0.390	   0.400	           4300	      0.404	      0.468	      0.428	      0.363	     -0.014	     -0.004	     -0.021	
 2018/01/26	   0.400	   0.400	   0.390	   0.400	           3950	      0.400	      0.466	      0.429	      0.364	     -0.015	     -0.006	     -0.019	
 2018/01/30	   0.405	   0.415	   0.400	   0.410	           7700	      0.402	      0.465	      0.430	      0.365	     -0.015	     -0.008	     -0.015	
 2018/01/31	   0.405	   0.450	   0.400	   0.450	          15450	      0.413	      0.466	      0.431	      0.367	     -0.012	     -0.009	     -0.006	
 2018/02/01	   0.455	   0.510	   0.455	   0.510	          35700	      0.434	      0.466	      0.433	      0.369	     -0.004	     -0.008	      0.007	
 2018/02/02	   0.490	   0.550	   0.480	   0.540	          70050	      0.462	      0.466	      0.435	      0.372	      0.004	     -0.006	      0.019	
 2018/02/05	   0.540	   0.660	   0.500	   0.590	          88900	      0.500	      0.469	      0.439	      0.375	      0.014	     -0.002	      0.032	
 2018/02/06	   0.530	   0.590	   0.510	   0.530	          23350	      0.524	      0.469	      0.442	      0.377	      0.018	      0.002	      0.031	
 2018/02/07	   0.570	   0.630	   0.550	   0.580	          41000	      0.550	      0.472	      0.445	      0.380	      0.024	      0.007	      0.035	
 2018/02/09	   0.530	   0.530	   0.460	   0.520	          22300	      0.552	      0.472	      0.448	      0.382	      0.024	      0.010	      0.028	
 2018/02/12	   0.520	   0.530	   0.510	   0.520	           3200	      0.548	      0.471	      0.450	      0.385	      0.024	      0.013	      0.022	
 2018/02/13	   0.540	   0.540	   0.500	   0.510	           6450	      0.532	      0.472	      0.452	      0.387	      0.022	      0.015	      0.015	
 2018/02/14	   0.510	   0.570	   0.510	   0.540	           9200	      0.534	      0.474	      0.455	      0.390	      0.023	      0.016	      0.014	
 2018/02/15	   0.570	   0.610	   0.550	   0.600	          22700	      0.538	      0.478	      0.459	      0.392	      0.029	      0.019	      0.020	
 2018/02/20	   0.600	   0.640	   0.600	   0.620	           9950	      0.558	      0.483	      0.464	      0.396	      0.034	      0.022	      0.025	
 2018/02/21	   0.620	   0.650	   0.600	   0.610	          13300	      0.576	      0.487	      0.468	      0.398	      0.037	      0.025	      0.025	
 2018/02/22	   0.600	   0.620	   0.600	   0.610	           2200	      0.596	      0.490	      0.472	      0.401	      0.039	      0.028	      0.023	
 2018/02/23	   0.600	   0.680	   0.580	   0.630	          89150	      0.614	      0.495	      0.476	      0.404	      0.042	      0.031	      0.023	
 2018/02/26	   0.660	   0.690	   0.620	   0.690	          83250	      0.632	      0.501	      0.481	      0.407	      0.049	      0.034	      0.028	
 2018/02/27	   0.690	   0.740	   0.670	   0.700	          36950	      0.648	      0.508	      0.486	      0.410	      0.054	      0.038	      0.031	
 2018/02/28	   0.700	   0.710	   0.680	   0.710	          27900	      0.668	      0.515	      0.491	      0.413	      0.058	      0.042	      0.032	
 2018/03/01	   0.710	   0.790	   0.700	   0.780	          94850	      0.702	      0.525	      0.498	      0.417	      0.067	      0.047	      0.039	
 2018/03/02	   0.780	   0.820	   0.760	   0.790	         135900	      0.734	      0.535	      0.504	      0.421	      0.073	      0.052	      0.042	
 2018/03/05	   0.760	   0.830	   0.750	   0.810	          58300	      0.758	      0.546	      0.511	      0.425	      0.079	      0.058	      0.043	
 2018/03/06	   0.810	   0.810	   0.700	   0.730	         125700	      0.764	      0.554	      0.517	      0.428	      0.076	      0.061	      0.030	
 2018/03/07	   0.720	   0.760	   0.680	   0.730	          31750	      0.768	      0.562	      0.521	      0.431	      0.073	      0.064	      0.019	
 2018/03/08	   0.710	   0.740	   0.700	   0.730	          17150	      0.758	      0.571	      0.527	      0.435	      0.070	      0.065	      0.010	
 2018/03/09	   0.720	   0.760	   0.670	   0.700	          48150	      0.740	      0.580	      0.532	      0.438	      0.065	      0.065	     -0.001	
 2018/03/12	   0.700	   0.720	   0.680	   0.700	          46300	      0.718	      0.589	      0.537	      0.441	      0.059	      0.064	     -0.009	
 2018/03/13	   0.700	   0.740	   0.680	   0.690	         140000	      0.710	      0.598	      0.541	      0.445	      0.054	      0.062	     -0.016	
 2018/03/14	   0.690	   0.810	   0.690	   0.810	          70050	      0.726	      0.611	      0.547	      0.449	      0.058	      0.061	     -0.005	
 2018/03/15	   0.820	   0.840	   0.770	   0.790	          44200	      0.738	      0.623	      0.553	      0.453	      0.060	      0.061	     -0.002	
 2018/03/16	   0.790	   0.790	   0.770	   0.790	           4400	      0.756	      0.635	      0.558	      0.457	      0.060	      0.061	     -0.001	
 2018/03/19	   0.790	   0.800	   0.720	   0.790	           6800	      0.774	      0.647	      0.562	      0.461	      0.060	      0.061	     -0.001	
 2018/03/20	   0.790	   0.820	   0.780	   0.790	          12900	      0.794	      0.659	      0.567	      0.466	      0.059	      0.060	     -0.003	
 2018/03/21	   0.790	   0.790	   0.760	   0.770	           3950	      0.786	      0.669	      0.571	      0.470	      0.056	      0.059	     -0.007	
 2018/03/22	   0.770	   0.770	   0.730	   0.750	          10600	      0.778	      0.677	      0.575	      0.474	      0.051	      0.058	     -0.013	
 2018/03/23	   0.730	   0.740	   0.700	   0.730	          13300	      0.766	      0.683	      0.579	      0.477	      0.045	      0.055	     -0.020	
 2018/03/26	   0.710	   0.740	   0.710	   0.730	            750	      0.754	      0.687	      0.582	      0.481	      0.040	      0.052	     -0.024	
 2018/03/27	   0.730	   0.740	   0.730	   0.740	           1100	      0.744	      0.693	      0.586	      0.485	      0.037	      0.049	     -0.025	
 2018/03/28	   0.720	   0.730	   0.700	   0.730	           6900	      0.736	      0.698	      0.590	      0.489	      0.033	      0.046	     -0.026	
 2018/03/29	   0.710	   0.710	   0.680	   0.700	           8100	      0.726	      0.704	      0.594	      0.492	      0.027	      0.042	     -0.031	
 2018/04/03	   0.700	   0.700	   0.670	   0.700	           5750	      0.720	      0.709	      0.598	      0.496	      0.022	      0.038	     -0.032	
 2018/04/04	   0.690	   0.690	   0.670	   0.690	           7550	      0.712	      0.715	      0.601	      0.499	      0.017	      0.034	     -0.034	
 2018/04/06	   0.670	   0.670	   0.660	   0.670	           4550	      0.698	      0.719	      0.604	      0.502	      0.011	      0.029	     -0.036	
 2018/04/09	   0.670	   0.700	   0.670	   0.700	            800	      0.692	      0.722	      0.608	      0.505	      0.009	      0.025	     -0.032	
 2018/04/10	   0.690	   0.730	   0.660	   0.730	           2550	      0.698	      0.726	      0.612	      0.509	      0.010	      0.022	     -0.025	
 2018/04/11	   0.730	   0.850	   0.730	   0.830	          19950	      0.724	      0.733	      0.618	      0.513	      0.018	      0.021	     -0.007	
 2018/04/12	   0.830	   0.900	   0.800	   0.830	          20000	      0.752	      0.739	      0.624	      0.518	      0.024	      0.022	      0.005	
 2018/04/13	   0.810	   0.850	   0.810	   0.850	          13000	      0.788	      0.746	      0.630	      0.522	      0.031	      0.024	      0.014	
 2018/04/16	   0.850	   0.860	   0.830	   0.850	          11350	      0.818	      0.751	      0.636	      0.527	      0.035	      0.026	      0.018	
 2018/04/17	   0.830	   0.860	   0.830	   0.850	           6000	      0.842	      0.756	      0.643	      0.532	      0.038	      0.028	      0.020	
 2018/04/18	   0.840	   0.850	   0.810	   0.820	          12850	      0.840	      0.759	      0.649	      0.536	      0.038	      0.030	      0.015	
 2018/04/19	   0.820	   0.830	   0.770	   0.810	          16300	      0.836	      0.760	      0.654	      0.540	      0.036	      0.032	      0.010	
 2018/04/20	   0.810	   0.820	   0.790	   0.820	           6200	      0.830	      0.761	      0.661	      0.544	      0.036	      0.032	      0.007	
 2018/04/23	   0.820	   0.830	   0.810	   0.830	           2850	      0.826	      0.762	      0.668	      0.547	      0.035	      0.033	      0.005	
 2018/04/24	   0.830	   0.880	   0.830	   0.880	          12950	      0.832	      0.767	      0.675	      0.551	      0.039	      0.034	      0.009	
 2018/04/25	   0.880	   0.930	   0.880	   0.930	          18450	      0.854	      0.773	      0.684	      0.556	      0.045	      0.036	      0.017	
 2018/04/26	   0.950	   0.950	   0.880	   0.910	          14150	      0.874	      0.778	      0.693	      0.560	      0.048	      0.039	      0.018	
 2018/04/27	   0.930	   1.000	   0.820	   0.990	          35900	      0.908	      0.788	      0.702	      0.565	      0.056	      0.042	      0.028	
 2018/05/09	   2.000	   2.500	   1.600	   1.830	        1197100	      1.108	      0.823	      0.726	      0.577	      0.128	      0.059	      0.138	
数据来源:通达信
