                  黎氏企业 (02266)
      时间	    开盘	    最高	    最低	    收盘	         成交量	   MA.MA1   	   MA.MA2   	   MA.MA3   	   MA.MA4   	 MACD.DIF   	 MACD.DEA   	 MACD.MACD  	
 2018/05/11-14:00	   0.770	   0.770	   0.770	   0.770	            279	      0.770	      0.785	      0.798	      0.808	     -0.007	     -0.007	      0.000	
 2018/05/11-14:05	   0.780	   0.780	   0.780	   0.780	            179	      0.772	      0.785	      0.797	      0.808	     -0.006	     -0.007	      0.002	
 2018/05/11-14:10	   0.780	   0.780	   0.780	   0.780	              0	      0.774	      0.784	      0.796	      0.807	     -0.005	     -0.007	      0.003	
 2018/05/11-14:15	   0.780	   0.780	   0.780	   0.780	              0	      0.776	      0.783	      0.796	      0.807	     -0.004	     -0.006	      0.004	
 2018/05/11-14:20	   0.780	   0.780	   0.780	   0.780	              0	      0.778	      0.783	      0.795	      0.807	     -0.004	     -0.006	      0.004	
 2018/05/11-14:25	   0.780	   0.780	   0.780	   0.780	              0	      0.780	      0.782	      0.794	      0.806	     -0.003	     -0.005	      0.004	
 2018/05/11-14:30	   0.780	   0.780	   0.780	   0.780	              0	      0.780	      0.782	      0.794	      0.806	     -0.003	     -0.005	      0.004	
 2018/05/11-14:35	   0.780	   0.780	   0.780	   0.780	              0	      0.780	      0.781	      0.793	      0.805	     -0.002	     -0.004	      0.004	
 2018/05/11-14:40	   0.780	   0.780	   0.780	   0.780	              0	      0.780	      0.780	      0.792	      0.805	     -0.002	     -0.004	      0.004	
 2018/05/11-14:45	   0.780	   0.780	   0.780	   0.780	            199	      0.780	      0.780	      0.792	      0.804	     -0.002	     -0.003	      0.003	
 2018/05/11-14:50	   0.780	   0.780	   0.780	   0.780	              0	      0.780	      0.779	      0.791	      0.804	     -0.001	     -0.003	      0.003	
 2018/05/11-14:55	   0.780	   0.780	   0.780	   0.780	              0	      0.780	      0.778	      0.790	      0.803	     -0.001	     -0.003	      0.003	
 2018/05/11-15:00	   0.780	   0.780	   0.780	   0.780	              0	      0.780	      0.778	      0.790	      0.803	     -0.001	     -0.002	      0.003	
 2018/05/11-15:05	   0.780	   0.780	   0.780	   0.780	              0	      0.780	      0.778	      0.789	      0.802	     -0.001	     -0.002	      0.002	
 2018/05/11-15:10	   0.780	   0.780	   0.780	   0.780	              0	      0.780	      0.778	      0.788	      0.801	     -0.001	     -0.002	      0.002	
 2018/05/11-15:15	   0.780	   0.780	   0.780	   0.780	              0	      0.780	      0.778	      0.788	      0.801	     -0.001	     -0.001	      0.002	
 2018/05/11-15:20	   0.780	   0.780	   0.780	   0.780	              0	      0.780	      0.778	      0.787	      0.800	     -0.001	     -0.001	      0.002	
 2018/05/11-15:25	   0.780	   0.780	   0.780	   0.780	              0	      0.780	      0.778	      0.786	      0.799	     -0.000	     -0.001	      0.001	
 2018/05/11-15:30	   0.780	   0.780	   0.780	   0.780	              0	      0.780	      0.778	      0.786	      0.799	     -0.000	     -0.001	      0.001	
 2018/05/11-15:35	   0.780	   0.780	   0.780	   0.780	              0	      0.780	      0.778	      0.786	      0.799	     -0.000	     -0.001	      0.001	
 2018/05/11-15:40	   0.780	   0.780	   0.780	   0.780	              0	      0.780	      0.777	      0.785	      0.798	     -0.000	     -0.001	      0.001	
 2018/05/11-15:45	   0.770	   0.780	   0.760	   0.760	           1139	      0.776	      0.776	      0.785	      0.798	     -0.002	     -0.001	     -0.002	
 2018/05/11-15:50	   0.760	   0.760	   0.760	   0.760	              0	      0.772	      0.776	      0.784	      0.797	     -0.003	     -0.001	     -0.003	
 2018/05/11-15:55	   0.760	   0.760	   0.760	   0.760	             39	      0.768	      0.775	      0.783	      0.797	     -0.004	     -0.002	     -0.004	
 2018/05/11-16:00	   0.760	   0.760	   0.760	   0.760	              0	      0.764	      0.775	      0.783	      0.796	     -0.005	     -0.002	     -0.004	
 2018/05/14-09:35	   0.800	   0.840	   0.800	   0.840	           2999	      0.776	      0.777	      0.783	      0.796	      0.001	     -0.002	      0.006	
 2018/05/14-09:40	   0.830	   0.830	   0.820	   0.830	            619	      0.790	      0.779	      0.784	      0.797	      0.005	     -0.000	      0.011	
 2018/05/14-09:45	   0.850	   0.850	   0.850	   0.850	            339	      0.808	      0.781	      0.785	      0.797	      0.010	      0.002	      0.016	
 2018/05/14-09:50	   0.850	   0.980	   0.850	   0.920	          13039	      0.840	      0.786	      0.787	      0.798	      0.019	      0.005	      0.027	
 2018/05/14-09:55	   0.920	   0.920	   0.880	   0.880	           5059	      0.864	      0.789	      0.788	      0.799	      0.022	      0.009	      0.028	
 2018/05/14-10:00	   0.880	   0.890	   0.880	   0.890	           1879	      0.874	      0.793	      0.789	      0.799	      0.026	      0.012	      0.028	
 2018/05/14-10:05	   0.900	   0.950	   0.900	   0.920	           5019	      0.892	      0.797	      0.791	      0.800	      0.031	      0.016	      0.030	
 2018/05/14-10:10	   0.920	   0.920	   0.880	   0.880	           5679	      0.898	      0.801	      0.793	      0.801	      0.031	      0.019	      0.024	
 2018/05/14-10:15	   0.880	   0.910	   0.860	   0.910	           6859	      0.896	      0.805	      0.795	      0.802	      0.033	      0.022	      0.023	
 2018/05/14-10:20	   0.910	   0.910	   0.900	   0.900	           1059	      0.900	      0.808	      0.796	      0.803	      0.034	      0.024	      0.019	
 2018/05/14-10:25	   0.900	   0.900	   0.900	   0.900	            359	      0.902	      0.812	      0.798	      0.804	      0.034	      0.026	      0.015	
 2018/05/14-10:30	   0.910	   0.910	   0.910	   0.910	            339	      0.900	      0.816	      0.800	      0.805	      0.034	      0.027	      0.013	
 2018/05/14-10:35	   0.910	   0.930	   0.910	   0.930	           3139	      0.910	      0.821	      0.802	      0.806	      0.036	      0.029	      0.013	
 2018/05/14-10:40	   0.930	   0.930	   0.920	   0.920	           1199	      0.912	      0.825	      0.804	      0.807	      0.036	      0.030	      0.010	
 2018/05/14-10:45	   0.920	   0.930	   0.920	   0.920	            879	      0.916	      0.829	      0.806	      0.808	      0.035	      0.031	      0.008	
 2018/05/14-10:50	   0.920	   0.920	   0.890	   0.900	           1739	      0.916	      0.833	      0.808	      0.808	      0.033	      0.032	      0.002	
 2018/05/14-10:55	   0.900	   0.900	   0.900	   0.900	             79	      0.914	      0.836	      0.810	      0.809	      0.031	      0.031	     -0.002	
 2018/05/14-11:00	   0.900	   0.900	   0.900	   0.900	            259	      0.908	      0.840	      0.812	      0.810	      0.029	      0.031	     -0.005	
 2018/05/14-11:05	   0.910	   0.930	   0.900	   0.900	           1059	      0.904	      0.844	      0.814	      0.811	      0.027	      0.030	     -0.007	
 2018/05/14-11:10	   0.900	   0.900	   0.900	   0.900	              0	      0.900	      0.847	      0.816	      0.812	      0.025	      0.029	     -0.008	
 2018/05/14-11:15	   0.900	   0.900	   0.900	   0.900	            179	      0.900	      0.851	      0.818	      0.813	      0.023	      0.028	     -0.009	
 2018/05/14-11:20	   0.910	   0.910	   0.910	   0.910	            399	      0.902	      0.855	      0.820	      0.814	      0.022	      0.027	     -0.009	
 2018/05/14-11:25	   0.900	   0.900	   0.890	   0.890	           1359	      0.900	      0.858	      0.822	      0.814	      0.020	      0.025	     -0.011	
 2018/05/14-11:30	   0.890	   0.890	   0.890	   0.890	            159	      0.898	      0.862	      0.823	      0.815	      0.018	      0.024	     -0.012	
 2018/05/14-11:35	   0.890	   0.890	   0.890	   0.890	              0	      0.896	      0.865	      0.825	      0.816	      0.016	      0.022	     -0.013	
 2018/05/14-11:40	   0.890	   0.890	   0.890	   0.890	              0	      0.894	      0.868	      0.827	      0.817	      0.014	      0.021	     -0.013	
 2018/05/14-11:45	   0.890	   0.890	   0.880	   0.880	           2059	      0.888	      0.871	      0.829	      0.817	      0.012	      0.019	     -0.014	
 2018/05/14-11:50	   0.890	   0.890	   0.890	   0.890	             79	      0.888	      0.875	      0.831	      0.818	      0.011	      0.017	     -0.013	
 2018/05/14-11:55	   0.890	   0.890	   0.890	   0.890	              0	      0.888	      0.878	      0.833	      0.818	      0.010	      0.016	     -0.012	
 2018/05/14-12:00	   0.890	   0.890	   0.890	   0.890	              0	      0.888	      0.882	      0.835	      0.819	      0.009	      0.014	     -0.011	
 2018/05/14-13:05	   0.890	   0.890	   0.890	   0.890	             39	      0.888	      0.886	      0.837	      0.819	      0.008	      0.013	     -0.010	
 2018/05/14-13:10	   0.890	   0.890	   0.890	   0.890	            199	      0.890	      0.890	      0.839	      0.820	      0.007	      0.012	     -0.009	
 2018/05/14-13:15	   0.890	   0.890	   0.890	   0.890	            739	      0.890	      0.894	      0.841	      0.820	      0.007	      0.011	     -0.008	
 2018/05/14-13:20	   0.890	   0.890	   0.890	   0.890	              0	      0.890	      0.895	      0.843	      0.821	      0.006	      0.010	     -0.008	
 2018/05/14-13:25	   0.890	   0.890	   0.890	   0.890	            299	      0.890	      0.897	      0.845	      0.822	      0.006	      0.009	     -0.007	
 2018/05/14-13:30	   0.890	   0.890	   0.890	   0.890	            419	      0.890	      0.898	      0.847	      0.822	      0.005	      0.008	     -0.006	
 2018/05/14-13:35	   0.890	   0.890	   0.890	   0.890	             99	      0.890	      0.897	      0.849	      0.823	      0.005	      0.008	     -0.006	
 2018/05/14-13:40	   0.890	   0.890	   0.890	   0.890	            579	      0.890	      0.898	      0.850	      0.823	      0.004	      0.007	     -0.005	
 2018/05/14-13:45	   0.890	   0.890	   0.890	   0.890	              0	      0.890	      0.898	      0.852	      0.824	      0.004	      0.006	     -0.005	
 2018/05/14-13:50	   0.900	   0.900	   0.900	   0.900	             59	      0.892	      0.897	      0.854	      0.825	      0.004	      0.006	     -0.003	
 2018/05/14-13:55	   0.900	   0.940	   0.900	   0.930	           7839	      0.900	      0.898	      0.857	      0.826	      0.007	      0.006	      0.002	
 2018/05/14-14:00	   0.930	   0.960	   0.920	   0.960	           9319	      0.914	      0.900	      0.860	      0.827	      0.012	      0.007	      0.009	
 2018/05/14-14:05	   0.960	   0.970	   0.940	   0.950	           1119	      0.926	      0.902	      0.863	      0.828	      0.014	      0.009	      0.011	
 2018/05/14-14:10	   0.950	   0.950	   0.940	   0.940	            659	      0.936	      0.903	      0.865	      0.829	      0.015	      0.010	      0.010	
 2018/05/14-14:15	   0.950	   0.960	   0.950	   0.950	           2279	      0.946	      0.904	      0.868	      0.830	      0.017	      0.011	      0.011	
 2018/05/14-14:20	   0.950	   0.950	   0.950	   0.950	            499	      0.950	      0.905	      0.871	      0.831	      0.018	      0.013	      0.010	
 2018/05/14-14:25	   0.960	   0.960	   0.950	   0.950	           3219	      0.948	      0.905	      0.874	      0.832	      0.018	      0.014	      0.009	
 2018/05/14-14:30	   0.940	   0.940	   0.940	   0.940	            279	      0.946	      0.906	      0.876	      0.833	      0.017	      0.014	      0.006	
 2018/05/14-14:35	   0.950	   0.990	   0.940	   0.990	          12479	      0.956	      0.909	      0.880	      0.834	      0.021	      0.016	      0.010	
 2018/05/14-14:40	   0.990	   1.040	   0.980	   1.020	          19819	      0.970	      0.912	      0.884	      0.836	      0.026	      0.018	      0.016	
 2018/05/14-14:45	   1.020	   1.060	   1.010	   1.060	           7079	      0.992	      0.917	      0.889	      0.838	      0.032	      0.021	      0.023	
 2018/05/14-14:50	   1.060	   1.070	   1.030	   1.060	           6919	      1.014	      0.922	      0.893	      0.840	      0.037	      0.024	      0.026	
 2018/05/14-14:55	   1.060	   1.060	   1.010	   1.040	           4879	      1.034	      0.926	      0.898	      0.842	      0.039	      0.027	      0.024	
 2018/05/14-15:00	   1.030	   1.050	   1.000	   1.040	           7719	      1.044	      0.931	      0.902	      0.844	      0.040	      0.029	      0.021	
 2018/05/14-15:05	   1.040	   1.040	   1.000	   1.000	           2079	      1.040	      0.933	      0.906	      0.846	      0.037	      0.031	      0.012	
 2018/05/14-15:10	   1.020	   1.060	   1.020	   1.050	           8499	      1.038	      0.938	      0.910	      0.848	      0.038	      0.032	      0.012	
 2018/05/14-15:15	   1.050	   1.050	   1.030	   1.040	           2299	      1.034	      0.943	      0.915	      0.850	      0.038	      0.033	      0.009	
 2018/05/14-15:20	   1.030	   1.030	   1.010	   1.030	           2759	      1.032	      0.947	      0.919	      0.852	      0.037	      0.034	      0.005	
 2018/05/14-15:25	   1.020	   1.020	   0.980	   1.000	           7919	      1.024	      0.950	      0.923	      0.853	      0.033	      0.034	     -0.002	
 2018/05/14-15:30	   1.010	   1.050	   1.000	   1.050	           7259	      1.034	      0.955	      0.928	      0.855	      0.033	      0.034	     -0.001	
 2018/05/14-15:35	   1.050	   1.080	   1.040	   1.070	           8579	      1.038	      0.961	      0.932	      0.858	      0.035	      0.034	      0.002	
 2018/05/14-15:40	   1.070	   1.070	   1.050	   1.050	           5719	      1.040	      0.966	      0.936	      0.860	      0.034	      0.034	      0.000	
 2018/05/14-15:45	   1.060	   1.060	   1.050	   1.050	           3699	      1.044	      0.971	      0.939	      0.862	      0.033	      0.034	     -0.001	
 2018/05/14-15:50	   1.050	   1.070	   1.050	   1.060	           2539	      1.056	      0.976	      0.941	      0.864	      0.033	      0.034	     -0.001	
 2018/05/14-15:55	   1.060	   1.080	   1.060	   1.070	           8239	      1.060	      0.981	      0.944	      0.866	      0.033	      0.033	     -0.001	
 2018/05/14-16:00	   1.070	   1.220	   1.070	   1.210	          35659	      1.088	      0.991	      0.950	      0.870	      0.044	      0.036	      0.017	
数据来源:通达信
