                  前进控股集团 (01499)
      时间	    开盘	    最高	    最低	    收盘	         成交量	   MA.MA1   	   MA.MA2   	   MA.MA3   	   MA.MA4   	 MACD.DIF   	 MACD.DEA   	 MACD.MACD  	
 2018/04/06-13:15	   0.720	   0.720	   0.690	   0.720	          84299	           	           	           	           	      0.000	      0.000	      0.000	
 2018/04/06-13:30	   0.720	   0.720	   0.720	   0.720	              0	           	           	           	           	      0.000	      0.000	      0.000	
 2018/04/06-13:45	   0.720	   0.720	   0.720	   0.720	            600	           	           	           	           	      0.000	      0.000	      0.000	
 2018/04/06-14:00	   0.710	   0.720	   0.710	   0.720	          80198	           	           	           	           	      0.000	      0.000	      0.000	
 2018/04/06-14:15	   0.720	   0.720	   0.720	   0.720	             99	      0.720	           	           	           	      0.000	      0.000	      0.000	
 2018/04/06-14:30	   0.720	   0.720	   0.720	   0.720	              0	      0.720	           	           	           	      0.000	      0.000	      0.000	
 2018/04/06-14:45	   0.720	   0.720	   0.720	   0.720	              0	      0.720	           	           	           	      0.000	      0.000	      0.000	
 2018/04/06-15:00	   0.720	   0.720	   0.720	   0.720	              0	      0.720	           	           	           	      0.000	      0.000	      0.000	
 2018/04/06-15:15	   0.720	   0.720	   0.720	   0.720	              0	      0.720	           	           	           	      0.000	      0.000	      0.000	
 2018/04/06-15:30	   0.720	   0.720	   0.720	   0.720	              0	      0.720	           	           	           	      0.000	      0.000	      0.000	
 2018/04/06-15:45	   0.720	   0.730	   0.720	   0.730	            399	      0.722	           	           	           	      0.001	      0.000	      0.001	
 2018/04/06-16:00	   0.730	   0.730	   0.730	   0.730	              0	      0.724	           	           	           	      0.001	      0.000	      0.002	
 2018/04/09-09:45	   0.720	   0.720	   0.720	   0.720	              0	      0.724	           	           	           	      0.001	      0.001	      0.001	
 2018/04/09-10:00	   0.720	   0.720	   0.720	   0.720	              0	      0.724	           	           	           	      0.001	      0.001	      0.000	
 2018/04/09-10:15	   0.720	   0.720	   0.720	   0.720	              0	      0.724	           	           	           	      0.001	      0.001	     -0.000	
 2018/04/09-10:30	   0.720	   0.720	   0.720	   0.720	              0	      0.722	           	           	           	      0.000	      0.001	     -0.000	
 2018/04/09-10:45	   0.720	   0.720	   0.720	   0.720	            599	      0.720	           	           	           	      0.000	      0.000	     -0.000	
 2018/04/09-11:00	   0.720	   0.720	   0.720	   0.720	            399	      0.720	           	           	           	      0.000	      0.000	     -0.001	
 2018/04/09-11:15	   0.720	   0.750	   0.720	   0.750	            499	      0.726	           	           	           	      0.002	      0.001	      0.003	
 2018/04/09-11:30	   0.750	   0.750	   0.740	   0.750	            798	      0.732	           	           	           	      0.004	      0.002	      0.005	
 2018/04/09-11:45	   0.750	   0.750	   0.750	   0.750	              0	      0.738	           	           	           	      0.006	      0.002	      0.006	
 2018/04/09-12:00	   0.750	   0.750	   0.750	   0.750	              0	      0.744	           	           	           	      0.007	      0.003	      0.007	
 2018/04/09-13:15	   0.750	   0.750	   0.750	   0.750	            598	      0.750	           	           	           	      0.007	      0.004	      0.007	
 2018/04/09-13:30	   0.750	   0.750	   0.740	   0.750	          40698	      0.750	           	           	           	      0.008	      0.005	      0.006	
 2018/04/09-13:45	   0.750	   0.760	   0.740	   0.750	          31998	      0.750	           	           	           	      0.008	      0.005	      0.005	
 2018/04/09-14:00	   0.750	   0.750	   0.750	   0.750	              0	      0.750	           	           	           	      0.008	      0.006	      0.004	
 2018/04/09-14:15	   0.750	   0.750	   0.750	   0.750	            499	      0.750	           	           	           	      0.008	      0.006	      0.004	
 2018/04/09-14:30	   0.750	   0.750	   0.740	   0.740	            699	      0.748	           	           	           	      0.007	      0.007	      0.001	
 2018/04/09-14:45	   0.740	   0.740	   0.740	   0.740	              0	      0.746	           	           	           	      0.006	      0.007	     -0.000	
 2018/04/09-15:00	   0.740	   0.740	   0.740	   0.740	              0	      0.744	           	           	           	      0.006	      0.006	     -0.001	
 2018/04/09-15:15	   0.740	   0.740	   0.740	   0.740	            499	      0.742	           	           	           	      0.005	      0.006	     -0.002	
 2018/04/09-15:30	   0.740	   0.740	   0.740	   0.740	              0	      0.740	           	           	           	      0.005	      0.006	     -0.002	
 2018/04/09-15:45	   0.740	   0.740	   0.740	   0.740	          42999	      0.740	      0.732	           	           	      0.004	      0.006	     -0.003	
 2018/04/09-16:00	   0.740	   0.740	   0.740	   0.740	              0	      0.740	      0.733	           	           	      0.004	      0.005	     -0.003	
 2018/04/10-09:45	   0.720	   0.720	   0.720	   0.720	              0	      0.736	      0.733	           	           	      0.002	      0.004	     -0.005	
 2018/04/10-10:00	   0.720	   0.720	   0.720	   0.720	              0	      0.732	      0.733	           	           	      0.000	      0.004	     -0.007	
 2018/04/10-10:15	   0.720	   0.720	   0.720	   0.720	              0	      0.728	      0.733	           	           	     -0.001	      0.003	     -0.007	
 2018/04/10-10:30	   0.720	   0.720	   0.720	   0.720	            498	      0.724	      0.733	           	           	     -0.002	      0.002	     -0.007	
 2018/04/10-10:45	   0.720	   0.720	   0.720	   0.720	              0	      0.720	      0.733	           	           	     -0.003	      0.001	     -0.007	
 2018/04/10-11:00	   0.720	   0.720	   0.720	   0.720	            399	      0.720	      0.733	           	           	     -0.003	      0.000	     -0.007	
 2018/04/10-11:15	   0.720	   0.720	   0.720	   0.720	          73599	      0.720	      0.733	           	           	     -0.004	     -0.001	     -0.006	
 2018/04/10-11:30	   0.720	   0.720	   0.720	   0.720	          43999	      0.720	      0.733	           	           	     -0.004	     -0.001	     -0.005	
 2018/04/10-11:45	   0.720	   0.720	   0.720	   0.720	              0	      0.720	      0.733	           	           	     -0.004	     -0.002	     -0.004	
 2018/04/10-12:00	   0.720	   0.720	   0.720	   0.720	              0	      0.720	      0.733	           	           	     -0.004	     -0.002	     -0.004	
 2018/04/10-13:15	   0.720	   0.720	   0.720	   0.720	              0	      0.720	      0.732	           	           	     -0.004	     -0.003	     -0.003	
 2018/04/10-13:30	   0.720	   0.720	   0.720	   0.720	              0	      0.720	      0.732	           	           	     -0.004	     -0.003	     -0.002	
 2018/04/10-13:45	   0.720	   0.720	   0.720	   0.720	           4999	      0.720	      0.732	           	           	     -0.004	     -0.003	     -0.002	
 2018/04/10-14:00	   0.720	   0.720	   0.720	   0.720	              0	      0.720	      0.732	           	           	     -0.004	     -0.003	     -0.001	
 2018/04/10-14:15	   0.720	   0.720	   0.720	   0.720	              0	      0.720	      0.732	           	           	     -0.004	     -0.003	     -0.001	
 2018/04/10-14:30	   0.720	   0.720	   0.720	   0.720	              0	      0.720	      0.732	           	           	     -0.004	     -0.003	     -0.000	
 2018/04/10-14:45	   0.720	   0.720	   0.720	   0.720	            199	      0.720	      0.732	           	           	     -0.003	     -0.003	     -0.000	
 2018/04/10-15:00	   0.720	   0.720	   0.720	   0.720	              0	      0.720	      0.732	           	           	     -0.003	     -0.003	      0.000	
 2018/04/10-15:15	   0.720	   0.720	   0.720	   0.720	              0	      0.720	      0.731	           	           	     -0.003	     -0.003	      0.000	
 2018/04/10-15:30	   0.720	   0.720	   0.720	   0.720	              0	      0.720	      0.730	           	           	     -0.003	     -0.003	      0.001	
 2018/04/10-15:45	   0.720	   0.720	   0.720	   0.720	            999	      0.720	      0.729	           	           	     -0.003	     -0.003	      0.001	
 2018/04/10-16:00	   0.720	   0.720	   0.710	   0.720	            299	      0.720	      0.728	           	           	     -0.003	     -0.003	      0.001	
 2018/04/11-09:45	   0.700	   0.700	   0.700	   0.700	            499	      0.716	      0.726	           	           	     -0.004	     -0.003	     -0.002	
 2018/04/11-10:00	   0.700	   0.700	   0.700	   0.700	           1299	      0.712	      0.725	           	           	     -0.005	     -0.004	     -0.003	
 2018/04/11-10:15	   0.700	   0.700	   0.700	   0.700	             99	      0.708	      0.723	           	           	     -0.006	     -0.004	     -0.004	
 2018/04/11-10:30	   0.700	   0.700	   0.700	   0.700	           1499	      0.704	      0.722	      0.726	           	     -0.007	     -0.005	     -0.004	
 2018/04/11-10:45	   0.700	   0.700	   0.700	   0.700	           2699	      0.700	      0.721	      0.726	           	     -0.007	     -0.005	     -0.004	
 2018/04/11-11:00	   0.700	   0.700	   0.700	   0.700	              0	      0.700	      0.719	      0.725	           	     -0.007	     -0.005	     -0.003	
 2018/04/11-11:15	   0.700	   0.700	   0.700	   0.700	              0	      0.700	      0.718	      0.725	           	     -0.007	     -0.006	     -0.003	
 2018/04/11-11:30	   0.700	   0.700	   0.700	   0.700	           1599	      0.700	      0.717	      0.725	           	     -0.007	     -0.006	     -0.002	
 2018/04/11-11:45	   0.710	   0.710	   0.710	   0.710	           1898	      0.702	      0.716	      0.724	           	     -0.006	     -0.006	     -0.000	
 2018/04/11-12:00	   0.710	   0.710	   0.710	   0.710	              0	      0.704	      0.715	      0.724	           	     -0.005	     -0.006	      0.001	
 2018/04/11-13:15	   0.710	   0.710	   0.710	   0.710	              0	      0.706	      0.714	      0.724	           	     -0.005	     -0.006	      0.002	
 2018/04/11-13:30	   0.710	   0.710	   0.710	   0.710	           2799	      0.708	      0.714	      0.724	           	     -0.004	     -0.005	      0.002	
 2018/04/11-13:45	   0.710	   0.710	   0.690	   0.690	           8499	      0.706	      0.713	      0.723	           	     -0.005	     -0.005	      0.000	
 2018/04/11-14:00	   0.690	   0.690	   0.690	   0.690	              0	      0.702	      0.712	      0.723	           	     -0.006	     -0.006	     -0.001	
 2018/04/11-14:15	   0.690	   0.690	   0.690	   0.690	            499	      0.698	      0.711	      0.722	           	     -0.007	     -0.006	     -0.002	
 2018/04/11-14:30	   0.690	   0.690	   0.690	   0.690	              0	      0.694	      0.710	      0.722	           	     -0.007	     -0.006	     -0.002	
 2018/04/11-14:45	   0.690	   0.690	   0.690	   0.690	           1099	      0.690	      0.709	      0.721	           	     -0.007	     -0.006	     -0.002	
 2018/04/11-15:00	   0.690	   0.690	   0.690	   0.690	              0	      0.690	      0.708	      0.721	           	     -0.007	     -0.006	     -0.002	
 2018/04/11-15:15	   0.690	   0.690	   0.690	   0.690	              0	      0.690	      0.708	      0.720	           	     -0.007	     -0.007	     -0.001	
 2018/04/11-15:30	   0.690	   0.690	   0.690	   0.690	              0	      0.690	      0.707	      0.720	           	     -0.007	     -0.007	     -0.001	
 2018/04/11-15:45	   0.690	   0.690	   0.690	   0.690	              0	      0.690	      0.706	      0.719	           	     -0.007	     -0.007	     -0.000	
 2018/04/11-16:00	   0.690	   0.690	   0.690	   0.690	             99	      0.690	      0.705	      0.719	           	     -0.007	     -0.007	     -0.000	
 2018/04/12-09:45	   0.690	   0.690	   0.680	   0.680	           1399	      0.688	      0.704	      0.717	           	     -0.007	     -0.007	     -0.001	
 2018/04/12-10:00	   0.680	   0.680	   0.680	   0.680	            199	      0.686	      0.702	      0.716	           	     -0.008	     -0.007	     -0.001	
 2018/04/12-10:15	   0.680	   0.680	   0.680	   0.680	              0	      0.684	      0.701	      0.715	           	     -0.008	     -0.007	     -0.001	
 2018/04/12-10:30	   0.680	   0.680	   0.680	   0.680	              0	      0.682	      0.700	      0.714	           	     -0.008	     -0.007	     -0.001	
 2018/04/12-10:45	   0.680	   0.680	   0.680	   0.680	            499	      0.680	      0.699	      0.713	           	     -0.008	     -0.007	     -0.001	
 2018/04/12-11:00	   0.680	   0.680	   0.680	   0.680	            199	      0.680	      0.698	      0.712	           	     -0.008	     -0.008	     -0.000	
 2018/04/12-11:15	   0.680	   0.680	   0.670	   0.670	           1098	      0.678	      0.696	      0.710	           	     -0.008	     -0.008	     -0.001	
 2018/04/12-11:30	   0.680	   0.680	   0.660	   0.660	           4998	      0.674	      0.694	      0.709	           	     -0.010	     -0.008	     -0.003	
 2018/04/12-11:45	   0.660	   0.660	   0.640	   0.650	           8597	      0.668	      0.692	      0.707	           	     -0.011	     -0.009	     -0.005	
 2018/04/12-12:00	   0.650	   0.650	   0.640	   0.650	           5198	      0.662	      0.690	      0.706	           	     -0.012	     -0.009	     -0.006	
 2018/04/12-13:15	   0.650	   0.650	   0.630	   0.630	           3199	      0.652	      0.687	      0.704	           	     -0.015	     -0.010	     -0.008	
 2018/04/12-13:30	   0.650	   0.650	   0.640	   0.640	           2198	      0.646	      0.685	      0.702	           	     -0.016	     -0.011	     -0.008	
 2018/04/12-13:45	   0.630	   0.640	   0.630	   0.640	           3697	      0.642	      0.684	      0.700	           	     -0.016	     -0.012	     -0.007	
 2018/04/12-14:00	   0.640	   0.660	   0.640	   0.650	         207298	      0.642	      0.682	      0.699	           	     -0.015	     -0.013	     -0.005	
 2018/04/12-14:15	   0.650	   0.650	   0.640	   0.650	           2298	      0.642	      0.681	      0.697	           	     -0.015	     -0.013	     -0.003	
 2018/04/12-14:30	   0.650	   0.650	   0.650	   0.650	            599	      0.646	      0.679	      0.696	           	     -0.014	     -0.014	     -0.001	
 2018/04/12-14:45	   0.650	   0.660	   0.650	   0.650	           6597	      0.648	      0.678	      0.695	           	     -0.013	     -0.014	      0.000	
 2018/04/12-15:00	   0.650	   0.650	   0.650	   0.650	             99	      0.650	      0.676	      0.694	           	     -0.013	     -0.013	      0.001	
 2018/04/12-15:15	   0.650	   0.660	   0.650	   0.660	             99	      0.652	      0.675	      0.693	           	     -0.011	     -0.013	      0.003	
 2018/04/12-15:30	   0.660	   0.660	   0.660	   0.660	              0	      0.654	      0.673	      0.692	           	     -0.010	     -0.012	      0.005	
 2018/04/12-15:45	   0.660	   0.670	   0.660	   0.670	           1299	      0.658	      0.672	      0.691	           	     -0.008	     -0.012	      0.007	
 2018/04/12-16:00	   0.670	   0.680	   0.670	   0.680	            499	      0.664	      0.671	      0.690	           	     -0.006	     -0.010	      0.009	
 2018/04/13-09:45	   0.700	   0.700	   0.700	   0.700	              0	      0.674	      0.671	      0.690	           	     -0.002	     -0.009	      0.013	
 2018/04/13-10:00	   0.700	   0.700	   0.700	   0.700	              0	      0.682	      0.671	      0.689	           	      0.001	     -0.007	      0.015	
 2018/04/13-10:15	   0.700	   0.700	   0.700	   0.700	           1398	      0.690	      0.672	      0.689	           	      0.003	     -0.005	      0.015	
 2018/04/13-10:30	   0.700	   0.700	   0.670	   0.670	           1398	      0.690	      0.671	      0.688	           	      0.002	     -0.004	      0.011	
 2018/04/13-10:45	   0.670	   0.670	   0.670	   0.670	              0	      0.688	      0.670	      0.687	           	      0.002	     -0.003	      0.008	
 2018/04/13-11:00	   0.670	   0.670	   0.670	   0.670	              0	      0.682	      0.670	      0.687	           	      0.001	     -0.002	      0.006	
 2018/04/13-11:15	   0.670	   0.700	   0.670	   0.700	           1299	      0.682	      0.670	      0.686	           	      0.003	     -0.001	      0.008	
 2018/04/13-11:30	   0.690	   0.690	   0.690	   0.690	           2097	      0.680	      0.670	      0.686	           	      0.004	      0.000	      0.007	
 2018/04/13-11:45	   0.700	   0.700	   0.700	   0.700	           1098	      0.686	      0.670	      0.685	           	      0.005	      0.001	      0.008	
 2018/04/13-12:00	   0.700	   0.700	   0.700	   0.700	           2697	      0.692	      0.671	      0.685	           	      0.006	      0.002	      0.008	
 2018/04/13-13:15	   0.700	   0.710	   0.700	   0.700	           3897	      0.698	      0.671	      0.685	           	      0.007	      0.003	      0.008	
 2018/04/13-13:30	   0.700	   0.700	   0.700	   0.700	              0	      0.698	      0.672	      0.684	           	      0.007	      0.004	      0.007	
 2018/04/13-13:45	   0.700	   0.700	   0.700	   0.700	              0	      0.700	      0.672	      0.684	           	      0.008	      0.005	      0.006	
 2018/04/13-14:00	   0.700	   0.700	   0.700	   0.700	            599	      0.700	      0.673	      0.684	           	      0.008	      0.005	      0.005	
 2018/04/13-14:15	   0.700	   0.700	   0.690	   0.690	           1897	      0.698	      0.673	      0.683	           	      0.007	      0.006	      0.003	
 2018/04/13-14:30	   0.700	   0.700	   0.700	   0.700	            597	      0.698	      0.674	      0.683	           	      0.007	      0.006	      0.002	
 2018/04/13-14:45	   0.700	   0.700	   0.700	   0.700	           1999	      0.698	      0.674	      0.683	           	      0.007	      0.006	      0.002	
 2018/04/13-15:00	   0.700	   0.700	   0.700	   0.700	           4998	      0.698	      0.675	      0.683	           	      0.007	      0.006	      0.001	
 2018/04/13-15:15	   0.700	   0.700	   0.700	   0.700	              0	      0.698	      0.676	      0.683	           	      0.007	      0.006	      0.001	
 2018/04/13-15:30	   0.700	   0.700	   0.700	   0.700	          71498	      0.700	      0.678	      0.683	      0.704	      0.007	      0.006	      0.000	
 2018/04/13-15:45	   0.700	   0.700	   0.700	   0.700	             99	      0.700	      0.679	      0.683	      0.704	      0.006	      0.006	     -0.000	
 2018/04/13-16:00	   0.700	   0.700	   0.700	   0.700	             99	      0.700	      0.682	      0.683	      0.704	      0.006	      0.006	     -0.000	
 2018/04/16-09:45	   0.700	   0.700	   0.700	   0.700	              0	      0.700	      0.683	      0.683	      0.704	      0.006	      0.006	     -0.001	
 2018/04/16-10:00	   0.700	   0.700	   0.700	   0.700	              0	      0.700	      0.685	      0.683	      0.704	      0.006	      0.006	     -0.001	
 2018/04/16-10:15	   0.700	   0.700	   0.700	   0.700	              0	      0.700	      0.687	      0.683	      0.704	      0.005	      0.006	     -0.001	
 2018/04/16-10:30	   0.700	   0.700	   0.700	   0.700	            299	      0.700	      0.688	      0.683	      0.703	      0.005	      0.006	     -0.001	
 2018/04/16-10:45	   0.700	   0.700	   0.700	   0.700	            198	      0.700	      0.690	      0.682	      0.703	      0.005	      0.006	     -0.002	
 2018/04/16-11:00	   0.700	   0.700	   0.700	   0.700	             99	      0.700	      0.691	      0.682	      0.703	      0.005	      0.005	     -0.002	
 2018/04/16-11:15	   0.700	   0.700	   0.690	   0.690	            199	      0.698	      0.692	      0.682	      0.703	      0.003	      0.005	     -0.003	
 2018/04/16-11:30	   0.690	   0.690	   0.690	   0.690	            199	      0.696	      0.693	      0.682	      0.703	      0.003	      0.005	     -0.004	
 2018/04/16-11:45	   0.700	   0.700	   0.680	   0.680	           1298	      0.692	      0.694	      0.682	      0.702	      0.001	      0.004	     -0.006	
 2018/04/16-12:00	   0.680	   0.680	   0.680	   0.680	              0	      0.688	      0.694	      0.682	      0.702	     -0.000	      0.003	     -0.006	
 2018/04/16-13:15	   0.680	   0.680	   0.680	   0.680	              0	      0.684	      0.694	      0.682	      0.701	     -0.001	      0.002	     -0.007	
 2018/04/16-13:30	   0.680	   0.680	   0.680	   0.680	              0	      0.682	      0.694	      0.682	      0.701	     -0.002	      0.001	     -0.006	
 2018/04/16-13:45	   0.680	   0.680	   0.680	   0.680	              0	      0.680	      0.693	      0.681	      0.701	     -0.002	      0.001	     -0.006	
 2018/04/16-14:00	   0.690	   0.700	   0.690	   0.700	           3498	      0.684	      0.693	      0.682	      0.701	     -0.001	      0.000	     -0.003	
 2018/04/16-14:15	   0.700	   0.700	   0.700	   0.700	              0	      0.688	      0.694	      0.682	      0.700	     -0.000	      0.000	     -0.001	
 2018/04/16-14:30	   0.700	   0.700	   0.700	   0.700	              0	      0.692	      0.695	      0.682	      0.700	      0.001	      0.000	      0.001	
 2018/04/16-14:45	   0.700	   0.700	   0.700	   0.700	           2499	      0.696	      0.696	      0.682	      0.700	      0.001	      0.000	      0.001	
 2018/04/16-15:00	   0.700	   0.700	   0.700	   0.700	           3199	      0.700	      0.696	      0.683	      0.699	      0.002	      0.001	      0.002	
 2018/04/16-15:15	   0.700	   0.700	   0.700	   0.700	           2797	      0.700	      0.696	      0.683	      0.699	      0.002	      0.001	      0.002	
 2018/04/16-15:30	   0.700	   0.700	   0.700	   0.700	           1598	      0.700	      0.696	      0.683	      0.699	      0.002	      0.001	      0.002	
 2018/04/16-15:45	   0.700	   0.700	   0.700	   0.700	            699	      0.700	      0.696	      0.684	      0.698	      0.002	      0.001	      0.002	
 2018/04/16-16:00	   0.700	   0.700	   0.680	   0.680	           4099	      0.696	      0.695	      0.684	      0.698	      0.001	      0.001	     -0.001	
 2018/04/17-09:45	   0.690	   0.690	   0.690	   0.690	              0	      0.694	      0.695	      0.684	      0.697	      0.000	      0.001	     -0.001	
 2018/04/17-10:00	   0.690	   0.690	   0.690	   0.690	            498	      0.692	      0.695	      0.684	      0.697	      0.000	      0.001	     -0.002	
 2018/04/17-10:15	   0.690	   0.690	   0.690	   0.690	             99	      0.690	      0.695	      0.685	      0.696	     -0.000	      0.001	     -0.002	
 2018/04/17-10:30	   0.690	   0.690	   0.690	   0.690	              0	      0.688	      0.695	      0.686	      0.696	     -0.000	      0.001	     -0.002	
 2018/04/17-10:45	   0.690	   0.700	   0.690	   0.700	           1298	      0.692	      0.695	      0.687	      0.695	      0.000	      0.000	     -0.000	
 2018/04/17-11:00	   0.700	   0.710	   0.700	   0.700	           2197	      0.694	      0.695	      0.688	      0.695	      0.001	      0.001	      0.001	
 2018/04/17-11:15	   0.700	   0.700	   0.700	   0.700	           2197	      0.696	      0.695	      0.689	      0.695	      0.001	      0.001	      0.001	
 2018/04/17-11:30	   0.700	   0.700	   0.700	   0.700	              0	      0.698	      0.695	      0.690	      0.694	      0.002	      0.001	      0.001	
 2018/04/17-11:45	   0.700	   0.700	   0.700	   0.700	           1599	      0.700	      0.695	      0.691	      0.694	      0.002	      0.001	      0.001	
 2018/04/17-12:00	   0.700	   0.700	   0.700	   0.700	              0	      0.700	      0.695	      0.691	      0.694	      0.002	      0.001	      0.001	
 2018/04/17-13:15	   0.710	   0.710	   0.700	   0.700	           2698	      0.700	      0.695	      0.692	      0.693	      0.002	      0.001	      0.001	
 2018/04/17-13:30	   0.700	   0.700	   0.700	   0.700	            399	      0.700	      0.695	      0.693	      0.693	      0.002	      0.001	      0.001	
 2018/04/17-13:45	   0.700	   0.700	   0.700	   0.700	            798	      0.700	      0.695	      0.694	      0.693	      0.002	      0.002	      0.001	
 2018/04/17-14:00	   0.700	   0.700	   0.700	   0.700	            399	      0.700	      0.695	      0.694	      0.693	      0.002	      0.002	      0.001	
 2018/04/17-14:15	   0.700	   0.700	   0.700	   0.700	           1598	      0.700	      0.695	      0.695	      0.693	      0.002	      0.002	      0.000	
 2018/04/17-14:30	   0.700	   0.700	   0.690	   0.700	           1997	      0.700	      0.695	      0.695	      0.693	      0.002	      0.002	      0.000	
 2018/04/17-14:45	   0.700	   0.700	   0.700	   0.700	            199	      0.700	      0.695	      0.695	      0.692	      0.002	      0.002	      0.000	
 2018/04/17-15:00	   0.700	   0.700	   0.690	   0.690	           1999	      0.698	      0.695	      0.695	      0.692	      0.001	      0.002	     -0.001	
 2018/04/17-15:15	   0.690	   0.690	   0.690	   0.690	           3797	      0.696	      0.695	      0.695	      0.692	      0.000	      0.001	     -0.002	
 2018/04/17-15:30	   0.690	   0.690	   0.680	   0.680	           2097	      0.692	      0.695	      0.695	      0.692	     -0.001	      0.001	     -0.004	
 2018/04/17-15:45	   0.690	   0.690	   0.680	   0.690	           3198	      0.690	      0.695	      0.695	      0.691	     -0.001	      0.000	     -0.003	
 2018/04/17-16:00	   0.690	   0.700	   0.680	   0.690	           8297	      0.688	      0.695	      0.696	      0.691	     -0.001	      0.000	     -0.003	
 2018/04/18-09:45	   0.670	   0.670	   0.670	   0.670	            499	      0.684	      0.695	      0.695	      0.691	     -0.003	     -0.001	     -0.005	
 2018/04/18-10:00	   0.670	   0.670	   0.670	   0.670	            999	      0.680	      0.695	      0.695	      0.690	     -0.004	     -0.001	     -0.006	
 2018/04/18-10:15	   0.670	   0.670	   0.670	   0.670	              0	      0.678	      0.694	      0.694	      0.690	     -0.005	     -0.002	     -0.007	
 2018/04/18-10:30	   0.670	   0.670	   0.670	   0.670	              0	      0.674	      0.693	      0.694	      0.689	     -0.006	     -0.003	     -0.006	
 2018/04/18-10:45	   0.670	   0.670	   0.670	   0.670	              0	      0.670	      0.692	      0.693	      0.689	     -0.007	     -0.004	     -0.006	
 2018/04/18-11:00	   0.680	   0.680	   0.680	   0.680	            198	      0.672	      0.691	      0.693	      0.689	     -0.006	     -0.004	     -0.004	
 2018/04/18-11:15	   0.680	   0.680	   0.660	   0.670	           1298	      0.672	      0.690	      0.693	      0.688	     -0.006	     -0.005	     -0.004	
 2018/04/18-11:30	   0.670	   0.670	   0.670	   0.670	             99	      0.672	      0.689	      0.692	      0.688	     -0.007	     -0.005	     -0.003	
 2018/04/18-11:45	   0.670	   0.670	   0.670	   0.670	              0	      0.672	      0.688	      0.692	      0.687	     -0.007	     -0.005	     -0.003	
 2018/04/18-12:00	   0.670	   0.670	   0.670	   0.670	              0	      0.672	      0.688	      0.691	      0.687	     -0.007	     -0.006	     -0.002	
 2018/04/18-13:15	   0.670	   0.670	   0.670	   0.670	              0	      0.670	      0.687	      0.691	      0.687	     -0.007	     -0.006	     -0.002	
 2018/04/18-13:30	   0.670	   0.670	   0.670	   0.670	              0	      0.670	      0.687	      0.690	      0.687	     -0.006	     -0.006	     -0.001	
 2018/04/18-13:45	   0.670	   0.670	   0.670	   0.670	              0	      0.670	      0.686	      0.690	      0.686	     -0.006	     -0.006	     -0.001	
 2018/04/18-14:00	   0.670	   0.670	   0.670	   0.670	              0	      0.670	      0.685	      0.689	      0.686	     -0.006	     -0.006	     -0.000	
 2018/04/18-14:15	   0.670	   0.670	   0.670	   0.670	              0	      0.670	      0.685	      0.689	      0.686	     -0.006	     -0.006	      0.000	
 2018/04/18-14:30	   0.670	   0.670	   0.670	   0.670	              0	      0.670	      0.684	      0.688	      0.686	     -0.006	     -0.006	      0.001	
 2018/04/18-14:45	   0.670	   0.670	   0.670	   0.670	              0	      0.670	      0.683	      0.688	      0.685	     -0.005	     -0.006	      0.001	
 2018/04/18-15:00	   0.670	   0.670	   0.670	   0.670	              0	      0.670	      0.682	      0.687	      0.685	     -0.005	     -0.006	      0.001	
 2018/04/18-15:15	   0.670	   0.670	   0.670	   0.670	              0	      0.670	      0.681	      0.687	      0.685	     -0.005	     -0.005	      0.001	
 2018/04/18-15:30	   0.670	   0.670	   0.670	   0.670	              0	      0.670	      0.680	      0.686	      0.684	     -0.005	     -0.005	      0.002	
 2018/04/18-15:45	   0.670	   0.670	   0.670	   0.670	              0	      0.670	      0.679	      0.686	      0.684	     -0.004	     -0.005	      0.002	
 2018/04/18-16:00	   0.670	   0.670	   0.670	   0.670	           1798	      0.670	      0.678	      0.685	      0.684	     -0.004	     -0.005	      0.002	
 2018/04/19-09:45	   0.690	   0.690	   0.690	   0.690	              0	      0.674	      0.678	      0.685	      0.684	     -0.002	     -0.004	      0.004	
 2018/04/19-10:00	   0.690	   0.690	   0.690	   0.690	              0	      0.678	      0.678	      0.685	      0.684	     -0.001	     -0.004	      0.006	
 2018/04/19-10:15	   0.690	   0.690	   0.690	   0.690	              0	      0.682	      0.678	      0.685	      0.684	      0.000	     -0.003	      0.006	
 2018/04/19-10:30	   0.690	   0.690	   0.670	   0.670	           1099	      0.682	      0.677	      0.685	      0.684	     -0.000	     -0.002	      0.004	
 2018/04/19-10:45	   0.670	   0.670	   0.670	   0.670	            399	      0.682	      0.676	      0.685	      0.683	     -0.001	     -0.002	      0.002	
 2018/04/19-11:00	   0.670	   0.670	   0.660	   0.660	           1399	      0.676	      0.675	      0.685	      0.683	     -0.002	     -0.002	     -0.000	
 2018/04/19-11:15	   0.660	   0.660	   0.660	   0.660	              0	      0.670	      0.674	      0.684	      0.683	     -0.003	     -0.002	     -0.002	
 2018/04/19-11:30	   0.680	   0.680	   0.680	   0.680	            299	      0.668	      0.673	      0.684	      0.683	     -0.002	     -0.002	      0.000	
 2018/04/19-11:45	   0.680	   0.680	   0.670	   0.670	             99	      0.668	      0.673	      0.684	      0.683	     -0.002	     -0.002	      0.000	
 2018/04/19-12:00	   0.670	   0.690	   0.670	   0.670	           3499	      0.668	      0.672	      0.683	      0.682	     -0.002	     -0.002	      0.000	
 2018/04/19-13:15	   0.670	   0.670	   0.660	   0.660	            799	      0.668	      0.672	      0.682	      0.682	     -0.003	     -0.002	     -0.001	
 2018/04/19-13:30	   0.660	   0.660	   0.660	   0.660	           1798	      0.668	      0.671	      0.682	      0.682	     -0.004	     -0.003	     -0.002	
 2018/04/19-13:45	   0.660	   0.660	   0.660	   0.660	            199	      0.664	      0.671	      0.681	      0.682	     -0.004	     -0.003	     -0.002	
 2018/04/19-14:00	   0.660	   0.660	   0.660	   0.660	            899	      0.662	      0.671	      0.680	      0.682	     -0.004	     -0.003	     -0.002	
 2018/04/19-14:15	   0.660	   0.660	   0.650	   0.650	           3499	      0.658	      0.670	      0.680	      0.682	     -0.005	     -0.004	     -0.003	
 2018/04/19-14:30	   0.650	   0.650	   0.650	   0.650	             99	      0.656	      0.669	      0.679	      0.681	     -0.006	     -0.004	     -0.004	
 2018/04/19-14:45	   0.650	   0.650	   0.650	   0.650	              0	      0.654	      0.668	      0.678	      0.681	     -0.006	     -0.004	     -0.004	
 2018/04/19-15:00	   0.650	   0.650	   0.650	   0.650	              0	      0.652	      0.668	      0.678	      0.681	     -0.007	     -0.005	     -0.004	
 2018/04/19-15:15	   0.650	   0.660	   0.650	   0.660	            198	      0.652	      0.668	      0.677	      0.681	     -0.006	     -0.005	     -0.002	
 2018/04/19-15:30	   0.660	   0.660	   0.660	   0.660	             99	      0.654	      0.667	      0.677	      0.681	     -0.005	     -0.005	     -0.001	
 2018/04/19-15:45	   0.660	   0.660	   0.660	   0.660	             99	      0.656	      0.667	      0.676	      0.681	     -0.005	     -0.005	      0.000	
 2018/04/19-16:00	   0.660	   0.660	   0.660	   0.660	            599	      0.658	      0.667	      0.675	      0.682	     -0.005	     -0.005	      0.001	
 2018/04/20-09:45	   0.660	   0.660	   0.660	   0.660	             99	      0.660	      0.666	      0.675	      0.682	     -0.004	     -0.005	      0.001	
 2018/04/20-10:00	   0.660	   0.660	   0.660	   0.660	              0	      0.660	      0.666	      0.674	      0.682	     -0.004	     -0.005	      0.002	
 2018/04/20-10:15	   0.660	   0.660	   0.660	   0.660	              0	      0.660	      0.666	      0.673	      0.682	     -0.003	     -0.004	      0.002	
 2018/04/20-10:30	   0.680	   0.680	   0.680	   0.680	            599	      0.664	      0.666	      0.673	      0.682	     -0.002	     -0.004	      0.005	
 2018/04/20-10:45	   0.680	   0.680	   0.680	   0.680	              0	      0.668	      0.666	      0.673	      0.682	     -0.000	     -0.003	      0.006	
 2018/04/20-11:00	   0.680	   0.680	   0.680	   0.680	             99	      0.672	      0.667	      0.672	      0.683	      0.001	     -0.002	      0.007	
 2018/04/20-11:15	   0.660	   0.660	   0.660	   0.660	             99	      0.672	      0.666	      0.672	      0.683	      0.000	     -0.002	      0.004	
 2018/04/20-11:30	   0.660	   0.660	   0.660	   0.660	              0	      0.672	      0.666	      0.671	      0.683	     -0.000	     -0.001	      0.003	
 2018/04/20-11:45	   0.660	   0.660	   0.660	   0.660	              0	      0.668	      0.666	      0.670	      0.683	     -0.001	     -0.001	      0.001	
 2018/04/20-12:00	   0.660	   0.660	   0.660	   0.660	              0	      0.664	      0.665	      0.670	      0.682	     -0.001	     -0.001	      0.001	
 2018/04/20-13:15	   0.660	   0.660	   0.660	   0.660	              0	      0.660	      0.665	      0.669	      0.682	     -0.001	     -0.001	      0.000	
 2018/04/20-13:30	   0.660	   0.660	   0.660	   0.660	              0	      0.660	      0.664	      0.669	      0.682	     -0.001	     -0.001	     -0.000	
 2018/04/20-13:45	   0.660	   0.660	   0.660	   0.660	              0	      0.660	      0.663	      0.668	      0.681	     -0.001	     -0.001	     -0.000	
 2018/04/20-14:00	   0.670	   0.670	   0.670	   0.670	            999	      0.662	      0.663	      0.668	      0.681	     -0.001	     -0.001	      0.001	
 2018/04/20-14:15	   0.670	   0.670	   0.670	   0.670	              0	      0.664	      0.663	      0.668	      0.681	     -0.000	     -0.001	      0.002	
 2018/04/20-14:30	   0.670	   0.670	   0.670	   0.670	              0	      0.666	      0.663	      0.667	      0.681	      0.000	     -0.001	      0.002	
 2018/04/20-14:45	   0.670	   0.670	   0.660	   0.660	            199	      0.666	      0.663	      0.667	      0.681	     -0.000	     -0.001	      0.001	
 2018/04/20-15:00	   0.660	   0.660	   0.660	   0.660	            199	      0.666	      0.663	      0.667	      0.681	     -0.000	     -0.001	      0.000	
 2018/04/20-15:15	   0.660	   0.670	   0.660	   0.670	           3199	      0.666	      0.662	      0.667	      0.681	      0.000	     -0.000	      0.001	
 2018/04/20-15:30	   0.660	   0.660	   0.660	   0.660	           2898	      0.664	      0.662	      0.667	      0.680	     -0.000	     -0.000	      0.000	
 2018/04/20-15:45	   0.660	   0.670	   0.660	   0.670	            699	      0.664	      0.662	      0.667	      0.680	      0.000	     -0.000	      0.001	
 2018/04/20-16:00	   0.670	   0.670	   0.670	   0.670	              0	      0.666	      0.662	      0.667	      0.680	      0.001	     -0.000	      0.001	
 2018/04/23-09:45	   0.670	   0.670	   0.660	   0.660	           2698	      0.666	      0.662	      0.666	      0.679	      0.000	     -0.000	      0.000	
 2018/04/23-10:00	   0.660	   0.670	   0.660	   0.670	           1199	      0.666	      0.663	      0.666	      0.679	      0.000	      0.000	      0.001	
 2018/04/23-10:15	   0.670	   0.670	   0.670	   0.670	             99	      0.668	      0.663	      0.666	      0.679	      0.001	      0.000	      0.001	
 2018/04/23-10:30	   0.670	   0.670	   0.670	   0.670	              0	      0.668	      0.664	      0.666	      0.679	      0.001	      0.000	      0.001	
 2018/04/23-10:45	   0.670	   0.670	   0.670	   0.670	              0	      0.668	      0.664	      0.666	      0.679	      0.001	      0.001	      0.001	
 2018/04/23-11:00	   0.670	   0.670	   0.670	   0.670	           1799	      0.670	      0.665	      0.666	      0.678	      0.001	      0.001	      0.001	
 2018/04/23-11:15	   0.670	   0.670	   0.670	   0.670	            899	      0.670	      0.665	      0.666	      0.678	      0.001	      0.001	      0.001	
 2018/04/23-11:30	   0.670	   0.680	   0.670	   0.670	           4999	      0.670	      0.666	      0.666	      0.678	      0.001	      0.001	      0.001	
 2018/04/23-11:45	   0.670	   0.670	   0.670	   0.670	           4997	      0.670	      0.666	      0.666	      0.678	      0.001	      0.001	      0.001	
 2018/04/23-12:00	   0.670	   0.670	   0.670	   0.670	              0	      0.670	      0.666	      0.666	      0.677	      0.001	      0.001	      0.001	
 2018/04/23-13:15	   0.680	   0.680	   0.680	   0.680	            897	      0.672	      0.667	      0.667	      0.677	      0.002	      0.001	      0.002	
 2018/04/23-13:30	   0.680	   0.680	   0.680	   0.680	             99	      0.674	      0.668	      0.667	      0.677	      0.003	      0.002	      0.002	
 2018/04/23-13:45	   0.680	   0.680	   0.680	   0.680	            298	      0.676	      0.668	      0.667	      0.677	      0.003	      0.002	      0.003	
 2018/04/23-14:00	   0.680	   0.680	   0.670	   0.670	           4797	      0.676	      0.668	      0.667	      0.677	      0.003	      0.002	      0.001	
 2018/04/23-14:15	   0.670	   0.680	   0.670	   0.680	             99	      0.678	      0.668	      0.667	      0.676	      0.003	      0.002	      0.002	
 2018/04/23-14:30	   0.680	   0.680	   0.680	   0.680	            198	      0.678	      0.668	      0.667	      0.676	      0.003	      0.003	      0.002	
 2018/04/23-14:45	   0.680	   0.680	   0.680	   0.680	            299	      0.678	      0.668	      0.667	      0.676	      0.004	      0.003	      0.002	
 2018/04/23-15:00	   0.680	   0.680	   0.680	   0.680	            198	      0.678	      0.669	      0.667	      0.676	      0.004	      0.003	      0.001	
 2018/04/23-15:15	   0.680	   0.680	   0.680	   0.680	            198	      0.680	      0.670	      0.667	      0.676	      0.004	      0.003	      0.001	
 2018/04/23-15:30	   0.680	   0.680	   0.660	   0.680	           5099	      0.680	      0.670	      0.667	      0.676	      0.004	      0.003	      0.001	
 2018/04/23-15:45	   0.670	   0.670	   0.670	   0.670	            498	      0.678	      0.671	      0.667	      0.676	      0.003	      0.003	     -0.001	
 2018/04/23-16:00	   0.670	   0.680	   0.670	   0.680	            798	      0.678	      0.671	      0.667	      0.676	      0.003	      0.003	     -0.000	
 2018/04/24-09:45	   0.670	   0.670	   0.670	   0.670	              0	      0.676	      0.672	      0.667	      0.676	      0.002	      0.003	     -0.001	
 2018/04/24-10:00	   0.670	   0.670	   0.670	   0.670	              0	      0.674	      0.672	      0.667	      0.676	      0.002	      0.003	     -0.002	
 2018/04/24-10:15	   0.670	   0.670	   0.670	   0.670	              0	      0.672	      0.672	      0.667	      0.675	      0.001	      0.002	     -0.003	
 2018/04/24-10:30	   0.670	   0.670	   0.670	   0.670	              0	      0.672	      0.672	      0.667	      0.675	      0.001	      0.002	     -0.003	
 2018/04/24-10:45	   0.670	   0.670	   0.670	   0.670	              0	      0.670	      0.672	      0.667	      0.675	      0.000	      0.002	     -0.003	
 2018/04/24-11:00	   0.670	   0.670	   0.670	   0.670	              0	      0.670	      0.672	      0.668	      0.675	      0.000	      0.001	     -0.003	
 2018/04/24-11:15	   0.670	   0.670	   0.670	   0.670	              0	      0.670	      0.672	      0.668	      0.674	     -0.000	      0.001	     -0.002	
 2018/04/24-11:30	   0.670	   0.670	   0.670	   0.670	              0	      0.670	      0.672	      0.668	      0.674	     -0.000	      0.001	     -0.002	
 2018/04/24-11:45	   0.670	   0.670	   0.670	   0.670	            999	      0.670	      0.673	      0.668	      0.674	     -0.000	      0.001	     -0.002	
 2018/04/24-12:00	   0.670	   0.670	   0.670	   0.670	            299	      0.670	      0.673	      0.669	      0.674	     -0.001	      0.000	     -0.002	
 2018/04/24-13:15	   0.670	   0.670	   0.670	   0.670	              0	      0.670	      0.673	      0.669	      0.674	     -0.001	      0.000	     -0.001	
 2018/04/24-13:30	   0.670	   0.670	   0.670	   0.670	              0	      0.670	      0.673	      0.669	      0.673	     -0.001	     -0.000	     -0.001	
 2018/04/24-13:45	   0.670	   0.670	   0.670	   0.670	              0	      0.670	      0.673	      0.669	      0.673	     -0.001	     -0.000	     -0.001	
 2018/04/24-14:00	   0.670	   0.670	   0.670	   0.670	           1099	      0.670	      0.673	      0.669	      0.673	     -0.001	     -0.000	     -0.001	
 2018/04/24-14:15	   0.670	   0.670	   0.650	   0.670	         154598	      0.670	      0.673	      0.670	      0.673	     -0.001	     -0.000	     -0.001	
 2018/04/24-14:30	   0.670	   0.670	   0.670	   0.670	           3397	      0.670	      0.673	      0.670	      0.673	     -0.001	     -0.000	     -0.001	
 2018/04/24-14:45	   0.670	   0.680	   0.670	   0.680	            999	      0.672	      0.673	      0.670	      0.672	      0.000	     -0.000	      0.001	
 2018/04/24-15:00	   0.680	   0.680	   0.680	   0.680	              0	      0.674	      0.674	      0.671	      0.672	      0.001	     -0.000	      0.002	
 2018/04/24-15:15	   0.680	   0.680	   0.680	   0.680	              0	      0.676	      0.674	      0.671	      0.672	      0.001	      0.000	      0.002	
 2018/04/24-15:30	   0.680	   0.680	   0.680	   0.680	              0	      0.678	      0.674	      0.671	      0.672	      0.002	      0.000	      0.002	
 2018/04/24-15:45	   0.680	   0.680	   0.670	   0.670	           1398	      0.678	      0.674	      0.671	      0.672	      0.001	      0.001	      0.001	
 2018/04/24-16:00	   0.670	   0.690	   0.670	   0.690	             99	      0.680	      0.675	      0.671	      0.672	      0.002	      0.001	      0.003	
 2018/04/25-09:45	   0.660	   0.660	   0.660	   0.660	              0	      0.676	      0.674	      0.671	      0.671	      0.001	      0.001	     -0.000	
 2018/04/25-10:00	   0.660	   0.660	   0.660	   0.660	              0	      0.672	      0.673	      0.671	      0.671	     -0.000	      0.001	     -0.002	
 2018/04/25-10:15	   0.660	   0.660	   0.660	   0.660	              0	      0.668	      0.673	      0.671	      0.671	     -0.001	      0.000	     -0.003	
 2018/04/25-10:30	   0.660	   0.660	   0.660	   0.660	              0	      0.666	      0.672	      0.671	      0.670	     -0.002	     -0.000	     -0.004	
 2018/04/25-10:45	   0.660	   0.660	   0.660	   0.660	           1099	      0.660	      0.672	      0.671	      0.670	     -0.003	     -0.001	     -0.004	
 2018/04/25-11:00	   0.660	   0.660	   0.660	   0.660	           1099	      0.660	      0.671	      0.671	      0.670	     -0.003	     -0.001	     -0.004	
 2018/04/25-11:15	   0.660	   0.660	   0.660	   0.660	              0	      0.660	      0.671	      0.671	      0.669	     -0.003	     -0.002	     -0.003	
 2018/04/25-11:30	   0.660	   0.660	   0.660	   0.660	              0	      0.660	      0.670	      0.671	      0.669	     -0.003	     -0.002	     -0.003	
 2018/04/25-11:45	   0.660	   0.660	   0.660	   0.660	              0	      0.660	      0.669	      0.671	      0.669	     -0.004	     -0.002	     -0.003	
 2018/04/25-12:00	   0.660	   0.660	   0.660	   0.660	              0	      0.660	      0.669	      0.670	      0.669	     -0.004	     -0.003	     -0.002	
 2018/04/25-13:15	   0.660	   0.660	   0.650	   0.660	           1699	      0.660	      0.668	      0.670	      0.669	     -0.004	     -0.003	     -0.002	
 2018/04/25-13:30	   0.660	   0.660	   0.660	   0.660	              0	      0.660	      0.668	      0.670	      0.669	     -0.003	     -0.003	     -0.001	
 2018/04/25-13:45	   0.660	   0.670	   0.660	   0.670	          21799	      0.662	      0.668	      0.670	      0.669	     -0.003	     -0.003	      0.000	
 2018/04/25-14:00	   0.670	   0.670	   0.670	   0.670	              0	      0.664	      0.668	      0.671	      0.669	     -0.002	     -0.003	      0.001	
 2018/04/25-14:15	   0.670	   0.670	   0.670	   0.670	              0	      0.666	      0.668	      0.671	      0.669	     -0.001	     -0.002	      0.002	
 2018/04/25-14:30	   0.670	   0.670	   0.670	   0.670	              0	      0.668	      0.668	      0.671	      0.669	     -0.001	     -0.002	      0.002	
 2018/04/25-14:45	   0.670	   0.670	   0.660	   0.660	           2499	      0.668	      0.668	      0.671	      0.668	     -0.001	     -0.002	      0.001	
 2018/04/25-15:00	   0.660	   0.660	   0.660	   0.660	              0	      0.666	      0.668	      0.670	      0.668	     -0.002	     -0.002	      0.001	
 2018/04/25-15:15	   0.660	   0.660	   0.660	   0.660	              0	      0.664	      0.667	      0.670	      0.668	     -0.002	     -0.002	      0.000	
 2018/04/25-15:30	   0.660	   0.660	   0.660	   0.660	              0	      0.662	      0.667	      0.670	      0.668	     -0.002	     -0.002	     -0.000	
 2018/04/25-15:45	   0.660	   0.660	   0.660	   0.660	              0	      0.660	      0.667	      0.670	      0.668	     -0.002	     -0.002	     -0.000	
 2018/04/25-16:00	   0.660	   0.660	   0.660	   0.660	            199	      0.660	      0.666	      0.670	      0.668	     -0.002	     -0.002	     -0.000	
 2018/04/26-09:45	   0.650	   0.650	   0.640	   0.640	           3398	      0.656	      0.665	      0.669	      0.668	     -0.004	     -0.002	     -0.003	
 2018/04/26-10:00	   0.640	   0.640	   0.640	   0.640	              0	      0.652	      0.665	      0.669	      0.668	     -0.005	     -0.003	     -0.004	
 2018/04/26-10:15	   0.640	   0.640	   0.640	   0.640	            399	      0.648	      0.664	      0.668	      0.667	     -0.006	     -0.003	     -0.005	
 2018/04/26-10:30	   0.640	   0.640	   0.640	   0.640	           1499	      0.644	      0.663	      0.668	      0.667	     -0.006	     -0.004	     -0.005	
 2018/04/26-10:45	   0.640	   0.640	   0.640	   0.640	            399	      0.640	      0.662	      0.667	      0.667	     -0.007	     -0.005	     -0.005	
 2018/04/26-11:00	   0.640	   0.640	   0.640	   0.640	              0	      0.640	      0.661	      0.666	      0.667	     -0.007	     -0.005	     -0.004	
 2018/04/26-11:15	   0.640	   0.640	   0.640	   0.640	              0	      0.640	      0.659	      0.666	      0.666	     -0.007	     -0.006	     -0.003	
 2018/04/26-11:30	   0.640	   0.640	   0.640	   0.640	              0	      0.640	      0.658	      0.665	      0.666	     -0.007	     -0.006	     -0.003	
 2018/04/26-11:45	   0.640	   0.650	   0.640	   0.650	            299	      0.642	      0.657	      0.665	      0.666	     -0.006	     -0.006	     -0.001	
 2018/04/26-12:00	   0.650	   0.650	   0.650	   0.650	              0	      0.644	      0.657	      0.664	      0.666	     -0.006	     -0.006	      0.001	
 2018/04/26-13:15	   0.650	   0.650	   0.650	   0.650	            698	      0.646	      0.655	      0.664	      0.665	     -0.005	     -0.006	      0.001	
 2018/04/26-13:30	   0.650	   0.650	   0.650	   0.650	            999	      0.648	      0.655	      0.663	      0.665	     -0.004	     -0.006	      0.002	
 2018/04/26-13:45	   0.650	   0.650	   0.650	   0.650	            199	      0.650	      0.655	      0.663	      0.665	     -0.004	     -0.005	      0.002	
 2018/04/26-14:00	   0.650	   0.650	   0.650	   0.650	           2999	      0.650	      0.655	      0.662	      0.664	     -0.004	     -0.005	      0.003	
 2018/04/26-14:15	   0.650	   0.650	   0.640	   0.640	            499	      0.648	      0.654	      0.662	      0.664	     -0.004	     -0.005	      0.001	
 2018/04/26-14:30	   0.640	   0.640	   0.640	   0.640	           1898	      0.646	      0.653	      0.661	      0.664	     -0.004	     -0.005	      0.001	
 2018/04/26-14:45	   0.640	   0.640	   0.630	   0.630	            399	      0.642	      0.652	      0.660	      0.664	     -0.005	     -0.005	     -0.001	
 2018/04/26-15:00	   0.630	   0.630	   0.630	   0.630	            699	      0.638	      0.652	      0.660	      0.663	     -0.006	     -0.005	     -0.002	
 2018/04/26-15:15	   0.630	   0.630	   0.630	   0.630	           1999	      0.634	      0.651	      0.659	      0.663	     -0.006	     -0.005	     -0.002	
 2018/04/26-15:30	   0.630	   0.630	   0.630	   0.630	            199	      0.632	      0.650	      0.658	      0.663	     -0.007	     -0.006	     -0.002	
 2018/04/26-15:45	   0.620	   0.620	   0.620	   0.620	           1898	      0.628	      0.648	      0.658	      0.662	     -0.008	     -0.006	     -0.003	
 2018/04/26-16:00	   0.620	   0.620	   0.620	   0.620	           1199	      0.626	      0.647	      0.657	      0.662	     -0.008	     -0.006	     -0.004	
 2018/04/27-09:45	   0.620	   0.630	   0.620	   0.630	           1397	      0.626	      0.646	      0.656	      0.662	     -0.008	     -0.007	     -0.002	
 2018/04/27-10:00	   0.630	   0.630	   0.630	   0.630	             99	      0.626	      0.645	      0.655	      0.662	     -0.008	     -0.007	     -0.001	
 2018/04/27-10:15	   0.630	   0.630	   0.630	   0.630	            899	      0.626	      0.644	      0.655	      0.661	     -0.007	     -0.007	     -0.000	
 2018/04/27-10:30	   0.630	   0.630	   0.630	   0.630	             99	      0.628	      0.643	      0.654	      0.661	     -0.007	     -0.007	      0.000	
 2018/04/27-10:45	   0.630	   0.630	   0.630	   0.630	              0	      0.630	      0.642	      0.653	      0.661	     -0.006	     -0.007	      0.001	
 2018/04/27-11:00	   0.630	   0.630	   0.630	   0.630	              0	      0.630	      0.641	      0.653	      0.661	     -0.006	     -0.007	      0.001	
 2018/04/27-11:15	   0.630	   0.630	   0.630	   0.630	              0	      0.630	      0.640	      0.652	      0.661	     -0.006	     -0.006	      0.002	
 2018/04/27-11:30	   0.630	   0.630	   0.630	   0.630	              0	      0.630	      0.639	      0.651	      0.660	     -0.005	     -0.006	      0.002	
 2018/04/27-11:45	   0.630	   0.630	   0.630	   0.630	              0	      0.630	      0.638	      0.651	      0.660	     -0.005	     -0.006	      0.002	
 2018/04/27-12:00	   0.630	   0.630	   0.630	   0.630	              0	      0.630	      0.637	      0.650	      0.660	     -0.005	     -0.006	      0.002	
 2018/04/27-13:15	   0.630	   0.630	   0.630	   0.630	           1898	      0.630	      0.636	      0.649	      0.660	     -0.004	     -0.005	      0.002	
 2018/04/27-13:30	   0.630	   0.630	   0.630	   0.630	            499	      0.630	      0.636	      0.648	      0.659	     -0.004	     -0.005	      0.002	
 2018/04/27-13:45	   0.630	   0.630	   0.630	   0.630	              0	      0.630	      0.635	      0.648	      0.659	     -0.004	     -0.005	      0.002	
 2018/04/27-14:00	   0.630	   0.630	   0.630	   0.630	            999	      0.630	      0.635	      0.647	      0.659	     -0.004	     -0.005	      0.002	
 2018/04/27-14:15	   0.630	   0.630	   0.620	   0.620	            199	      0.628	      0.635	      0.646	      0.658	     -0.004	     -0.005	      0.001	
 2018/04/27-14:30	   0.620	   0.620	   0.620	   0.620	              0	      0.626	      0.634	      0.645	      0.658	     -0.005	     -0.005	      0.000	
 2018/04/27-14:45	   0.620	   0.620	   0.620	   0.620	              0	      0.624	      0.633	      0.644	      0.657	     -0.005	     -0.005	     -0.000	
 2018/04/27-15:00	   0.620	   0.620	   0.620	   0.620	              0	      0.622	      0.633	      0.643	      0.657	     -0.005	     -0.005	     -0.001	
 2018/04/27-15:15	   0.620	   0.620	   0.620	   0.620	              0	      0.620	      0.632	      0.643	      0.657	     -0.005	     -0.005	     -0.001	
 2018/04/27-15:30	   0.620	   0.620	   0.620	   0.620	            299	      0.620	      0.631	      0.642	      0.656	     -0.005	     -0.005	     -0.000	
 2018/04/27-15:45	   0.620	   0.620	   0.620	   0.620	             99	      0.620	      0.630	      0.641	      0.656	     -0.005	     -0.005	     -0.000	
 2018/04/27-16:00	   0.620	   0.620	   0.620	   0.620	           1899	      0.620	      0.629	      0.641	      0.656	     -0.005	     -0.005	      0.000	
 2018/04/30-13:15	   0.600	   0.600	   0.600	   0.600	              0	      0.616	      0.628	      0.640	      0.655	     -0.006	     -0.005	     -0.002	
 2018/04/30-13:30	   0.600	   0.600	   0.600	   0.600	              0	      0.612	      0.626	      0.639	      0.655	     -0.007	     -0.006	     -0.004	
 2018/04/30-13:45	   0.600	   0.600	   0.600	   0.600	            199	      0.608	      0.625	      0.638	      0.654	     -0.008	     -0.006	     -0.004	
 2018/04/30-14:00	   0.600	   0.600	   0.600	   0.600	              0	      0.604	      0.624	      0.637	      0.654	     -0.009	     -0.007	     -0.004	
 2018/04/30-14:15	   0.600	   0.600	   0.600	   0.600	              0	      0.600	      0.622	      0.636	      0.653	     -0.009	     -0.007	     -0.004	
 2018/04/30-14:30	   0.600	   0.610	   0.600	   0.610	            199	      0.602	      0.622	      0.635	      0.653	     -0.008	     -0.007	     -0.002	
 2018/04/30-14:45	   0.600	   0.600	   0.600	   0.600	           1999	      0.602	      0.621	      0.634	      0.652	     -0.008	     -0.007	     -0.002	
 2018/04/30-15:00	   0.600	   0.600	   0.600	   0.600	              0	      0.602	      0.620	      0.633	      0.652	     -0.008	     -0.008	     -0.002	
 2018/04/30-15:15	   0.600	   0.600	   0.600	   0.600	             99	      0.602	      0.619	      0.631	      0.651	     -0.008	     -0.008	     -0.001	
 2018/04/30-15:30	   0.600	   0.600	   0.600	   0.600	            599	      0.602	      0.618	      0.630	      0.650	     -0.008	     -0.008	     -0.001	
 2018/04/30-15:45	   0.600	   0.600	   0.600	   0.600	           1099	      0.600	      0.618	      0.629	      0.650	     -0.008	     -0.008	     -0.000	
 2018/04/30-16:00	   0.600	   0.610	   0.600	   0.610	            399	      0.602	      0.617	      0.628	      0.649	     -0.007	     -0.008	      0.002	
 2018/05/02-09:45	   0.580	   0.580	   0.580	   0.580	              0	      0.598	      0.616	      0.627	      0.649	     -0.008	     -0.008	     -0.001	
 2018/05/02-10:00	   0.580	   0.580	   0.580	   0.580	              0	      0.594	      0.614	      0.626	      0.648	     -0.010	     -0.008	     -0.003	
 2018/05/02-10:15	   0.580	   0.580	   0.580	   0.580	              0	      0.590	      0.613	      0.624	      0.647	     -0.010	     -0.009	     -0.003	
 2018/05/02-10:30	   0.580	   0.580	   0.580	   0.580	            199	      0.586	      0.611	      0.623	      0.646	     -0.011	     -0.009	     -0.003	
 2018/05/02-10:45	   0.580	   0.580	   0.580	   0.580	            299	      0.580	      0.610	      0.622	      0.646	     -0.011	     -0.009	     -0.003	
 2018/05/02-11:00	   0.580	   0.580	   0.580	   0.580	              0	      0.580	      0.608	      0.621	      0.645	     -0.011	     -0.010	     -0.003	
 2018/05/02-11:15	   0.580	   0.580	   0.580	   0.580	              0	      0.580	      0.607	      0.620	      0.644	     -0.011	     -0.010	     -0.002	
 2018/05/02-11:30	   0.580	   0.580	   0.580	   0.580	             99	      0.580	      0.605	      0.619	      0.643	     -0.011	     -0.010	     -0.001	
 2018/05/02-11:45	   0.580	   0.580	   0.580	   0.580	             99	      0.580	      0.604	      0.618	      0.643	     -0.010	     -0.010	     -0.001	
 2018/05/02-12:00	   0.580	   0.580	   0.580	   0.580	              0	      0.580	      0.602	      0.617	      0.642	     -0.010	     -0.010	      0.000	
 2018/05/02-13:15	   0.580	   0.580	   0.580	   0.580	            399	      0.580	      0.601	      0.616	      0.641	     -0.010	     -0.010	      0.001	
 2018/05/02-13:30	   0.580	   0.580	   0.580	   0.580	              0	      0.580	      0.599	      0.615	      0.640	     -0.009	     -0.010	      0.001	
 2018/05/02-13:45	   0.580	   0.580	   0.580	   0.580	              0	      0.580	      0.598	      0.614	      0.639	     -0.009	     -0.010	      0.002	
 2018/05/02-14:00	   0.580	   0.580	   0.580	   0.580	            499	      0.580	      0.596	      0.613	      0.638	     -0.009	     -0.010	      0.002	
 2018/05/02-14:15	   0.580	   0.580	   0.570	   0.570	             99	      0.578	      0.595	      0.611	      0.638	     -0.009	     -0.009	      0.001	
 2018/05/02-14:30	   0.570	   0.570	   0.540	   0.540	           4498	      0.570	      0.592	      0.610	      0.636	     -0.011	     -0.010	     -0.003	
 2018/05/02-14:45	   0.510	   0.520	   0.490	   0.490	           9397	      0.552	      0.588	      0.607	      0.635	     -0.017	     -0.011	     -0.012	
 2018/05/02-15:00	   0.500	   0.520	   0.480	   0.520	           9797	      0.540	      0.585	      0.605	      0.633	     -0.019	     -0.013	     -0.013	
 2018/05/02-15:15	   0.530	   0.530	   0.520	   0.530	           4297	      0.530	      0.583	      0.603	      0.632	     -0.020	     -0.014	     -0.011	
 2018/05/02-15:30	   0.520	   0.520	   0.495	   0.510	          12697	      0.518	      0.579	      0.601	      0.631	     -0.022	     -0.016	     -0.012	
 2018/05/02-15:45	   0.500	   0.530	   0.500	   0.530	           8497	      0.516	      0.577	      0.599	      0.630	     -0.021	     -0.017	     -0.009	
 2018/05/02-16:00	   0.530	   0.550	   0.530	   0.540	          10597	      0.526	      0.575	      0.598	      0.629	     -0.020	     -0.017	     -0.005	
 2018/05/03-09:45	   0.550	   0.550	   0.550	   0.550	              0	      0.532	      0.573	      0.596	      0.628	     -0.018	     -0.018	     -0.000	
 2018/05/03-10:00	   0.550	   0.550	   0.550	   0.550	            999	      0.536	      0.572	      0.595	      0.627	     -0.016	     -0.017	      0.003	
 2018/05/03-10:15	   0.550	   0.550	   0.550	   0.550	              0	      0.544	      0.570	      0.594	      0.626	     -0.014	     -0.017	      0.005	
 2018/05/03-10:30	   0.550	   0.550	   0.550	   0.550	              0	      0.548	      0.569	      0.593	      0.625	     -0.013	     -0.016	      0.006	
 2018/05/03-10:45	   0.550	   0.550	   0.550	   0.550	              0	      0.550	      0.567	      0.591	      0.624	     -0.012	     -0.015	      0.007	
 2018/05/03-11:00	   0.550	   0.550	   0.550	   0.550	              0	      0.550	      0.565	      0.590	      0.623	     -0.010	     -0.014	      0.007	
 2018/05/03-11:15	   0.550	   0.550	   0.550	   0.550	              0	      0.550	      0.564	      0.589	      0.622	     -0.009	     -0.013	      0.007	
 2018/05/03-11:30	   0.550	   0.550	   0.530	   0.530	           2498	      0.546	      0.562	      0.587	      0.620	     -0.010	     -0.013	      0.005	
 2018/05/03-11:45	   0.530	   0.530	   0.530	   0.530	            499	      0.542	      0.560	      0.585	      0.619	     -0.011	     -0.012	      0.003	
 2018/05/03-12:00	   0.530	   0.530	   0.520	   0.520	            899	      0.536	      0.557	      0.583	      0.618	     -0.012	     -0.012	      0.001	
 2018/05/03-13:15	   0.520	   0.520	   0.500	   0.520	           1997	      0.530	      0.555	      0.582	      0.617	     -0.012	     -0.012	     -0.000	
 2018/05/03-13:30	   0.520	   0.520	   0.520	   0.520	            299	      0.524	      0.553	      0.580	      0.616	     -0.013	     -0.012	     -0.001	
 2018/05/03-13:45	   0.520	   0.520	   0.520	   0.520	              0	      0.522	      0.551	      0.578	      0.614	     -0.013	     -0.012	     -0.001	
 2018/05/03-14:00	   0.520	   0.520	   0.520	   0.520	              0	      0.520	      0.549	      0.576	      0.613	     -0.013	     -0.012	     -0.001	
 2018/05/03-14:15	   0.520	   0.520	   0.520	   0.520	              0	      0.520	      0.547	      0.574	      0.612	     -0.013	     -0.012	     -0.000	
 2018/05/03-14:30	   0.510	   0.510	   0.510	   0.510	           1799	      0.518	      0.545	      0.572	      0.610	     -0.013	     -0.013	     -0.001	
 2018/05/03-14:45	   0.510	   0.510	   0.500	   0.500	           8998	      0.514	      0.543	      0.570	      0.609	     -0.014	     -0.013	     -0.003	
 2018/05/03-15:00	   0.500	   0.500	   0.500	   0.500	            299	      0.510	      0.540	      0.568	      0.607	     -0.015	     -0.013	     -0.003	
 2018/05/03-15:15	   0.510	   0.510	   0.500	   0.510	           2097	      0.508	      0.538	      0.566	      0.606	     -0.014	     -0.014	     -0.002	
 2018/05/03-15:30	   0.510	   0.510	   0.510	   0.510	           2999	      0.506	      0.536	      0.564	      0.604	     -0.014	     -0.014	     -0.001	
 2018/05/03-15:45	   0.510	   0.510	   0.510	   0.510	            199	      0.506	      0.534	      0.562	      0.603	     -0.013	     -0.014	      0.000	
 2018/05/03-16:00	   0.510	   0.510	   0.500	   0.500	           2297	      0.506	      0.532	      0.560	      0.602	     -0.014	     -0.014	     -0.000	
 2018/05/04-09:45	   0.510	   0.530	   0.510	   0.530	           8399	      0.512	      0.530	      0.559	      0.601	     -0.011	     -0.013	      0.004	
 2018/05/04-10:00	   0.540	   0.570	   0.540	   0.560	           6699	      0.522	      0.529	      0.558	      0.600	     -0.007	     -0.012	      0.010	
 2018/05/04-10:15	   0.560	   0.560	   0.550	   0.560	          77499	      0.532	      0.529	      0.557	      0.599	     -0.003	     -0.010	      0.014	
 2018/05/04-10:30	   0.560	   0.560	   0.560	   0.560	          30299	      0.542	      0.528	      0.556	      0.598	     -0.000	     -0.008	      0.015	
 2018/05/04-10:45	   0.560	   0.560	   0.560	   0.560	            299	      0.554	      0.529	      0.555	      0.597	      0.002	     -0.006	      0.016	
 2018/05/04-11:00	   0.560	   0.570	   0.560	   0.570	           2799	      0.562	      0.532	      0.555	      0.597	      0.004	     -0.004	      0.017	
 2018/05/04-11:15	   0.570	   0.740	   0.570	   0.680	          46099	      0.586	      0.536	      0.556	      0.597	      0.015	     -0.000	      0.030	
 2018/05/04-11:30	   0.680	   0.690	   0.610	   0.630	          20199	      0.600	      0.539	      0.557	      0.597	      0.019	      0.004	      0.031	
 2018/05/04-11:45	   0.630	   0.650	   0.630	   0.650	           3299	      0.618	      0.544	      0.557	      0.597	      0.024	      0.008	      0.032	
 2018/05/04-12:00	   0.660	   0.680	   0.660	   0.680	           3599	      0.642	      0.548	      0.559	      0.597	      0.030	      0.012	      0.035	
 2018/05/04-13:15	   0.680	   0.730	   0.670	   0.720	          12299	      0.672	      0.554	      0.561	      0.597	      0.037	      0.017	      0.040	
 2018/05/04-13:30	   0.720	   0.720	   0.670	   0.670	           7299	      0.670	      0.557	      0.562	      0.597	      0.038	      0.021	      0.034	
 2018/05/04-13:45	   0.670	   0.670	   0.670	   0.670	           3699	      0.678	      0.561	      0.563	      0.597	      0.039	      0.025	      0.028	
 2018/05/04-14:00	   0.680	   0.690	   0.680	   0.690	           2899	      0.686	      0.565	      0.564	      0.597	      0.041	      0.028	      0.025	
 2018/05/04-14:15	   0.690	   0.690	   0.680	   0.680	           2599	      0.686	      0.569	      0.566	      0.597	      0.041	      0.031	      0.020	
 2018/05/04-14:30	   0.680	   0.700	   0.680	   0.700	          55199	      0.682	      0.574	      0.567	      0.598	      0.042	      0.033	      0.018	
 2018/05/04-14:45	   0.700	   0.710	   0.690	   0.710	          35599	      0.690	      0.578	      0.569	      0.598	      0.043	      0.035	      0.016	
 2018/05/04-15:00	   0.700	   0.700	   0.660	   0.660	          12799	      0.688	      0.582	      0.571	      0.598	      0.040	      0.036	      0.008	
 2018/05/04-15:15	   0.660	   0.660	   0.630	   0.660	           8899	      0.682	      0.586	      0.572	      0.598	      0.036	      0.036	      0.001	
 2018/05/04-15:30	   0.660	   0.660	   0.650	   0.660	          31799	      0.678	      0.590	      0.573	      0.598	      0.033	      0.035	     -0.004	
 2018/05/04-15:45	   0.660	   0.660	   0.650	   0.660	           2599	      0.670	      0.594	      0.575	      0.598	      0.031	      0.034	     -0.007	
 2018/05/04-16:00	   0.660	   0.670	   0.650	   0.650	           5599	      0.658	      0.598	      0.576	      0.598	      0.028	      0.033	     -0.011	
数据来源:通达信
