                  黎氏企业 (02266)
      时间	    开盘	    最高	    最低	    收盘	         成交量	   MA.MA1   	   MA.MA2   	   MA.MA3   	   MA.MA4   	 MACD.DIF   	 MACD.DEA   	 MACD.MACD  	
 2018/05/07-14:05	   0.660	   0.660	   0.660	   0.660	              0	           	           	           	           	      0.000	      0.000	      0.000	
 2018/05/07-14:10	   0.660	   0.660	   0.660	   0.660	              0	           	           	           	           	      0.000	      0.000	      0.000	
 2018/05/07-14:15	   0.660	   0.660	   0.660	   0.660	              0	           	           	           	           	      0.000	      0.000	      0.000	
 2018/05/07-14:20	   0.660	   0.660	   0.660	   0.660	              0	           	           	           	           	      0.000	      0.000	      0.000	
 2018/05/07-14:25	   0.660	   0.660	   0.660	   0.660	              0	      0.660	           	           	           	      0.000	      0.000	      0.000	
 2018/05/07-14:30	   0.660	   0.660	   0.660	   0.660	              0	      0.660	           	           	           	      0.000	      0.000	      0.000	
 2018/05/07-14:35	   0.660	   0.660	   0.660	   0.660	              0	      0.660	           	           	           	      0.000	      0.000	      0.000	
 2018/05/07-14:40	   0.660	   0.660	   0.660	   0.660	              0	      0.660	           	           	           	      0.000	      0.000	      0.000	
 2018/05/07-14:45	   0.660	   0.660	   0.660	   0.660	              0	      0.660	           	           	           	      0.000	      0.000	      0.000	
 2018/05/07-14:50	   0.660	   0.660	   0.660	   0.660	              0	      0.660	           	           	           	      0.000	      0.000	      0.000	
 2018/05/07-14:55	   0.660	   0.660	   0.660	   0.660	              0	      0.660	           	           	           	      0.000	      0.000	      0.000	
 2018/05/07-15:00	   0.660	   0.660	   0.660	   0.660	              0	      0.660	           	           	           	      0.000	      0.000	      0.000	
 2018/05/07-15:05	   0.660	   0.660	   0.660	   0.660	            199	      0.660	           	           	           	      0.000	      0.000	      0.000	
 2018/05/07-15:10	   0.660	   0.660	   0.660	   0.660	              0	      0.660	           	           	           	      0.000	      0.000	      0.000	
 2018/05/07-15:15	   0.660	   0.660	   0.660	   0.660	              0	      0.660	           	           	           	      0.000	      0.000	      0.000	
 2018/05/07-15:20	   0.660	   0.660	   0.660	   0.660	              0	      0.660	           	           	           	      0.000	      0.000	      0.000	
 2018/05/07-15:25	   0.660	   0.660	   0.660	   0.660	              0	      0.660	           	           	           	      0.000	      0.000	      0.000	
 2018/05/07-15:30	   0.660	   0.660	   0.660	   0.660	              0	      0.660	           	           	           	      0.000	      0.000	      0.000	
 2018/05/07-15:35	   0.660	   0.660	   0.660	   0.660	              0	      0.660	           	           	           	      0.000	      0.000	      0.000	
 2018/05/07-15:40	   0.660	   0.660	   0.660	   0.660	              0	      0.660	           	           	           	      0.000	      0.000	      0.000	
 2018/05/07-15:45	   0.660	   0.660	   0.660	   0.660	              0	      0.660	           	           	           	      0.000	      0.000	      0.000	
 2018/05/07-15:50	   0.660	   0.660	   0.660	   0.660	              0	      0.660	           	           	           	      0.000	      0.000	      0.000	
 2018/05/07-15:55	   0.660	   0.660	   0.660	   0.660	              0	      0.660	           	           	           	      0.000	      0.000	      0.000	
 2018/05/07-16:00	   0.660	   0.660	   0.660	   0.660	              0	      0.660	           	           	           	      0.000	      0.000	      0.000	
 2018/05/08-09:35	   0.640	   0.640	   0.640	   0.640	              0	      0.656	           	           	           	     -0.002	     -0.000	     -0.003	
 2018/05/08-09:40	   0.640	   0.640	   0.640	   0.640	              0	      0.652	           	           	           	     -0.003	     -0.001	     -0.004	
 2018/05/08-09:45	   0.640	   0.640	   0.640	   0.640	              0	      0.648	           	           	           	     -0.004	     -0.001	     -0.005	
 2018/05/08-09:50	   0.640	   0.640	   0.640	   0.640	              0	      0.644	           	           	           	     -0.004	     -0.002	     -0.005	
 2018/05/08-09:55	   0.640	   0.640	   0.640	   0.640	              0	      0.640	           	           	           	     -0.005	     -0.003	     -0.005	
 2018/05/08-10:00	   0.640	   0.640	   0.640	   0.640	              0	      0.640	           	           	           	     -0.005	     -0.003	     -0.004	
 2018/05/08-10:05	   0.640	   0.640	   0.640	   0.640	              0	      0.640	           	           	           	     -0.005	     -0.004	     -0.004	
 2018/05/08-10:10	   0.640	   0.640	   0.640	   0.640	              0	      0.640	           	           	           	     -0.006	     -0.004	     -0.003	
 2018/05/08-10:15	   0.640	   0.640	   0.640	   0.640	              0	      0.640	      0.655	           	           	     -0.006	     -0.004	     -0.003	
 2018/05/08-10:20	   0.640	   0.640	   0.640	   0.640	              0	      0.640	      0.654	           	           	     -0.006	     -0.005	     -0.002	
 2018/05/08-10:25	   0.640	   0.640	   0.640	   0.640	              0	      0.640	      0.653	           	           	     -0.005	     -0.005	     -0.001	
 2018/05/08-10:30	   0.640	   0.640	   0.640	   0.640	              0	      0.640	      0.653	           	           	     -0.005	     -0.005	     -0.001	
 2018/05/08-10:35	   0.640	   0.640	   0.640	   0.640	              0	      0.640	      0.652	           	           	     -0.005	     -0.005	     -0.000	
 2018/05/08-10:40	   0.640	   0.640	   0.640	   0.640	              0	      0.640	      0.652	           	           	     -0.005	     -0.005	     -0.000	
 2018/05/08-10:45	   0.640	   0.640	   0.640	   0.640	            899	      0.640	      0.651	           	           	     -0.005	     -0.005	      0.000	
 2018/05/08-10:50	   0.640	   0.640	   0.640	   0.640	              0	      0.640	      0.650	           	           	     -0.004	     -0.005	      0.001	
 2018/05/08-10:55	   0.640	   0.640	   0.640	   0.640	              0	      0.640	      0.650	           	           	     -0.004	     -0.005	      0.001	
 2018/05/08-11:00	   0.640	   0.640	   0.640	   0.640	              0	      0.640	      0.649	           	           	     -0.004	     -0.005	      0.001	
 2018/05/08-11:05	   0.640	   0.640	   0.640	   0.640	              0	      0.640	      0.648	           	           	     -0.004	     -0.004	      0.001	
 2018/05/08-11:10	   0.640	   0.640	   0.640	   0.640	              0	      0.640	      0.648	           	           	     -0.004	     -0.004	      0.001	
 2018/05/08-11:15	   0.640	   0.640	   0.640	   0.640	              0	      0.640	      0.647	           	           	     -0.003	     -0.004	      0.001	
 2018/05/08-11:20	   0.640	   0.640	   0.640	   0.640	              0	      0.640	      0.647	           	           	     -0.003	     -0.004	      0.001	
 2018/05/08-11:25	   0.640	   0.640	   0.640	   0.640	              0	      0.640	      0.646	           	           	     -0.003	     -0.004	      0.001	
 2018/05/08-11:30	   0.640	   0.640	   0.640	   0.640	              0	      0.640	      0.645	           	           	     -0.003	     -0.004	      0.001	
 2018/05/08-11:35	   0.640	   0.640	   0.640	   0.640	              0	      0.640	      0.645	           	           	     -0.003	     -0.003	      0.001	
 2018/05/08-11:40	   0.640	   0.640	   0.640	   0.640	              0	      0.640	      0.644	           	           	     -0.002	     -0.003	      0.001	
 2018/05/08-11:45	   0.640	   0.640	   0.640	   0.640	              0	      0.640	      0.644	           	           	     -0.002	     -0.003	      0.001	
 2018/05/08-11:50	   0.640	   0.640	   0.640	   0.640	              0	      0.640	      0.643	           	           	     -0.002	     -0.003	      0.001	
 2018/05/08-11:55	   0.640	   0.640	   0.640	   0.640	              0	      0.640	      0.642	           	           	     -0.002	     -0.003	      0.001	
 2018/05/08-12:00	   0.640	   0.640	   0.640	   0.640	              0	      0.640	      0.642	           	           	     -0.002	     -0.002	      0.001	
 2018/05/08-13:05	   0.670	   0.670	   0.670	   0.670	            199	      0.646	      0.642	           	           	      0.001	     -0.002	      0.005	
 2018/05/08-13:10	   0.670	   0.670	   0.670	   0.670	              0	      0.652	      0.642	           	           	      0.003	     -0.001	      0.007	
 2018/05/08-13:15	   0.670	   0.670	   0.670	   0.670	              0	      0.658	      0.643	           	           	      0.004	      0.000	      0.008	
 2018/05/08-13:20	   0.670	   0.670	   0.670	   0.670	              0	      0.664	      0.644	           	           	      0.005	      0.001	      0.008	
 2018/05/08-13:25	   0.670	   0.670	   0.670	   0.670	              0	      0.670	      0.645	           	           	      0.006	      0.002	      0.008	
 2018/05/08-13:30	   0.670	   0.670	   0.670	   0.670	              0	      0.670	      0.645	      0.651	           	      0.007	      0.003	      0.007	
 2018/05/08-13:35	   0.670	   0.670	   0.670	   0.670	              0	      0.670	      0.646	      0.651	           	      0.007	      0.004	      0.006	
 2018/05/08-13:40	   0.690	   0.690	   0.690	   0.690	            899	      0.674	      0.648	      0.652	           	      0.009	      0.005	      0.008	
 2018/05/08-13:45	   0.690	   0.690	   0.690	   0.690	           1099	      0.678	      0.649	      0.652	           	      0.010	      0.006	      0.009	
 2018/05/08-13:50	   0.690	   0.690	   0.690	   0.690	             99	      0.682	      0.651	      0.653	           	      0.011	      0.007	      0.008	
 2018/05/08-13:55	   0.690	   0.690	   0.690	   0.690	              0	      0.686	      0.652	      0.653	           	      0.012	      0.008	      0.008	
 2018/05/08-14:00	   0.690	   0.690	   0.690	   0.690	            959	      0.690	      0.654	      0.654	           	      0.012	      0.009	      0.007	
 2018/05/08-14:05	   0.690	   0.690	   0.690	   0.690	              0	      0.690	      0.655	      0.654	           	      0.012	      0.009	      0.005	
 2018/05/08-14:10	   0.690	   0.690	   0.690	   0.690	              0	      0.690	      0.657	      0.655	           	      0.012	      0.010	      0.004	
 2018/05/08-14:15	   0.690	   0.690	   0.690	   0.690	              0	      0.690	      0.658	      0.655	           	      0.012	      0.010	      0.003	
 2018/05/08-14:20	   0.690	   0.690	   0.690	   0.690	              0	      0.690	      0.660	      0.656	           	      0.012	      0.011	      0.002	
 2018/05/08-14:25	   0.690	   0.690	   0.690	   0.690	              0	      0.690	      0.662	      0.656	           	      0.011	      0.011	      0.001	
 2018/05/08-14:30	   0.690	   0.690	   0.690	   0.690	              0	      0.690	      0.663	      0.657	           	      0.011	      0.011	      0.000	
 2018/05/08-14:35	   0.690	   0.690	   0.690	   0.690	              0	      0.690	      0.665	      0.657	           	      0.010	      0.011	     -0.000	
 2018/05/08-14:40	   0.690	   0.690	   0.690	   0.690	            199	      0.690	      0.666	      0.658	           	      0.010	      0.011	     -0.001	
 2018/05/08-14:45	   0.700	   0.700	   0.700	   0.700	            759	      0.692	      0.668	      0.658	           	      0.010	      0.011	     -0.000	
 2018/05/08-14:50	   0.700	   0.700	   0.700	   0.700	              0	      0.694	      0.670	      0.659	           	      0.010	      0.011	     -0.000	
 2018/05/08-14:55	   0.700	   0.700	   0.700	   0.700	            399	      0.696	      0.672	      0.660	           	      0.010	      0.011	     -0.000	
 2018/05/08-15:00	   0.690	   0.690	   0.690	   0.690	           2299	      0.696	      0.673	      0.660	           	      0.010	      0.010	     -0.002	
 2018/05/08-15:05	   0.690	   0.690	   0.690	   0.690	             99	      0.696	      0.675	      0.661	           	      0.009	      0.010	     -0.003	
 2018/05/08-15:10	   0.690	   0.690	   0.690	   0.690	              0	      0.694	      0.676	      0.661	           	      0.008	      0.010	     -0.003	
 2018/05/08-15:15	   0.690	   0.690	   0.690	   0.690	              0	      0.692	      0.678	      0.662	           	      0.007	      0.009	     -0.004	
 2018/05/08-15:20	   0.690	   0.690	   0.690	   0.690	            299	      0.690	      0.679	      0.662	           	      0.007	      0.009	     -0.004	
 2018/05/08-15:25	   0.710	   0.710	   0.710	   0.710	             39	      0.694	      0.681	      0.663	           	      0.008	      0.008	     -0.002	
 2018/05/08-15:30	   0.700	   0.700	   0.700	   0.700	            199	      0.696	      0.683	      0.664	           	      0.008	      0.008	     -0.001	
 2018/05/08-15:35	   0.700	   0.700	   0.700	   0.700	              0	      0.698	      0.685	      0.665	           	      0.007	      0.008	     -0.001	
 2018/05/08-15:40	   0.700	   0.700	   0.700	   0.700	              0	      0.700	      0.687	      0.666	           	      0.007	      0.008	     -0.001	
 2018/05/08-15:45	   0.700	   0.700	   0.700	   0.700	             99	      0.702	      0.688	      0.667	           	      0.007	      0.008	     -0.001	
 2018/05/08-15:50	   0.700	   0.700	   0.700	   0.700	            199	      0.700	      0.689	      0.668	           	      0.007	      0.008	     -0.002	
 2018/05/08-15:55	   0.700	   0.700	   0.700	   0.700	              0	      0.700	      0.690	      0.669	           	      0.006	      0.007	     -0.002	
 2018/05/08-16:00	   0.700	   0.720	   0.690	   0.690	           1999	      0.698	      0.691	      0.669	           	      0.005	      0.007	     -0.003	
 2018/05/09-09:35	   0.710	   0.710	   0.710	   0.710	              0	      0.700	      0.692	      0.671	           	      0.006	      0.007	     -0.001	
 2018/05/09-09:40	   0.710	   0.710	   0.710	   0.710	              0	      0.702	      0.693	      0.672	           	      0.007	      0.007	     -0.000	
 2018/05/09-09:45	   0.710	   0.710	   0.710	   0.710	              0	      0.704	      0.695	      0.673	           	      0.007	      0.007	      0.000	
 2018/05/09-09:50	   0.710	   0.710	   0.710	   0.710	              0	      0.706	      0.696	      0.674	           	      0.007	      0.007	      0.000	
 2018/05/09-09:55	   0.710	   0.710	   0.710	   0.710	              0	      0.710	      0.696	      0.675	           	      0.007	      0.007	      0.000	
 2018/05/09-10:00	   0.710	   0.710	   0.710	   0.710	              0	      0.710	      0.697	      0.677	           	      0.007	      0.007	      0.000	
 2018/05/09-10:05	   0.710	   0.710	   0.710	   0.710	              0	      0.710	      0.698	      0.678	           	      0.007	      0.007	     -0.000	
 2018/05/09-10:10	   0.710	   0.710	   0.710	   0.710	              0	      0.710	      0.698	      0.679	           	      0.007	      0.007	     -0.000	
 2018/05/09-10:15	   0.710	   0.710	   0.710	   0.710	              0	      0.710	      0.699	      0.680	           	      0.006	      0.007	     -0.001	
 2018/05/09-10:20	   0.710	   0.710	   0.710	   0.710	              0	      0.710	      0.699	      0.681	           	      0.006	      0.007	     -0.001	
 2018/05/09-10:25	   0.710	   0.710	   0.710	   0.710	              0	      0.710	      0.700	      0.682	           	      0.006	      0.006	     -0.001	
 2018/05/09-10:30	   0.710	   0.730	   0.710	   0.730	            819	      0.714	      0.701	      0.684	           	      0.007	      0.007	      0.001	
 2018/05/09-10:35	   0.740	   0.740	   0.740	   0.740	            159	      0.720	      0.703	      0.686	           	      0.009	      0.007	      0.004	
 2018/05/09-10:40	   0.740	   0.740	   0.740	   0.740	            199	      0.726	      0.704	      0.687	           	      0.010	      0.008	      0.005	
 2018/05/09-10:45	   0.760	   0.760	   0.740	   0.740	            119	      0.732	      0.706	      0.689	           	      0.011	      0.008	      0.005	
 2018/05/09-10:50	   0.740	   0.740	   0.740	   0.740	              0	      0.738	      0.707	      0.691	           	      0.012	      0.009	      0.005	
 2018/05/09-10:55	   0.740	   0.740	   0.740	   0.740	              0	      0.740	      0.709	      0.692	           	      0.012	      0.010	      0.005	
 2018/05/09-11:00	   0.740	   0.740	   0.740	   0.740	              0	      0.740	      0.710	      0.694	           	      0.012	      0.010	      0.004	
 2018/05/09-11:05	   0.740	   0.740	   0.740	   0.740	              0	      0.740	      0.711	      0.696	           	      0.012	      0.011	      0.003	
 2018/05/09-11:10	   0.740	   0.740	   0.740	   0.740	              0	      0.740	      0.712	      0.697	           	      0.012	      0.011	      0.002	
 2018/05/09-11:15	   0.730	   0.730	   0.730	   0.730	            499	      0.738	      0.714	      0.699	           	      0.011	      0.011	     -0.000	
 2018/05/09-11:20	   0.750	   0.750	   0.750	   0.750	             39	      0.740	      0.715	      0.701	           	      0.011	      0.011	      0.001	
 2018/05/09-11:25	   0.750	   0.750	   0.750	   0.750	              0	      0.742	      0.717	      0.702	           	      0.012	      0.011	      0.001	
 2018/05/09-11:30	   0.750	   0.750	   0.750	   0.750	              0	      0.744	      0.719	      0.704	           	      0.012	      0.011	      0.001	
 2018/05/09-11:35	   0.750	   0.750	   0.750	   0.750	              0	      0.746	      0.721	      0.706	           	      0.012	      0.011	      0.001	
 2018/05/09-11:40	   0.730	   0.730	   0.730	   0.730	             19	      0.746	      0.722	      0.706	           	      0.010	      0.011	     -0.002	
 2018/05/09-11:45	   0.710	   0.710	   0.710	   0.710	            199	      0.738	      0.722	      0.707	           	      0.007	      0.010	     -0.006	
 2018/05/09-11:50	   0.710	   0.710	   0.700	   0.710	            139	      0.730	      0.722	      0.708	           	      0.005	      0.009	     -0.009	
 2018/05/09-11:55	   0.710	   0.710	   0.710	   0.710	             19	      0.722	      0.722	      0.709	           	      0.003	      0.008	     -0.011	
 2018/05/09-12:00	   0.710	   0.710	   0.710	   0.710	              0	      0.714	      0.723	      0.709	      0.680	      0.001	      0.007	     -0.011	
 2018/05/09-13:05	   0.710	   0.740	   0.710	   0.740	           1119	      0.716	      0.724	      0.710	      0.681	      0.002	      0.006	     -0.007	
 2018/05/09-13:10	   0.750	   0.760	   0.750	   0.760	            999	      0.726	      0.726	      0.711	      0.682	      0.005	      0.005	     -0.002	
 2018/05/09-13:15	   0.760	   0.760	   0.760	   0.760	             99	      0.736	      0.728	      0.713	      0.682	      0.006	      0.006	      0.002	
 2018/05/09-13:20	   0.760	   0.780	   0.760	   0.760	           1059	      0.746	      0.729	      0.714	      0.683	      0.008	      0.006	      0.004	
 2018/05/09-13:25	   0.760	   0.800	   0.760	   0.800	           6999	      0.764	      0.732	      0.716	      0.684	      0.012	      0.007	      0.010	
 2018/05/09-13:30	   0.800	   0.800	   0.790	   0.800	           1879	      0.776	      0.735	      0.718	      0.686	      0.015	      0.009	      0.013	
 2018/05/09-13:35	   0.790	   0.830	   0.790	   0.820	           3379	      0.788	      0.738	      0.720	      0.687	      0.019	      0.011	      0.016	
 2018/05/09-13:40	   0.820	   0.830	   0.810	   0.810	            839	      0.798	      0.741	      0.722	      0.688	      0.021	      0.013	      0.016	
 2018/05/09-13:45	   0.810	   0.810	   0.790	   0.790	            799	      0.804	      0.744	      0.723	      0.689	      0.021	      0.015	      0.013	
 2018/05/09-13:50	   0.800	   0.800	   0.780	   0.800	            379	      0.804	      0.746	      0.725	      0.690	      0.021	      0.016	      0.011	
 2018/05/09-13:55	   0.800	   0.800	   0.800	   0.800	            219	      0.804	      0.749	      0.727	      0.692	      0.021	      0.017	      0.009	
 2018/05/09-14:00	   0.800	   0.800	   0.800	   0.800	             99	      0.800	      0.752	      0.729	      0.693	      0.021	      0.018	      0.007	
 2018/05/09-14:05	   0.800	   0.800	   0.800	   0.800	             99	      0.798	      0.755	      0.731	      0.694	      0.021	      0.018	      0.005	
 2018/05/09-14:10	   0.790	   0.790	   0.790	   0.790	             99	      0.798	      0.757	      0.732	      0.695	      0.019	      0.019	      0.002	
 2018/05/09-14:15	   0.790	   0.790	   0.790	   0.790	            219	      0.796	      0.759	      0.734	      0.696	      0.018	      0.018	     -0.001	
 2018/05/09-14:20	   0.800	   0.820	   0.800	   0.820	           3799	      0.800	      0.761	      0.736	      0.697	      0.019	      0.019	      0.001	
 2018/05/09-14:25	   0.820	   0.820	   0.810	   0.810	            619	      0.802	      0.763	      0.738	      0.699	      0.019	      0.019	      0.001	
 2018/05/09-14:30	   0.810	   0.810	   0.810	   0.810	            719	      0.804	      0.765	      0.740	      0.700	      0.019	      0.019	      0.000	
 2018/05/09-14:35	   0.810	   0.810	   0.810	   0.810	             99	      0.808	      0.768	      0.742	      0.701	      0.018	      0.019	     -0.001	
 2018/05/09-14:40	   0.800	   0.810	   0.800	   0.810	           1739	      0.812	      0.770	      0.744	      0.702	      0.018	      0.019	     -0.001	
 2018/05/09-14:45	   0.810	   0.810	   0.810	   0.810	              0	      0.810	      0.772	      0.746	      0.704	      0.017	      0.018	     -0.002	
 2018/05/09-14:50	   0.800	   0.800	   0.800	   0.800	            299	      0.808	      0.774	      0.748	      0.705	      0.016	      0.018	     -0.004	
 2018/05/09-14:55	   0.800	   0.800	   0.800	   0.800	             99	      0.806	      0.775	      0.749	      0.706	      0.014	      0.017	     -0.005	
 2018/05/09-15:00	   0.800	   0.800	   0.800	   0.800	             39	      0.804	      0.778	      0.751	      0.707	      0.013	      0.016	     -0.006	
 2018/05/09-15:05	   0.800	   0.800	   0.800	   0.800	              0	      0.802	      0.779	      0.752	      0.709	      0.012	      0.015	     -0.007	
 2018/05/09-15:10	   0.800	   0.800	   0.800	   0.800	              0	      0.800	      0.781	      0.754	      0.710	      0.011	      0.015	     -0.007	
 2018/05/09-15:15	   0.810	   0.810	   0.810	   0.810	            399	      0.802	      0.782	      0.756	      0.711	      0.011	      0.014	     -0.006	
 2018/05/09-15:20	   0.800	   0.810	   0.800	   0.810	            979	      0.804	      0.784	      0.758	      0.713	      0.011	      0.013	     -0.005	
 2018/05/09-15:25	   0.820	   0.850	   0.820	   0.840	           5819	      0.812	      0.788	      0.760	      0.714	      0.013	      0.013	     -0.001	
 2018/05/09-15:30	   0.850	   0.860	   0.840	   0.850	           7499	      0.822	      0.792	      0.763	      0.716	      0.015	      0.014	      0.003	
 2018/05/09-15:35	   0.850	   0.860	   0.850	   0.850	           1579	      0.832	      0.796	      0.765	      0.718	      0.017	      0.014	      0.005	
 2018/05/09-15:40	   0.850	   0.850	   0.850	   0.850	            239	      0.840	      0.800	      0.767	      0.720	      0.018	      0.015	      0.006	
 2018/05/09-15:45	   0.850	   0.850	   0.830	   0.840	           1499	      0.846	      0.804	      0.770	      0.721	      0.018	      0.015	      0.004	
 2018/05/09-15:50	   0.830	   0.830	   0.830	   0.830	            199	      0.844	      0.807	      0.771	      0.723	      0.017	      0.016	      0.002	
 2018/05/09-15:55	   0.840	   0.850	   0.840	   0.840	           2179	      0.842	      0.809	      0.774	      0.725	      0.016	      0.016	      0.001	
 2018/05/09-16:00	   0.840	   0.860	   0.830	   0.850	           1499	      0.842	      0.812	      0.776	      0.726	      0.017	      0.016	      0.001	
 2018/05/10-09:35	   0.850	   0.860	   0.840	   0.860	            759	      0.844	      0.815	      0.779	      0.728	      0.018	      0.016	      0.003	
 2018/05/10-09:40	   0.860	   0.860	   0.860	   0.860	            199	      0.848	      0.817	      0.781	      0.730	      0.018	      0.017	      0.003	
 2018/05/10-09:45	   0.860	   0.860	   0.860	   0.860	            299	      0.854	      0.819	      0.784	      0.732	      0.018	      0.017	      0.003	
 2018/05/10-09:50	   0.850	   0.850	   0.850	   0.850	            299	      0.856	      0.820	      0.786	      0.734	      0.018	      0.017	      0.001	
 2018/05/10-09:55	   0.850	   0.850	   0.850	   0.850	             39	      0.856	      0.821	      0.788	      0.735	      0.017	      0.017	     -0.001	
 2018/05/10-10:00	   0.840	   0.840	   0.840	   0.840	             59	      0.852	      0.822	      0.790	      0.737	      0.015	      0.017	     -0.003	
 2018/05/10-10:05	   0.830	   0.830	   0.830	   0.830	            519	      0.846	      0.823	      0.792	      0.738	      0.013	      0.016	     -0.006	
 2018/05/10-10:10	   0.830	   0.830	   0.830	   0.830	             39	      0.840	      0.824	      0.793	      0.740	      0.011	      0.015	     -0.008	
 2018/05/10-10:15	   0.830	   0.830	   0.830	   0.830	              0	      0.836	      0.825	      0.794	      0.742	      0.009	      0.014	     -0.009	
 2018/05/10-10:20	   0.820	   0.820	   0.820	   0.820	            199	      0.830	      0.826	      0.796	      0.743	      0.007	      0.012	     -0.011	
 2018/05/10-10:25	   0.810	   0.820	   0.810	   0.810	           1279	      0.824	      0.826	      0.797	      0.745	      0.004	      0.011	     -0.013	
 2018/05/10-10:30	   0.810	   0.810	   0.810	   0.810	              0	      0.820	      0.827	      0.798	      0.746	      0.002	      0.009	     -0.014	
 2018/05/10-10:35	   0.810	   0.810	   0.810	   0.810	            199	      0.816	      0.827	      0.799	      0.747	      0.001	      0.007	     -0.013	
 2018/05/10-10:40	   0.810	   0.810	   0.810	   0.810	             39	      0.812	      0.827	      0.800	      0.749	     -0.001	      0.006	     -0.013	
 2018/05/10-10:45	   0.810	   0.810	   0.810	   0.810	              0	      0.810	      0.827	      0.802	      0.750	     -0.002	      0.004	     -0.012	
 2018/05/10-10:50	   0.810	   0.810	   0.800	   0.800	             99	      0.808	      0.826	      0.803	      0.752	     -0.003	      0.003	     -0.012	
 2018/05/10-10:55	   0.800	   0.800	   0.800	   0.800	            359	      0.806	      0.826	      0.803	      0.753	     -0.004	      0.001	     -0.012	
 2018/05/10-11:00	   0.800	   0.800	   0.800	   0.800	              0	      0.804	      0.826	      0.804	      0.754	     -0.005	      0.000	     -0.011	
 2018/05/10-11:05	   0.800	   0.800	   0.800	   0.800	              0	      0.802	      0.826	      0.805	      0.755	     -0.006	     -0.001	     -0.010	
 2018/05/10-11:10	   0.800	   0.800	   0.800	   0.800	              0	      0.800	      0.826	      0.806	      0.756	     -0.006	     -0.002	     -0.008	
 2018/05/10-11:15	   0.800	   0.800	   0.800	   0.800	              0	      0.800	      0.826	      0.808	      0.757	     -0.007	     -0.003	     -0.007	
 2018/05/10-11:20	   0.800	   0.800	   0.800	   0.800	            159	      0.800	      0.826	      0.809	      0.759	     -0.007	     -0.004	     -0.006	
 2018/05/10-11:25	   0.800	   0.800	   0.800	   0.800	              0	      0.800	      0.826	      0.811	      0.760	     -0.007	     -0.004	     -0.005	
 2018/05/10-11:30	   0.800	   0.800	   0.800	   0.800	              0	      0.800	      0.825	      0.812	      0.761	     -0.007	     -0.005	     -0.004	
 2018/05/10-11:35	   0.800	   0.800	   0.800	   0.800	              0	      0.800	      0.825	      0.813	      0.762	     -0.007	     -0.005	     -0.003	
 2018/05/10-11:40	   0.800	   0.800	   0.800	   0.800	              0	      0.800	      0.824	      0.814	      0.763	     -0.006	     -0.005	     -0.002	
 2018/05/10-11:45	   0.800	   0.800	   0.800	   0.800	              0	      0.800	      0.822	      0.815	      0.764	     -0.006	     -0.006	     -0.001	
 2018/05/10-11:50	   0.800	   0.800	   0.800	   0.800	              0	      0.800	      0.821	      0.815	      0.765	     -0.006	     -0.006	     -0.001	
 2018/05/10-11:55	   0.800	   0.800	   0.800	   0.800	              0	      0.800	      0.819	      0.815	      0.766	     -0.006	     -0.006	     -0.000	
 2018/05/10-12:00	   0.800	   0.800	   0.800	   0.800	              0	      0.800	      0.818	      0.815	      0.766	     -0.005	     -0.006	      0.000	
 2018/05/10-13:05	   0.800	   0.800	   0.800	   0.800	              0	      0.800	      0.817	      0.815	      0.767	     -0.005	     -0.006	      0.001	
 2018/05/10-13:10	   0.800	   0.800	   0.800	   0.800	            359	      0.800	      0.816	      0.815	      0.768	     -0.005	     -0.005	      0.001	
 2018/05/10-13:15	   0.800	   0.800	   0.800	   0.800	              0	      0.800	      0.815	      0.815	      0.769	     -0.005	     -0.005	      0.001	
 2018/05/10-13:20	   0.800	   0.800	   0.800	   0.800	              0	      0.800	      0.813	      0.815	      0.770	     -0.004	     -0.005	      0.001	
 2018/05/10-13:25	   0.800	   0.800	   0.800	   0.800	              0	      0.800	      0.811	      0.815	      0.771	     -0.004	     -0.005	      0.002	
 2018/05/10-13:30	   0.800	   0.800	   0.800	   0.800	              0	      0.800	      0.809	      0.815	      0.772	     -0.004	     -0.005	      0.002	
 2018/05/10-13:35	   0.800	   0.800	   0.800	   0.800	              0	      0.800	      0.808	      0.815	      0.773	     -0.004	     -0.005	      0.002	
 2018/05/10-13:40	   0.800	   0.800	   0.800	   0.800	              0	      0.800	      0.806	      0.815	      0.774	     -0.003	     -0.004	      0.002	
 2018/05/10-13:45	   0.820	   0.830	   0.820	   0.830	            519	      0.806	      0.806	      0.816	      0.775	     -0.001	     -0.004	      0.006	
 2018/05/10-13:50	   0.820	   0.820	   0.820	   0.820	            199	      0.810	      0.805	      0.816	      0.776	      0.000	     -0.003	      0.006	
 2018/05/10-13:55	   0.820	   0.820	   0.820	   0.820	              0	      0.814	      0.805	      0.816	      0.777	      0.001	     -0.002	      0.007	
 2018/05/10-14:00	   0.820	   0.820	   0.820	   0.820	              0	      0.818	      0.805	      0.816	      0.778	      0.002	     -0.001	      0.007	
 2018/05/10-14:05	   0.820	   0.820	   0.820	   0.820	              0	      0.822	      0.805	      0.816	      0.779	      0.003	     -0.000	      0.006	
 2018/05/10-14:10	   0.820	   0.820	   0.820	   0.820	              0	      0.820	      0.805	      0.817	      0.780	      0.003	      0.000	      0.006	
 2018/05/10-14:15	   0.820	   0.820	   0.820	   0.820	              0	      0.820	      0.805	      0.817	      0.781	      0.003	      0.001	      0.005	
 2018/05/10-14:20	   0.820	   0.820	   0.820	   0.820	              0	      0.820	      0.806	      0.817	      0.782	      0.004	      0.001	      0.004	
 2018/05/10-14:25	   0.820	   0.820	   0.820	   0.820	              0	      0.820	      0.806	      0.817	      0.783	      0.004	      0.002	      0.004	
 2018/05/10-14:30	   0.820	   0.820	   0.820	   0.820	              0	      0.820	      0.806	      0.818	      0.784	      0.004	      0.002	      0.003	
 2018/05/10-14:35	   0.820	   0.820	   0.820	   0.820	              0	      0.820	      0.807	      0.818	      0.785	      0.004	      0.003	      0.002	
 2018/05/10-14:40	   0.820	   0.820	   0.820	   0.820	              0	      0.820	      0.808	      0.818	      0.786	      0.004	      0.003	      0.002	
 2018/05/10-14:45	   0.820	   0.820	   0.820	   0.820	              0	      0.820	      0.808	      0.818	      0.787	      0.004	      0.003	      0.001	
 2018/05/10-14:50	   0.820	   0.820	   0.820	   0.820	              0	      0.820	      0.809	      0.819	      0.788	      0.003	      0.003	      0.001	
 2018/05/10-14:55	   0.820	   0.820	   0.820	   0.820	              0	      0.820	      0.809	      0.818	      0.789	      0.003	      0.003	      0.000	
 2018/05/10-15:00	   0.820	   0.820	   0.820	   0.820	              0	      0.820	      0.810	      0.818	      0.790	      0.003	      0.003	      0.000	
 2018/05/10-15:05	   0.820	   0.820	   0.820	   0.820	              0	      0.820	      0.811	      0.817	      0.791	      0.003	      0.003	     -0.000	
 2018/05/10-15:10	   0.820	   0.820	   0.820	   0.820	             99	      0.820	      0.811	      0.817	      0.792	      0.003	      0.003	     -0.000	
 2018/05/10-15:15	   0.820	   0.820	   0.820	   0.820	            199	      0.820	      0.812	      0.817	      0.793	      0.003	      0.003	     -0.000	
 2018/05/10-15:20	   0.820	   0.820	   0.820	   0.820	              0	      0.820	      0.812	      0.816	      0.794	      0.003	      0.003	     -0.001	
 2018/05/10-15:25	   0.820	   0.820	   0.820	   0.820	              0	      0.820	      0.813	      0.816	      0.795	      0.003	      0.003	     -0.001	
 2018/05/10-15:30	   0.820	   0.820	   0.820	   0.820	              0	      0.820	      0.814	      0.816	      0.796	      0.002	      0.003	     -0.001	
 2018/05/10-15:35	   0.820	   0.820	   0.820	   0.820	              0	      0.820	      0.814	      0.815	      0.797	      0.002	      0.003	     -0.001	
 2018/05/10-15:40	   0.820	   0.820	   0.820	   0.820	             99	      0.820	      0.815	      0.814	      0.798	      0.002	      0.003	     -0.001	
 2018/05/10-15:45	   0.820	   0.820	   0.820	   0.820	              0	      0.820	      0.815	      0.813	      0.799	      0.002	      0.002	     -0.001	
 2018/05/10-15:50	   0.820	   0.820	   0.820	   0.820	              0	      0.820	      0.816	      0.813	      0.799	      0.002	      0.002	     -0.001	
 2018/05/10-15:55	   0.820	   0.820	   0.820	   0.820	              0	      0.820	      0.817	      0.813	      0.800	      0.002	      0.002	     -0.001	
 2018/05/10-16:00	   0.810	   0.810	   0.810	   0.810	            199	      0.818	      0.817	      0.812	      0.801	      0.001	      0.002	     -0.002	
 2018/05/11-09:35	   0.800	   0.800	   0.800	   0.800	              0	      0.814	      0.817	      0.812	      0.802	     -0.001	      0.001	     -0.004	
 2018/05/11-09:40	   0.800	   0.800	   0.800	   0.800	              0	      0.810	      0.817	      0.811	      0.802	     -0.002	      0.001	     -0.005	
 2018/05/11-09:45	   0.800	   0.800	   0.800	   0.800	              0	      0.806	      0.817	      0.811	      0.803	     -0.003	      0.000	     -0.006	
 2018/05/11-09:50	   0.800	   0.800	   0.800	   0.800	              0	      0.802	      0.817	      0.810	      0.803	     -0.003	     -0.001	     -0.006	
 2018/05/11-09:55	   0.800	   0.800	   0.800	   0.800	              0	      0.800	      0.817	      0.810	      0.803	     -0.004	     -0.001	     -0.005	
 2018/05/11-10:00	   0.800	   0.800	   0.800	   0.800	              0	      0.800	      0.816	      0.810	      0.804	     -0.004	     -0.002	     -0.005	
 2018/05/11-10:05	   0.800	   0.800	   0.800	   0.800	              0	      0.800	      0.815	      0.810	      0.804	     -0.005	     -0.002	     -0.004	
 2018/05/11-10:10	   0.800	   0.800	   0.800	   0.800	              0	      0.800	      0.815	      0.809	      0.805	     -0.005	     -0.003	     -0.004	
 2018/05/11-10:15	   0.800	   0.800	   0.800	   0.800	              0	      0.800	      0.814	      0.809	      0.806	     -0.005	     -0.003	     -0.003	
 2018/05/11-10:20	   0.800	   0.800	   0.800	   0.800	              0	      0.800	      0.814	      0.809	      0.806	     -0.005	     -0.004	     -0.002	
 2018/05/11-10:25	   0.800	   0.800	   0.800	   0.800	              0	      0.800	      0.813	      0.809	      0.806	     -0.005	     -0.004	     -0.002	
 2018/05/11-10:30	   0.800	   0.800	   0.800	   0.800	              0	      0.800	      0.812	      0.809	      0.807	     -0.004	     -0.004	     -0.001	
 2018/05/11-10:35	   0.800	   0.800	   0.800	   0.800	              0	      0.800	      0.812	      0.809	      0.807	     -0.004	     -0.004	     -0.001	
 2018/05/11-10:40	   0.800	   0.800	   0.800	   0.800	              0	      0.800	      0.811	      0.809	      0.808	     -0.004	     -0.004	     -0.000	
 2018/05/11-10:45	   0.800	   0.800	   0.800	   0.800	              0	      0.800	      0.811	      0.809	      0.809	     -0.004	     -0.004	      0.000	
 2018/05/11-10:50	   0.800	   0.800	   0.800	   0.800	              0	      0.800	      0.810	      0.809	      0.809	     -0.004	     -0.004	      0.000	
 2018/05/11-10:55	   0.800	   0.800	   0.800	   0.800	             39	      0.800	      0.809	      0.809	      0.810	     -0.004	     -0.004	      0.001	
 2018/05/11-11:00	   0.800	   0.800	   0.800	   0.800	             79	      0.800	      0.809	      0.809	      0.811	     -0.003	     -0.004	      0.001	
 2018/05/11-11:05	   0.800	   0.800	   0.800	   0.800	            479	      0.800	      0.808	      0.809	      0.811	     -0.003	     -0.004	      0.001	
 2018/05/11-11:10	   0.800	   0.800	   0.800	   0.800	              0	      0.800	      0.808	      0.809	      0.812	     -0.003	     -0.004	      0.001	
 2018/05/11-11:15	   0.800	   0.800	   0.800	   0.800	              0	      0.800	      0.807	      0.809	      0.812	     -0.003	     -0.003	      0.001	
 2018/05/11-11:20	   0.780	   0.780	   0.780	   0.780	            259	      0.796	      0.806	      0.809	      0.812	     -0.004	     -0.004	     -0.001	
 2018/05/11-11:25	   0.780	   0.780	   0.780	   0.780	              0	      0.792	      0.805	      0.809	      0.812	     -0.005	     -0.004	     -0.003	
 2018/05/11-11:30	   0.780	   0.780	   0.780	   0.780	            799	      0.788	      0.803	      0.808	      0.812	     -0.006	     -0.004	     -0.004	
 2018/05/11-11:35	   0.780	   0.780	   0.780	   0.780	              0	      0.784	      0.802	      0.808	      0.812	     -0.007	     -0.005	     -0.004	
 2018/05/11-11:40	   0.780	   0.780	   0.780	   0.780	             19	      0.780	      0.801	      0.808	      0.811	     -0.007	     -0.005	     -0.003	
 2018/05/11-11:45	   0.780	   0.780	   0.780	   0.780	              0	      0.780	      0.800	      0.807	      0.811	     -0.007	     -0.006	     -0.003	
 2018/05/11-11:50	   0.790	   0.790	   0.790	   0.790	             39	      0.782	      0.799	      0.807	      0.811	     -0.007	     -0.006	     -0.001	
 2018/05/11-11:55	   0.790	   0.790	   0.790	   0.790	            159	      0.784	      0.798	      0.807	      0.811	     -0.006	     -0.006	      0.000	
 2018/05/11-12:00	   0.790	   0.790	   0.790	   0.790	              0	      0.786	      0.797	      0.807	      0.811	     -0.005	     -0.006	      0.001	
 2018/05/11-13:05	   0.780	   0.780	   0.780	   0.780	             99	      0.786	      0.796	      0.807	      0.811	     -0.006	     -0.006	      0.000	
 2018/05/11-13:10	   0.780	   0.780	   0.780	   0.780	             19	      0.786	      0.795	      0.806	      0.811	     -0.006	     -0.006	     -0.000	
 2018/05/11-13:15	   0.780	   0.780	   0.770	   0.770	            519	      0.782	      0.793	      0.805	      0.811	     -0.007	     -0.006	     -0.001	
 2018/05/11-13:20	   0.770	   0.770	   0.770	   0.770	              0	      0.778	      0.792	      0.804	      0.810	     -0.007	     -0.006	     -0.002	
 2018/05/11-13:25	   0.770	   0.770	   0.770	   0.770	            359	      0.774	      0.792	      0.803	      0.810	     -0.008	     -0.006	     -0.002	
 2018/05/11-13:30	   0.770	   0.770	   0.770	   0.770	           1659	      0.772	      0.791	      0.803	      0.809	     -0.008	     -0.007	     -0.002	
 2018/05/11-13:35	   0.770	   0.770	   0.770	   0.770	              0	      0.770	      0.790	      0.802	      0.809	     -0.008	     -0.007	     -0.002	
 2018/05/11-13:40	   0.770	   0.770	   0.770	   0.770	              0	      0.770	      0.789	      0.801	      0.809	     -0.008	     -0.007	     -0.001	
 2018/05/11-13:45	   0.770	   0.770	   0.770	   0.770	              0	      0.770	      0.788	      0.800	      0.808	     -0.008	     -0.007	     -0.001	
 2018/05/11-13:50	   0.770	   0.770	   0.770	   0.770	              0	      0.770	      0.787	      0.799	      0.808	     -0.008	     -0.007	     -0.001	
 2018/05/11-13:55	   0.770	   0.770	   0.770	   0.770	              0	      0.770	      0.786	      0.799	      0.808	     -0.007	     -0.007	     -0.000	
 2018/05/11-14:00	   0.770	   0.770	   0.770	   0.770	            279	      0.770	      0.785	      0.798	      0.808	     -0.007	     -0.007	      0.000	
 2018/05/11-14:05	   0.780	   0.780	   0.780	   0.780	            179	      0.772	      0.785	      0.797	      0.808	     -0.006	     -0.007	      0.002	
 2018/05/11-14:10	   0.780	   0.780	   0.780	   0.780	              0	      0.774	      0.784	      0.796	      0.807	     -0.005	     -0.007	      0.003	
 2018/05/11-14:15	   0.780	   0.780	   0.780	   0.780	              0	      0.776	      0.783	      0.796	      0.807	     -0.004	     -0.006	      0.004	
 2018/05/11-14:20	   0.780	   0.780	   0.780	   0.780	              0	      0.778	      0.783	      0.795	      0.807	     -0.004	     -0.006	      0.004	
 2018/05/11-14:25	   0.780	   0.780	   0.780	   0.780	              0	      0.780	      0.782	      0.794	      0.806	     -0.003	     -0.005	      0.004	
 2018/05/11-14:30	   0.780	   0.780	   0.780	   0.780	              0	      0.780	      0.782	      0.794	      0.806	     -0.003	     -0.005	      0.004	
 2018/05/11-14:35	   0.780	   0.780	   0.780	   0.780	              0	      0.780	      0.781	      0.793	      0.805	     -0.002	     -0.004	      0.004	
 2018/05/11-14:40	   0.780	   0.780	   0.780	   0.780	              0	      0.780	      0.780	      0.792	      0.805	     -0.002	     -0.004	      0.004	
 2018/05/11-14:45	   0.780	   0.780	   0.780	   0.780	            199	      0.780	      0.780	      0.792	      0.804	     -0.002	     -0.003	      0.003	
 2018/05/11-14:50	   0.780	   0.780	   0.780	   0.780	              0	      0.780	      0.779	      0.791	      0.804	     -0.001	     -0.003	      0.003	
 2018/05/11-14:55	   0.780	   0.780	   0.780	   0.780	              0	      0.780	      0.778	      0.790	      0.803	     -0.001	     -0.003	      0.003	
 2018/05/11-15:00	   0.780	   0.780	   0.780	   0.780	              0	      0.780	      0.778	      0.790	      0.803	     -0.001	     -0.002	      0.003	
 2018/05/11-15:05	   0.780	   0.780	   0.780	   0.780	              0	      0.780	      0.778	      0.789	      0.802	     -0.001	     -0.002	      0.002	
 2018/05/11-15:10	   0.780	   0.780	   0.780	   0.780	              0	      0.780	      0.778	      0.788	      0.801	     -0.001	     -0.002	      0.002	
 2018/05/11-15:15	   0.780	   0.780	   0.780	   0.780	              0	      0.780	      0.778	      0.788	      0.801	     -0.001	     -0.001	      0.002	
 2018/05/11-15:20	   0.780	   0.780	   0.780	   0.780	              0	      0.780	      0.778	      0.787	      0.800	     -0.001	     -0.001	      0.002	
 2018/05/11-15:25	   0.780	   0.780	   0.780	   0.780	              0	      0.780	      0.778	      0.786	      0.799	     -0.000	     -0.001	      0.001	
 2018/05/11-15:30	   0.780	   0.780	   0.780	   0.780	              0	      0.780	      0.778	      0.786	      0.799	     -0.000	     -0.001	      0.001	
 2018/05/11-15:35	   0.780	   0.780	   0.780	   0.780	              0	      0.780	      0.778	      0.785	      0.799	     -0.000	     -0.001	      0.001	
 2018/05/11-15:40	   0.780	   0.780	   0.780	   0.780	              0	      0.780	      0.777	      0.785	      0.798	     -0.000	     -0.001	      0.001	
 2018/05/11-15:45	   0.770	   0.780	   0.760	   0.760	           1139	      0.776	      0.776	      0.785	      0.798	     -0.002	     -0.001	     -0.002	
 2018/05/11-15:50	   0.760	   0.760	   0.760	   0.760	              0	      0.772	      0.776	      0.784	      0.797	     -0.003	     -0.001	     -0.003	
 2018/05/11-15:55	   0.760	   0.760	   0.760	   0.760	             39	      0.768	      0.775	      0.783	      0.797	     -0.004	     -0.002	     -0.004	
 2018/05/11-16:00	   0.760	   0.760	   0.760	   0.760	              0	      0.764	      0.775	      0.782	      0.796	     -0.005	     -0.002	     -0.004	
 2018/05/14-09:35	   0.800	   0.840	   0.800	   0.840	           2999	      0.776	      0.777	      0.783	      0.796	      0.001	     -0.002	      0.006	
 2018/05/14-09:40	   0.830	   0.830	   0.820	   0.830	            619	      0.790	      0.779	      0.784	      0.797	      0.005	     -0.000	      0.011	
 2018/05/14-09:45	   0.850	   0.850	   0.850	   0.850	            339	      0.808	      0.781	      0.785	      0.797	      0.010	      0.002	      0.016	
 2018/05/14-09:50	   0.850	   0.980	   0.850	   0.920	          13039	      0.840	      0.786	      0.786	      0.798	      0.019	      0.005	      0.027	
 2018/05/14-09:55	   0.920	   0.920	   0.880	   0.880	           5059	      0.864	      0.789	      0.788	      0.799	      0.022	      0.009	      0.028	
 2018/05/14-10:00	   0.880	   0.890	   0.880	   0.890	           1879	      0.874	      0.793	      0.789	      0.799	      0.026	      0.012	      0.028	
 2018/05/14-10:05	   0.900	   0.950	   0.900	   0.920	           5019	      0.892	      0.797	      0.791	      0.800	      0.031	      0.016	      0.030	
 2018/05/14-10:10	   0.920	   0.920	   0.880	   0.880	           5679	      0.898	      0.801	      0.793	      0.801	      0.031	      0.019	      0.024	
 2018/05/14-10:15	   0.880	   0.910	   0.860	   0.910	           6859	      0.896	      0.805	      0.794	      0.802	      0.033	      0.022	      0.023	
 2018/05/14-10:20	   0.910	   0.910	   0.900	   0.900	           1059	      0.900	      0.808	      0.796	      0.803	      0.034	      0.024	      0.019	
 2018/05/14-10:25	   0.900	   0.900	   0.900	   0.900	            359	      0.902	      0.812	      0.798	      0.804	      0.034	      0.026	      0.015	
 2018/05/14-10:30	   0.910	   0.910	   0.910	   0.910	            339	      0.900	      0.816	      0.800	      0.804	      0.034	      0.027	      0.013	
 2018/05/14-10:35	   0.910	   0.930	   0.910	   0.930	           3139	      0.910	      0.821	      0.802	      0.806	      0.036	      0.029	      0.013	
 2018/05/14-10:40	   0.930	   0.930	   0.920	   0.920	           1199	      0.912	      0.825	      0.804	      0.807	      0.036	      0.030	      0.010	
 2018/05/14-10:45	   0.920	   0.930	   0.920	   0.920	            879	      0.916	      0.829	      0.806	      0.808	      0.035	      0.031	      0.008	
 2018/05/14-10:50	   0.920	   0.920	   0.890	   0.900	           1739	      0.916	      0.833	      0.808	      0.808	      0.033	      0.032	      0.002	
 2018/05/14-10:55	   0.900	   0.900	   0.900	   0.900	             79	      0.914	      0.836	      0.810	      0.809	      0.031	      0.031	     -0.002	
 2018/05/14-11:00	   0.900	   0.900	   0.900	   0.900	            259	      0.908	      0.840	      0.812	      0.810	      0.029	      0.031	     -0.005	
 2018/05/14-11:05	   0.910	   0.930	   0.900	   0.900	           1059	      0.904	      0.844	      0.814	      0.811	      0.027	      0.030	     -0.007	
 2018/05/14-11:10	   0.900	   0.900	   0.900	   0.900	              0	      0.900	      0.847	      0.816	      0.812	      0.025	      0.029	     -0.008	
 2018/05/14-11:15	   0.900	   0.900	   0.900	   0.900	            179	      0.900	      0.851	      0.818	      0.813	      0.023	      0.028	     -0.009	
 2018/05/14-11:20	   0.910	   0.910	   0.910	   0.910	            399	      0.902	      0.855	      0.820	      0.813	      0.022	      0.027	     -0.009	
 2018/05/14-11:25	   0.900	   0.900	   0.890	   0.890	           1359	      0.900	      0.858	      0.822	      0.814	      0.020	      0.025	     -0.011	
 2018/05/14-11:30	   0.890	   0.890	   0.890	   0.890	            159	      0.898	      0.862	      0.823	      0.815	      0.018	      0.024	     -0.012	
 2018/05/14-11:35	   0.890	   0.890	   0.890	   0.890	              0	      0.896	      0.865	      0.825	      0.816	      0.016	      0.022	     -0.013	
 2018/05/14-11:40	   0.890	   0.890	   0.890	   0.890	              0	      0.894	      0.868	      0.827	      0.817	      0.014	      0.021	     -0.013	
 2018/05/14-11:45	   0.890	   0.890	   0.880	   0.880	           2059	      0.888	      0.871	      0.829	      0.817	      0.012	      0.019	     -0.014	
 2018/05/14-11:50	   0.890	   0.890	   0.890	   0.890	             79	      0.888	      0.875	      0.831	      0.817	      0.011	      0.017	     -0.013	
 2018/05/14-11:55	   0.890	   0.890	   0.890	   0.890	              0	      0.888	      0.878	      0.833	      0.818	      0.010	      0.016	     -0.012	
 2018/05/14-12:00	   0.890	   0.890	   0.890	   0.890	              0	      0.888	      0.882	      0.835	      0.819	      0.009	      0.014	     -0.011	
 2018/05/14-13:05	   0.890	   0.890	   0.890	   0.890	             39	      0.888	      0.886	      0.837	      0.819	      0.008	      0.013	     -0.010	
 2018/05/14-13:10	   0.890	   0.890	   0.890	   0.890	            199	      0.890	      0.890	      0.839	      0.820	      0.007	      0.012	     -0.009	
 2018/05/14-13:15	   0.890	   0.890	   0.890	   0.890	            739	      0.890	      0.894	      0.841	      0.820	      0.007	      0.011	     -0.008	
 2018/05/14-13:20	   0.890	   0.890	   0.890	   0.890	              0	      0.890	      0.895	      0.843	      0.821	      0.006	      0.010	     -0.008	
 2018/05/14-13:25	   0.890	   0.890	   0.890	   0.890	            299	      0.890	      0.897	      0.845	      0.822	      0.006	      0.009	     -0.007	
 2018/05/14-13:30	   0.890	   0.890	   0.890	   0.890	            419	      0.890	      0.898	      0.847	      0.822	      0.005	      0.008	     -0.006	
 2018/05/14-13:35	   0.890	   0.890	   0.890	   0.890	             99	      0.890	      0.897	      0.849	      0.823	      0.005	      0.008	     -0.006	
 2018/05/14-13:40	   0.890	   0.890	   0.890	   0.890	            579	      0.890	      0.898	      0.850	      0.823	      0.004	      0.007	     -0.005	
 2018/05/14-13:45	   0.890	   0.890	   0.890	   0.890	              0	      0.890	      0.898	      0.852	      0.824	      0.004	      0.006	     -0.005	
 2018/05/14-13:50	   0.900	   0.900	   0.900	   0.900	             59	      0.892	      0.897	      0.854	      0.825	      0.004	      0.006	     -0.003	
 2018/05/14-13:55	   0.900	   0.940	   0.900	   0.930	           7839	      0.900	      0.898	      0.857	      0.826	      0.007	      0.006	      0.002	
 2018/05/14-14:00	   0.930	   0.960	   0.920	   0.960	           9319	      0.914	      0.900	      0.860	      0.827	      0.012	      0.007	      0.009	
 2018/05/14-14:05	   0.960	   0.970	   0.940	   0.950	           1119	      0.926	      0.902	      0.863	      0.828	      0.014	      0.009	      0.011	
 2018/05/14-14:10	   0.950	   0.950	   0.940	   0.940	            659	      0.936	      0.903	      0.865	      0.829	      0.015	      0.010	      0.010	
 2018/05/14-14:15	   0.950	   0.960	   0.950	   0.950	           2279	      0.946	      0.904	      0.868	      0.830	      0.017	      0.011	      0.011	
 2018/05/14-14:20	   0.950	   0.950	   0.950	   0.950	            499	      0.950	      0.905	      0.871	      0.831	      0.018	      0.013	      0.010	
 2018/05/14-14:25	   0.960	   0.960	   0.950	   0.950	           3219	      0.948	      0.905	      0.874	      0.832	      0.018	      0.014	      0.009	
 2018/05/14-14:30	   0.940	   0.940	   0.940	   0.940	            279	      0.946	      0.906	      0.876	      0.833	      0.017	      0.014	      0.006	
 2018/05/14-14:35	   0.950	   0.990	   0.940	   0.990	          12479	      0.956	      0.909	      0.880	      0.834	      0.021	      0.016	      0.010	
 2018/05/14-14:40	   0.990	   1.040	   0.980	   1.020	          19819	      0.970	      0.912	      0.884	      0.836	      0.026	      0.018	      0.016	
 2018/05/14-14:45	   1.020	   1.060	   1.010	   1.060	           7079	      0.992	      0.917	      0.888	      0.838	      0.032	      0.021	      0.023	
 2018/05/14-14:50	   1.060	   1.070	   1.030	   1.060	           6919	      1.014	      0.922	      0.893	      0.840	      0.037	      0.024	      0.026	
 2018/05/14-14:55	   1.060	   1.060	   1.010	   1.040	           4879	      1.034	      0.926	      0.897	      0.842	      0.039	      0.027	      0.024	
 2018/05/14-15:00	   1.030	   1.050	   1.000	   1.040	           7719	      1.044	      0.931	      0.902	      0.844	      0.040	      0.029	      0.021	
 2018/05/14-15:05	   1.040	   1.040	   1.000	   1.000	           2079	      1.040	      0.933	      0.905	      0.845	      0.037	      0.031	      0.012	
 2018/05/14-15:10	   1.020	   1.060	   1.020	   1.050	           8499	      1.038	      0.938	      0.910	      0.848	      0.038	      0.032	      0.012	
 2018/05/14-15:15	   1.050	   1.050	   1.030	   1.040	           2299	      1.034	      0.943	      0.915	      0.850	      0.038	      0.033	      0.009	
 2018/05/14-15:20	   1.030	   1.030	   1.010	   1.030	           2759	      1.032	      0.947	      0.919	      0.851	      0.037	      0.034	      0.005	
 2018/05/14-15:25	   1.020	   1.020	   0.980	   1.000	           7919	      1.024	      0.950	      0.923	      0.853	      0.033	      0.034	     -0.002	
 2018/05/14-15:30	   1.010	   1.050	   1.000	   1.050	           7259	      1.034	      0.955	      0.928	      0.855	      0.033	      0.034	     -0.001	
 2018/05/14-15:35	   1.050	   1.080	   1.040	   1.070	           8579	      1.038	      0.961	      0.932	      0.858	      0.035	      0.034	      0.002	
 2018/05/14-15:40	   1.070	   1.070	   1.050	   1.050	           5719	      1.040	      0.966	      0.935	      0.860	      0.034	      0.034	      0.000	
 2018/05/14-15:45	   1.060	   1.060	   1.050	   1.050	           3699	      1.044	      0.971	      0.939	      0.862	      0.033	      0.034	     -0.001	
 2018/05/14-15:50	   1.050	   1.070	   1.050	   1.060	           2539	      1.056	      0.976	      0.941	      0.864	      0.033	      0.034	     -0.001	
 2018/05/14-15:55	   1.060	   1.080	   1.060	   1.070	           8239	      1.060	      0.981	      0.944	      0.866	      0.033	      0.033	     -0.001	
 2018/05/14-16:00	   1.070	   1.220	   1.070	   1.200	          35659	      1.086	      0.991	      0.949	      0.869	      0.043	      0.035	      0.016	
 2018/05/15-09:35	   1.200	   1.240	   1.100	   1.180	          19039	      1.112	      0.999	      0.954	      0.873	      0.049	      0.038	      0.022	
 2018/05/15-09:40	   1.180	   1.190	   1.150	   1.160	           4999	      1.134	      1.008	      0.958	      0.876	      0.051	      0.041	      0.021	
 2018/05/15-09:45	   1.160	   1.190	   1.150	   1.190	           2039	      1.160	      1.017	      0.963	      0.879	      0.055	      0.044	      0.023	
 2018/05/15-09:50	   1.190	   1.260	   1.190	   1.230	          10479	      1.192	      1.027	      0.969	      0.882	      0.061	      0.047	      0.027	
 2018/05/15-09:55	   1.220	   1.220	   1.170	   1.190	           8419	      1.190	      1.036	      0.974	      0.886	      0.061	      0.050	      0.022	
 2018/05/15-10:00	   1.190	   1.250	   1.190	   1.250	          11919	      1.204	      1.047	      0.979	      0.889	      0.065	      0.053	      0.025	
 2018/05/15-10:05	   1.250	   1.350	   1.250	   1.320	          15879	      1.236	      1.060	      0.986	      0.894	      0.074	      0.057	      0.033	
 2018/05/15-10:10	   1.320	   1.390	   1.320	   1.390	          18979	      1.276	      1.074	      0.993	      0.899	      0.085	      0.063	      0.045	
 2018/05/15-10:15	   1.390	   1.410	   1.360	   1.390	          13539	      1.308	      1.087	      1.001	      0.904	      0.093	      0.069	      0.048	
 2018/05/15-10:20	   1.390	   1.450	   1.380	   1.450	          11079	      1.360	      1.102	      1.010	      0.909	      0.103	      0.076	      0.054	
 2018/05/15-10:25	   1.440	   1.600	   1.440	   1.590	          30779	      1.428	      1.122	      1.022	      0.916	      0.120	      0.084	      0.072	
 2018/05/15-10:30	   1.590	   1.750	   1.590	   1.600	          32139	      1.484	      1.141	      1.034	      0.923	      0.134	      0.094	      0.079	
 2018/05/15-10:35	   1.610	   1.690	   1.560	   1.560	          12149	      1.518	      1.160	      1.045	      0.929	      0.139	      0.103	      0.072	
 2018/05/15-10:40	   1.560	   1.560	   1.480	   1.560	           9839	      1.552	      1.178	      1.056	      0.936	      0.142	      0.111	      0.062	
 2018/05/15-10:45	   1.570	   1.650	   1.570	   1.630	           7979	      1.588	      1.199	      1.068	      0.943	      0.149	      0.119	      0.060	
 2018/05/15-10:50	   1.630	   1.630	   1.550	   1.570	           6239	      1.584	      1.217	      1.079	      0.949	      0.147	      0.124	      0.045	
 2018/05/15-10:55	   1.560	   1.570	   1.460	   1.470	           8259	      1.558	      1.230	      1.089	      0.955	      0.136	      0.127	      0.019	
 2018/05/15-11:00	   1.490	   1.540	   1.490	   1.520	           1779	      1.550	      1.244	      1.099	      0.961	      0.130	      0.127	      0.005	
 2018/05/15-11:05	   1.520	   1.520	   1.460	   1.470	           6639	      1.532	      1.257	      1.109	      0.967	      0.120	      0.126	     -0.012	
 2018/05/15-11:10	   1.490	   1.520	   1.490	   1.520	           2319	      1.510	      1.271	      1.119	      0.973	      0.114	      0.123	     -0.018	
 2018/05/15-11:15	   1.520	   1.550	   1.520	   1.530	           2439	      1.502	      1.286	      1.130	      0.979	      0.110	      0.121	     -0.022	
 2018/05/15-11:20	   1.520	   1.540	   1.520	   1.520	            959	      1.512	      1.302	      1.140	      0.986	      0.104	      0.117	     -0.027	
 2018/05/15-11:25	   1.520	   1.530	   1.510	   1.530	           1359	      1.514	      1.316	      1.151	      0.992	      0.099	      0.114	     -0.029	
 2018/05/15-11:30	   1.550	   1.550	   1.550	   1.550	             99	      1.530	      1.332	      1.162	      0.998	      0.096	      0.110	     -0.029	
 2018/05/15-11:35	   1.550	   1.560	   1.550	   1.550	            539	      1.536	      1.348	      1.173	      1.005	      0.092	      0.106	     -0.029	
 2018/05/15-11:40	   1.560	   1.560	   1.490	   1.490	           3759	      1.528	      1.362	      1.183	      1.011	      0.083	      0.102	     -0.037	
 2018/05/15-11:45	   1.490	   1.510	   1.490	   1.510	           2379	      1.526	      1.376	      1.194	      1.017	      0.077	      0.097	     -0.040	
 2018/05/15-11:50	   1.500	   1.530	   1.480	   1.480	           6019	      1.516	      1.389	      1.203	      1.023	      0.069	      0.091	     -0.045	
 2018/05/15-11:55	   1.480	   1.510	   1.480	   1.510	           1439	      1.508	      1.403	      1.214	      1.029	      0.064	      0.086	     -0.044	
 2018/05/15-12:00	   1.510	   1.510	   1.500	   1.500	           1699	      1.498	      1.416	      1.224	      1.035	      0.059	      0.080	     -0.043	
 2018/05/15-13:05	   1.500	   1.500	   1.480	   1.480	           1679	      1.496	      1.429	      1.234	      1.041	      0.052	      0.075	     -0.045	
 2018/05/15-13:10	   1.480	   1.480	   1.470	   1.480	           1439	      1.490	      1.442	      1.243	      1.047	      0.047	      0.069	     -0.045	
 2018/05/15-13:15	   1.480	   1.480	   1.450	   1.450	           2999	      1.484	      1.449	      1.253	      1.053	      0.039	      0.063	     -0.048	
 2018/05/15-13:20	   1.440	   1.450	   1.400	   1.450	           3179	      1.472	      1.457	      1.262	      1.058	      0.033	      0.057	     -0.048	
 2018/05/15-13:25	   1.430	   1.500	   1.430	   1.500	           2199	      1.472	      1.468	      1.271	      1.064	      0.032	      0.052	     -0.040	
 2018/05/15-13:30	   1.500	   1.510	   1.470	   1.470	           1519	      1.470	      1.476	      1.280	      1.070	      0.028	      0.047	     -0.038	
 2018/05/15-13:35	   1.470	   1.470	   1.400	   1.450	           3179	      1.464	      1.483	      1.288	      1.075	      0.023	      0.043	     -0.038	
 2018/05/15-13:40	   1.450	   1.450	   1.410	   1.410	           3219	      1.456	      1.489	      1.296	      1.081	      0.016	      0.037	     -0.042	
 2018/05/15-13:45	   1.410	   1.430	   1.410	   1.410	           1259	      1.448	      1.494	      1.304	      1.086	      0.010	      0.032	     -0.043	
 2018/05/15-13:50	   1.420	   1.450	   1.420	   1.450	            779	      1.438	      1.498	      1.312	      1.092	      0.009	      0.027	     -0.037	
 2018/05/15-13:55	   1.450	   1.450	   1.430	   1.440	            419	      1.432	      1.500	      1.320	      1.097	      0.007	      0.023	     -0.033	
 2018/05/15-14:00	   1.430	   1.430	   1.390	   1.420	           1959	      1.426	      1.501	      1.328	      1.102	      0.003	      0.019	     -0.032	
 2018/05/15-14:05	   1.420	   1.430	   1.400	   1.400	           2119	      1.424	      1.499	      1.335	      1.107	     -0.001	      0.015	     -0.032	
 2018/05/15-14:10	   1.400	   1.400	   1.390	   1.400	            539	      1.422	      1.493	      1.342	      1.113	     -0.004	      0.011	     -0.031	
 2018/05/15-14:15	   1.400	   1.400	   1.400	   1.400	            279	      1.412	      1.487	      1.347	      1.118	     -0.007	      0.008	     -0.029	
 2018/05/15-14:20	   1.400	   1.400	   1.340	   1.340	           2359	      1.392	      1.481	      1.352	      1.122	     -0.013	      0.004	     -0.034	
 2018/05/15-14:25	   1.330	   1.390	   1.330	   1.390	           3019	      1.386	      1.475	      1.358	      1.128	     -0.014	     -0.000	     -0.029	
 2018/05/15-14:30	   1.390	   1.390	   1.380	   1.380	           1999	      1.382	      1.468	      1.363	      1.133	     -0.016	     -0.003	     -0.025	
 2018/05/15-14:35	   1.380	   1.380	   1.380	   1.380	             99	      1.378	      1.462	      1.370	      1.138	     -0.017	     -0.006	     -0.022	
 2018/05/15-14:40	   1.380	   1.390	   1.370	   1.380	           1619	      1.374	      1.459	      1.375	      1.143	     -0.018	     -0.008	     -0.018	
 2018/05/15-14:45	   1.380	   1.380	   1.380	   1.380	           1119	      1.382	      1.455	      1.381	      1.148	     -0.018	     -0.010	     -0.015	
 2018/05/15-14:50	   1.380	   1.380	   1.380	   1.380	              0	      1.380	      1.452	      1.387	      1.153	     -0.018	     -0.012	     -0.012	
 2018/05/15-14:55	   1.390	   1.430	   1.390	   1.400	           3279	      1.384	      1.449	      1.393	      1.158	     -0.016	     -0.013	     -0.007	
 2018/05/15-15:00	   1.390	   1.400	   1.390	   1.390	            999	      1.386	      1.445	      1.399	      1.163	     -0.015	     -0.013	     -0.004	
 2018/05/15-15:05	   1.400	   1.400	   1.400	   1.400	            159	      1.390	      1.441	      1.405	      1.168	     -0.014	     -0.013	     -0.001	
 2018/05/15-15:10	   1.400	   1.400	   1.390	   1.390	            279	      1.392	      1.437	      1.410	      1.173	     -0.013	     -0.013	      0.000	
 2018/05/15-15:15	   1.390	   1.390	   1.350	   1.350	           2999	      1.386	      1.431	      1.415	      1.177	     -0.016	     -0.014	     -0.004	
 2018/05/15-15:20	   1.350	   1.380	   1.340	   1.350	           2419	      1.376	      1.425	      1.420	      1.181	     -0.017	     -0.014	     -0.006	
 2018/05/15-15:25	   1.350	   1.360	   1.350	   1.360	            379	      1.370	      1.421	      1.425	      1.185	     -0.018	     -0.015	     -0.006	
 2018/05/15-15:30	   1.370	   1.370	   1.350	   1.350	            239	      1.360	      1.416	      1.427	      1.188	     -0.019	     -0.016	     -0.006	
 2018/05/15-15:35	   1.360	   1.360	   1.340	   1.340	           3079	      1.350	      1.412	      1.430	      1.192	     -0.020	     -0.017	     -0.007	
 2018/05/15-15:40	   1.340	   1.340	   1.290	   1.290	           2059	      1.338	      1.405	      1.432	      1.195	     -0.025	     -0.018	     -0.013	
 2018/05/15-15:45	   1.290	   1.290	   1.210	   1.240	          15339	      1.316	      1.397	      1.433	      1.198	     -0.032	     -0.021	     -0.022	
 2018/05/15-15:50	   1.230	   1.230	   1.220	   1.220	           5999	      1.288	      1.389	      1.433	      1.201	     -0.039	     -0.025	     -0.029	
 2018/05/15-15:55	   1.220	   1.310	   1.210	   1.310	           5379	      1.280	      1.384	      1.435	      1.204	     -0.037	     -0.027	     -0.020	
 2018/05/15-16:00	   1.300	   1.330	   1.300	   1.320	           4719	      1.276	      1.380	      1.436	      1.208	     -0.034	     -0.029	     -0.011	
数据来源:通达信
